%YAML 1.1
%TAG !u! tag:unity3d.com,2011:
--- !u!114 &11400000
MonoBehaviour:
  m_ObjectHideFlags: 0
  m_PrefabParentObject: {fileID: 0}
  m_PrefabInternal: {fileID: 0}
  m_GameObject: {fileID: 0}
  m_Enabled: 1
  m_EditorHideFlags: 0
  m_Script: {fileID: 11500000, guid: 09ad9ddc0e5b942a98ec392b434d39bd, type: 3}
  m_Name: FabricSettings
  m_EditorClassIdentifier: 
  email: appete.dev@gmail.com
  rawToken: '{"access_token":"9f4115c698c555bc979c6f24007285e9441c8f81d754bb1a2bd65544384d6908","refresh_token":"412e7423c6c2ef721ecdbab7913c14523d9720cf997cc91437d1a117dc6b67c1","token_type":"bearer","expires_in":86400}'
  organization:
    Name: Appete
    Id: 596b77ea3d39a5eeeb00001d
    ApiKey: aa07eea1702ff87a7b4923ae69f91f9b507a262f
    BuildSecret: 45e60f0a9eb8bffc4474ac76c812131ce7cb4df3521b10f253fe27a616644ea6
  iconUrl: https://s3.amazonaws.com/assets.crashlytics.com/production/project/6847155/project_icon/3233288/icon.png
  dashboardUrl: https://www.fabric.io/appete2/android/apps/ir.appete.hezarmoshtan
  initialization: 0
  flowSequence: 0
  conflict: 
  kit: 
  installedKits:
  - Name: Crashlytics
    InstallationStatus: 2
    Installed: 1
    Enabled: 1
    Meta:
    - Key: ConfiguredTimestamp
      Value: 1501394213
      Platform: 
    - Key: Dependencies
      Value: '[{"name":"Crashlytics-Android","version":"2.9.7"},{"name":"Crashlytics-Core-Android","version":"2.6.6"},{"name":"Fabric-Android","version":"1.4.6"},{"name":"Answers-Android","version":"1.4.5"},{"name":"Beta-Android","version":"1.2.10"},{"name":"Crashlytics-iOS","version":"3.12.0"},{"name":"Crashlytics-Wrapper-iOS","version":"0.0.0"},{"name":"Crashlytics-Wrapper-Android","version":"0.0.0"}]'
      Platform: 
