%YAML 1.1
%TAG !u! tag:unity3d.com,2011:
--- !u!74 &7400000
AnimationClip:
  m_ObjectHideFlags: 0
  m_PrefabParentObject: {fileID: 0}
  m_PrefabInternal: {fileID: 0}
  m_Name: Menu - Backdrop Mil Pressed Anim 1 (Legacy)
  serializedVersion: 6
  m_Legacy: 1
  m_Compressed: 0
  m_UseHighQualityCurve: 1
  m_RotationCurves: []
  m_CompressedRotationCurves: []
  m_EulerCurves: []
  m_PositionCurves: []
  m_ScaleCurves:
  - curve:
      serializedVersion: 2
      m_Curve:
      - serializedVersion: 2
        time: 0
        value: {x: 1, y: 1, z: 1}
        inSlope: {x: -0.2792083, y: 0.60000014, z: 0}
        outSlope: {x: -0.2792083, y: 0.60000014, z: 0}
        tangentMode: 0
      - serializedVersion: 2
        time: 0.16666667
        value: {x: 0.9534653, y: 1.1, z: 1}
        inSlope: {x: 0, y: 0, z: 0}
        outSlope: {x: 0, y: 0, z: 0}
        tangentMode: 0
      - serializedVersion: 2
        time: 0.41666666
        value: {x: 1, y: 1.0278788, z: 1}
        inSlope: {x: 0, y: -0.35505888, z: 0}
        outSlope: {x: 0, y: -0.35505888, z: 0}
        tangentMode: 0
      - serializedVersion: 2
        time: 0.55
        value: {x: 1, y: 1, z: 1}
        inSlope: {x: 0, y: 0, z: 0}
        outSlope: {x: 1.1219809, y: -0.5996798, z: 0}
        tangentMode: 0
      - serializedVersion: 2
        time: 0.6
        value: {x: 1.056099, y: 0.970016, z: 1}
        inSlope: {x: 0, y: 0, z: 0}
        outSlope: {x: 0, y: 0, z: 0}
        tangentMode: 0
      - serializedVersion: 2
        time: 0.68333334
        value: {x: 1, y: 1, z: 1}
        inSlope: {x: 0, y: 0, z: 0}
        outSlope: {x: 0, y: 0, z: 0}
        tangentMode: 0
      m_PreInfinity: 2
      m_PostInfinity: 2
      m_RotationOrder: 4
    path: Mil Mover/Mill Actual
  - curve:
      serializedVersion: 2
      m_Curve:
      - serializedVersion: 2
        time: 0
        value: {x: 1.6, y: 0.13, z: 1}
        inSlope: {x: -4.7999997, y: -0.41999996, z: 0}
        outSlope: {x: -4.7999997, y: -0.41999996, z: 0}
        tangentMode: 0
      - serializedVersion: 2
        time: 0.16666667
        value: {x: 0.8, y: 0.06, z: 1}
        inSlope: {x: -1.0136459, y: -0.072994135, z: 0}
        outSlope: {x: -1.0136459, y: -0.072994135, z: 0}
        tangentMode: 0
      - serializedVersion: 2
        time: 0.4
        value: {x: 0.78728956, y: 0.051749174, z: 1}
        inSlope: {x: 0.5267354, y: 0, z: 0}
        outSlope: {x: 0.5267354, y: 0, z: 0}
        tangentMode: 0
      - serializedVersion: 2
        time: 0.55
        value: {x: 1.6, y: 0.13, z: 1}
        inSlope: {x: 5.4180694, y: 0.5216721, z: 0}
        outSlope: {x: -0, y: -0, z: 0}
        tangentMode: 0
      - serializedVersion: 2
        time: 0.6333333
        value: {x: 1.6, y: 0.13, z: 1}
        inSlope: {x: 0, y: 0, z: 0}
        outSlope: {x: 0, y: 0, z: 0}
        tangentMode: 0
      m_PreInfinity: 2
      m_PostInfinity: 2
      m_RotationOrder: 4
    path: Mil Mover//Mill Shadow Holder
  - curve:
      serializedVersion: 2
      m_Curve:
      - serializedVersion: 2
        time: 0
        value: {x: 1, y: 1, z: 1}
        inSlope: {x: -3.6000001, y: -3.1722772, z: 0}
        outSlope: {x: -3.6000001, y: -3.1722772, z: 0}
        tangentMode: 0
      - serializedVersion: 2
        time: 0.16666667
        value: {x: 0.4, y: 0.47128713, z: 1}
        inSlope: {x: -1.0136459, y: -1.0136459, z: 0}
        outSlope: {x: -1.0136459, y: -1.0136459, z: 0}
        tangentMode: 0
      - serializedVersion: 2
        time: 0.41666666
        value: {x: 0.4, y: 0.47128713, z: 1}
        inSlope: {x: 0.5267354, y: 0.5267354, z: 0}
        outSlope: {x: 0.5267354, y: 0.5267354, z: 0}
        tangentMode: 0
      - serializedVersion: 2
        time: 0.55
        value: {x: 1, y: 1, z: 1}
        inSlope: {x: 4.499999, y: 3.9653459, z: 0}
        outSlope: {x: -0, y: -0, z: 0}
        tangentMode: 0
      - serializedVersion: 2
        time: 0.6333333
        value: {x: 1, y: 1, z: 1}
        inSlope: {x: 0, y: 0, z: 0}
        outSlope: {x: 0, y: 0, z: 0}
        tangentMode: 0
      m_PreInfinity: 2
      m_PostInfinity: 2
      m_RotationOrder: 4
    path: Mil Mover/Mill Shadow Holder
  m_FloatCurves:
  - curve:
      serializedVersion: 2
      m_Curve:
      - serializedVersion: 2
        time: 0
        value: 0
        inSlope: Infinity
        outSlope: Infinity
        tangentMode: 103
      - serializedVersion: 2
        time: 0.71666664
        value: 1
        inSlope: Infinity
        outSlope: Infinity
        tangentMode: 103
      - serializedVersion: 2
        time: 0.75000006
        value: 1
        inSlope: Infinity
        outSlope: Infinity
        tangentMode: 103
      m_PreInfinity: 2
      m_PostInfinity: 2
      m_RotationOrder: 4
    attribute: m_IsActive
    path: Backdrop Button
    classID: 1
    script: {fileID: 0}
  - curve:
      serializedVersion: 2
      m_Curve:
      - serializedVersion: 2
        time: 0
        value: 0
        inSlope: 156.93068
        outSlope: 156.93068
        tangentMode: 34
      - serializedVersion: 2
        time: 0.16666667
        value: 26.155115
        inSlope: 61.350746
        outSlope: 61.350746
        tangentMode: 0
      - serializedVersion: 2
        time: 0.41666666
        value: 29.698256
        inSlope: -31.624
        outSlope: -31.624
        tangentMode: 0
      - serializedVersion: 2
        time: 0.55
        value: 0
        inSlope: -222.73688
        outSlope: -52.328457
        tangentMode: 69
      - serializedVersion: 2
        time: 0.6166667
        value: -3.4885635
        inSlope: 0
        outSlope: 0
        tangentMode: 0
      - serializedVersion: 2
        time: 0.68333334
        value: 0
        inSlope: 0
        outSlope: 0
        tangentMode: 1
      m_PreInfinity: 2
      m_PostInfinity: 2
      m_RotationOrder: 4
    attribute: m_AnchoredPosition.y
    path: Mil Mover/Mill Actual
    classID: 224
    script: {fileID: 0}
  m_PPtrCurves: []
  m_SampleRate: 60
  m_WrapMode: 0
  m_Bounds:
    m_Center: {x: 0, y: 0, z: 0}
    m_Extent: {x: 0, y: 0, z: 0}
  m_ClipBindingConstant:
    genericBindings: []
    pptrCurveMapping: []
  m_AnimationClipSettings:
    serializedVersion: 2
    m_AdditiveReferencePoseClip: {fileID: 0}
    m_AdditiveReferencePoseTime: 0
    m_StartTime: 0
    m_StopTime: 0.75000006
    m_OrientationOffsetY: 0
    m_Level: 0
    m_CycleOffset: 0
    m_HasAdditiveReferencePose: 0
    m_LoopTime: 1
    m_LoopBlend: 0
    m_LoopBlendOrientation: 0
    m_LoopBlendPositionY: 0
    m_LoopBlendPositionXZ: 0
    m_KeepOriginalOrientation: 0
    m_KeepOriginalPositionY: 1
    m_KeepOriginalPositionXZ: 0
    m_HeightFromFeet: 0
    m_Mirror: 0
  m_EditorCurves:
  - curve:
      serializedVersion: 2
      m_Curve:
      - serializedVersion: 2
        time: 0
        value: 0
        inSlope: Infinity
        outSlope: Infinity
        tangentMode: 103
      - serializedVersion: 2
        time: 0.71666664
        value: 1
        inSlope: Infinity
        outSlope: Infinity
        tangentMode: 103
      - serializedVersion: 2
        time: 0.75000006
        value: 1
        inSlope: Infinity
        outSlope: Infinity
        tangentMode: 103
      m_PreInfinity: 2
      m_PostInfinity: 2
      m_RotationOrder: 4
    attribute: m_IsActive
    path: Backdrop Button
    classID: 1
    script: {fileID: 0}
  - curve:
      serializedVersion: 2
      m_Curve:
      - serializedVersion: 2
        time: 0
        value: 1
        inSlope: -0.2792083
        outSlope: -0.2792083
        tangentMode: 34
      - serializedVersion: 2
        time: 0.16666667
        value: 0.9534653
        inSlope: 0
        outSlope: 0
        tangentMode: 0
      - serializedVersion: 2
        time: 0.41666666
        value: 1
        inSlope: 0
        outSlope: 0
        tangentMode: 0
      - serializedVersion: 2
        time: 0.55
        value: 1
        inSlope: 0
        outSlope: 1.1219809
        tangentMode: 65
      - serializedVersion: 2
        time: 0.6
        value: 1.056099
        inSlope: 0
        outSlope: 0
        tangentMode: 0
      - serializedVersion: 2
        time: 0.68333334
        value: 1
        inSlope: 0
        outSlope: 0
        tangentMode: 0
      m_PreInfinity: 2
      m_PostInfinity: 2
      m_RotationOrder: 4
    attribute: m_LocalScale.x
    path: Mil Mover/Mill Actual
    classID: 224
    script: {fileID: 0}
  - curve:
      serializedVersion: 2
      m_Curve:
      - serializedVersion: 2
        time: 0
        value: 1
        inSlope: 0.60000014
        outSlope: 0.60000014
        tangentMode: 34
      - serializedVersion: 2
        time: 0.16666667
        value: 1.1
        inSlope: 0
        outSlope: 0
        tangentMode: 0
      - serializedVersion: 2
        time: 0.55
        value: 1
        inSlope: 0
        outSlope: -0.5996798
        tangentMode: 65
      - serializedVersion: 2
        time: 0.6
        value: 0.970016
        inSlope: 0
        outSlope: 0
        tangentMode: 0
      - serializedVersion: 2
        time: 0.68333334
        value: 1
        inSlope: 0
        outSlope: 0
        tangentMode: 0
      m_PreInfinity: 2
      m_PostInfinity: 2
      m_RotationOrder: 4
    attribute: m_LocalScale.y
    path: Mil Mover/Mill Actual
    classID: 224
    script: {fileID: 0}
  - curve:
      serializedVersion: 2
      m_Curve:
      - serializedVersion: 2
        time: 0
        value: 1
        inSlope: 0
        outSlope: 0
        tangentMode: 34
      m_PreInfinity: 2
      m_PostInfinity: 2
      m_RotationOrder: 4
    attribute: m_LocalScale.z
    path: Mil Mover/Mill Actual
    classID: 224
    script: {fileID: 0}
  - curve:
      serializedVersion: 2
      m_Curve:
      - serializedVersion: 2
        time: 0
        value: 0
        inSlope: 156.93068
        outSlope: 156.93068
        tangentMode: 34
      - serializedVersion: 2
        time: 0.16666667
        value: 26.155115
        inSlope: 61.350746
        outSlope: 61.350746
        tangentMode: 0
      - serializedVersion: 2
        time: 0.41666666
        value: 29.698256
        inSlope: -31.624
        outSlope: -31.624
        tangentMode: 0
      - serializedVersion: 2
        time: 0.55
        value: 0
        inSlope: -222.73688
        outSlope: -52.328457
        tangentMode: 69
      - serializedVersion: 2
        time: 0.6166667
        value: -3.4885635
        inSlope: 0
        outSlope: 0
        tangentMode: 0
      - serializedVersion: 2
        time: 0.68333334
        value: 0
        inSlope: 0
        outSlope: 0
        tangentMode: 1
      m_PreInfinity: 2
      m_PostInfinity: 2
      m_RotationOrder: 4
    attribute: m_AnchoredPosition.y
    path: Mil Mover/Mill Actual
    classID: 224
    script: {fileID: 0}
  - curve:
      serializedVersion: 2
      m_Curve:
      - serializedVersion: 2
        time: 0
        value: 1.6
        inSlope: -4.7999997
        outSlope: -4.7999997
        tangentMode: 34
      - serializedVersion: 2
        time: 0.16666667
        value: 0.8
        inSlope: -1.0136459
        outSlope: -1.0136459
        tangentMode: 0
      - serializedVersion: 2
        time: 0.4
        value: 0.78728956
        inSlope: 0.5267354
        outSlope: 0.5267354
        tangentMode: 0
      - serializedVersion: 2
        time: 0.55
        value: 1.6
        inSlope: 5.4180694
        outSlope: -0
        tangentMode: 69
      - serializedVersion: 2
        time: 0.6333333
        value: 1.6
        inSlope: 0
        outSlope: 0
        tangentMode: 69
      m_PreInfinity: 2
      m_PostInfinity: 2
      m_RotationOrder: 4
    attribute: m_LocalScale.x
    path: Mil Mover//Mill Shadow Holder
    classID: 224
    script: {fileID: 0}
  - curve:
      serializedVersion: 2
      m_Curve:
      - serializedVersion: 2
        time: 0
        value: 0.13
        inSlope: -0.41999996
        outSlope: -0.41999996
        tangentMode: 34
      - serializedVersion: 2
        time: 0.16666667
        value: 0.06
        inSlope: -0.072994135
        outSlope: -0.072994135
        tangentMode: 0
      - serializedVersion: 2
        time: 0.4
        value: 0.051749174
        inSlope: 0
        outSlope: 0
        tangentMode: 0
      - serializedVersion: 2
        time: 0.55
        value: 0.13
        inSlope: 0.5216721
        outSlope: -0
        tangentMode: 69
      - serializedVersion: 2
        time: 0.6333333
        value: 0.13
        inSlope: 0
        outSlope: 0
        tangentMode: 69
      m_PreInfinity: 2
      m_PostInfinity: 2
      m_RotationOrder: 4
    attribute: m_LocalScale.y
    path: Mil Mover//Mill Shadow Holder
    classID: 224
    script: {fileID: 0}
  - curve:
      serializedVersion: 2
      m_Curve:
      - serializedVersion: 2
        time: 0
        value: 1
        inSlope: 0
        outSlope: 0
        tangentMode: 34
      m_PreInfinity: 2
      m_PostInfinity: 2
      m_RotationOrder: 4
    attribute: m_LocalScale.z
    path: Mil Mover//Mill Shadow Holder
    classID: 224
    script: {fileID: 0}
  - curve:
      serializedVersion: 2
      m_Curve:
      - serializedVersion: 2
        time: 0
        value: 1
        inSlope: -3.6000001
        outSlope: -3.6000001
        tangentMode: 34
      - serializedVersion: 2
        time: 0.16666667
        value: 0.4
        inSlope: -1.0136459
        outSlope: -1.0136459
        tangentMode: 0
      - serializedVersion: 2
        time: 0.41666666
        value: 0.4
        inSlope: 0.5267354
        outSlope: 0.5267354
        tangentMode: 0
      - serializedVersion: 2
        time: 0.55
        value: 1
        inSlope: 4.499999
        outSlope: -0
        tangentMode: 69
      - serializedVersion: 2
        time: 0.6333333
        value: 1
        inSlope: 0
        outSlope: 0
        tangentMode: 69
      m_PreInfinity: 2
      m_PostInfinity: 2
      m_RotationOrder: 4
    attribute: m_LocalScale.x
    path: Mil Mover/Mill Shadow Holder
    classID: 224
    script: {fileID: 0}
  - curve:
      serializedVersion: 2
      m_Curve:
      - serializedVersion: 2
        time: 0
        value: 1
        inSlope: -3.1722772
        outSlope: -3.1722772
        tangentMode: 34
      - serializedVersion: 2
        time: 0.16666667
        value: 0.47128713
        inSlope: -1.0136459
        outSlope: -1.0136459
        tangentMode: 0
      - serializedVersion: 2
        time: 0.41666666
        value: 0.47128713
        inSlope: 0.5267354
        outSlope: 0.5267354
        tangentMode: 0
      - serializedVersion: 2
        time: 0.55
        value: 1
        inSlope: 3.9653459
        outSlope: -0
        tangentMode: 69
      - serializedVersion: 2
        time: 0.6333333
        value: 1
        inSlope: 0
        outSlope: 0
        tangentMode: 69
      m_PreInfinity: 2
      m_PostInfinity: 2
      m_RotationOrder: 4
    attribute: m_LocalScale.y
    path: Mil Mover/Mill Shadow Holder
    classID: 224
    script: {fileID: 0}
  - curve:
      serializedVersion: 2
      m_Curve:
      - serializedVersion: 2
        time: 0
        value: 1
        inSlope: 0
        outSlope: 0
        tangentMode: 34
      m_PreInfinity: 2
      m_PostInfinity: 2
      m_RotationOrder: 4
    attribute: m_LocalScale.z
    path: Mil Mover/Mill Shadow Holder
    classID: 224
    script: {fileID: 0}
  m_EulerEditorCurves: []
  m_HasGenericRootTransform: 0
  m_HasMotionFloatCurves: 0
  m_GenerateMotionCurves: 0
  m_Events:
  - time: 0.53333336
    functionName: UniqueEffect_MilHit
    data: 
    objectReferenceParameter: {fileID: 0}
    floatParameter: 0
    intParameter: 0
    messageOptions: 0
