%YAML 1.1
%TAG !u! tag:unity3d.com,2011:
--- !u!74 &7400000
AnimationClip:
  m_ObjectHideFlags: 0
  m_PrefabParentObject: {fileID: 0}
  m_PrefabInternal: {fileID: 0}
  m_Name: Tutorial 1-7 Anim 1 (V & ^) (Legacy)
  serializedVersion: 6
  m_Legacy: 1
  m_Compressed: 0
  m_UseHighQualityCurve: 1
  m_RotationCurves: []
  m_CompressedRotationCurves: []
  m_EulerCurves:
  - curve:
      serializedVersion: 2
      m_Curve:
      - serializedVersion: 2
        time: 0
        value: {x: 0, y: 0, z: 0}
        inSlope: {x: 0, y: 0, z: 0}
        outSlope: {x: 0, y: 0, z: -0}
        tangentMode: 0
      - serializedVersion: 2
        time: 2.75
        value: {x: 0, y: 0, z: 0}
        inSlope: {x: 0, y: 0, z: 0}
        outSlope: {x: 0, y: 0, z: 652.55896}
        tangentMode: 0
      - serializedVersion: 2
        time: 2.7666667
        value: {x: 0, y: 0, z: 10.875973}
        inSlope: {x: 0, y: 0, z: 652.55896}
        outSlope: {x: 0, y: 0, z: -308.78064}
        tangentMode: 0
      - serializedVersion: 2
        time: 2.7833333
        value: {x: 0, y: 0, z: 5.7296343}
        inSlope: {x: 0, y: 0, z: -308.78067}
        outSlope: {x: 0, y: 0, z: -308.78067}
        tangentMode: 0
      - serializedVersion: 2
        time: 2.8333333
        value: {x: 0, y: 0, z: -9.709384}
        inSlope: {x: 0, y: 0, z: -308.78064}
        outSlope: {x: 0, y: 0, z: 518.18756}
        tangentMode: 0
      - serializedVersion: 2
        time: 2.8666666
        value: {x: 0, y: 0, z: 7.563519}
        inSlope: {x: 0, y: 0, z: 518.18756}
        outSlope: {x: 0, y: 0, z: -311.44852}
        tangentMode: 0
      - serializedVersion: 2
        time: 2.9166665
        value: {x: 0, y: 0, z: -8.008892}
        inSlope: {x: 0, y: 0, z: -311.44852}
        outSlope: {x: 0, y: 0, z: 239.93352}
        tangentMode: 0
      - serializedVersion: 2
        time: 2.9499998
        value: {x: 0, y: 0, z: -0.011115973}
        inSlope: {x: 0, y: 0, z: 239.93352}
        outSlope: {x: 0, y: 0, z: 0}
        tangentMode: 0
      - serializedVersion: 2
        time: 3.0333333
        value: {x: 0, y: 0, z: -0.011115973}
        inSlope: {x: 0, y: 0, z: 0}
        outSlope: {x: 0, y: 0, z: 0}
        tangentMode: 0
      m_PreInfinity: 2
      m_PostInfinity: 2
      m_RotationOrder: 4
    path: Tutorial Back Art/Tutorial Content/Tutorial Enemy Sample Parent/Enemy Canvas/Enemy
      HP Parent
  - curve:
      serializedVersion: 2
      m_Curve:
      - serializedVersion: 2
        time: 0
        value: {x: 0, y: 0, z: -20}
        inSlope: {x: 0, y: 0, z: 0}
        outSlope: {x: 0, y: 0, z: -0}
        tangentMode: 0
      - serializedVersion: 2
        time: 0.76666665
        value: {x: 0, y: 0, z: -20}
        inSlope: {x: 0, y: 0, z: 0}
        outSlope: {x: 0, y: 0, z: 36.36364}
        tangentMode: 0
      - serializedVersion: 2
        time: 1.3166666
        value: {x: 0, y: 0, z: 0}
        inSlope: {x: 0, y: 0, z: 36.36364}
        outSlope: {x: 0, y: 0, z: -0}
        tangentMode: 0
      - serializedVersion: 2
        time: 2.1666667
        value: {x: 0, y: 0, z: 0}
        inSlope: {x: 0, y: 0, z: 0}
        outSlope: {x: 0, y: 0, z: -27.674686}
        tangentMode: 0
      - serializedVersion: 2
        time: 2.5
        value: {x: 0, y: 0, z: -9.224894}
        inSlope: {x: 0, y: 0, z: 0}
        outSlope: {x: 0, y: 0, z: 0}
        tangentMode: 0
      - serializedVersion: 2
        time: 2.8333333
        value: {x: 0, y: 0, z: 0}
        inSlope: {x: 0, y: 0, z: 27.674686}
        outSlope: {x: 0, y: 0, z: -0}
        tangentMode: 0
      - serializedVersion: 2
        time: 3.75
        value: {x: 0, y: 0, z: 0}
        inSlope: {x: 0, y: 0, z: 0}
        outSlope: {x: 0, y: 0, z: -2.9144423}
        tangentMode: 0
      - serializedVersion: 2
        time: 4.5
        value: {x: 0, y: 0, z: -13.008595}
        inSlope: {x: 0, y: 0, z: -17.344793}
        outSlope: {x: 0, y: 0, z: 0}
        tangentMode: 0
      - serializedVersion: 2
        time: 5
        value: {x: 0, y: 0, z: -13.008595}
        inSlope: {x: 0, y: 0, z: 0}
        outSlope: {x: 0, y: 0, z: 0}
        tangentMode: 0
      m_PreInfinity: 2
      m_PostInfinity: 2
      m_RotationOrder: 4
    path: Tutorial Back Art/Tutorial Content/Tutorial Arm
  m_PositionCurves: []
  m_ScaleCurves:
  - curve:
      serializedVersion: 2
      m_Curve:
      - serializedVersion: 2
        time: 0
        value: {x: 0, y: 0, z: 0}
        inSlope: {x: 0, y: 0, z: 0}
        outSlope: {x: 0, y: 0, z: 0}
        tangentMode: 0
      - serializedVersion: 2
        time: 0.08333334
        value: {x: 0, y: 0, z: 0}
        inSlope: {x: 0, y: 0, z: 0}
        outSlope: {x: 1.4947274, y: 1.4947274, z: 1.4947274}
        tangentMode: 0
      - serializedVersion: 2
        time: 0.38333333
        value: {x: 0.4484182, y: 0.4484182, z: 0.4484182}
        inSlope: {x: 0, y: 0, z: 0}
        outSlope: {x: 0, y: 0, z: 0}
        tangentMode: 0
      - serializedVersion: 2
        time: 0.48333332
        value: {x: 0.40720674, y: 0.40720674, z: 0.40720674}
        inSlope: {x: 0, y: 0, z: 0}
        outSlope: {x: 0, y: 0, z: 0}
        tangentMode: 0
      - serializedVersion: 2
        time: 0.6
        value: {x: 0.425107, y: 0.425107, z: 0.425107}
        inSlope: {x: 0, y: 0, z: 0}
        outSlope: {x: 0, y: 0, z: 0}
        tangentMode: 0
      - serializedVersion: 2
        time: 1.5
        value: {x: 0.425107, y: 0.425107, z: 0.425107}
        inSlope: {x: 0, y: 0, z: 0}
        outSlope: {x: 0, y: 0, z: 0}
        tangentMode: 0
      - serializedVersion: 2
        time: 4.4166665
        value: {x: 0.425107, y: 0.425107, z: 0.425107}
        inSlope: {x: 0, y: 0, z: 0}
        outSlope: {x: 0, y: 0, z: 0}
        tangentMode: 0
      - serializedVersion: 2
        time: 4.433333
        value: {x: 0.44528854, y: 0.4052395, z: 0.425107}
        inSlope: {x: 2.075851, y: -2.0435505, z: 0}
        outSlope: {x: 2.075851, y: -2.0435505, z: -0}
        tangentMode: 0
      - serializedVersion: 2
        time: 4.466666
        value: {x: 0.5029513, y: 0.34847394, z: 0.425107}
        inSlope: {x: 0, y: 0, z: 0}
        outSlope: {x: 0, y: 0, z: -0}
        tangentMode: 0
      - serializedVersion: 2
        time: 4.533333
        value: {x: 0.46663922, y: 0.38422102, z: 0.425107}
        inSlope: {x: -0.8714917, y: 0.85793144, z: 0}
        outSlope: {x: -0.8714917, y: 0.85793144, z: -0}
        tangentMode: 0
      - serializedVersion: 2
        time: 4.583333
        value: {x: 0.425107, y: 0.425107, z: 0.425107}
        inSlope: {x: -0.6672363, y: 0.65685415, z: 0}
        outSlope: {x: 1.2676066, y: -1.4170225, z: 0}
        tangentMode: 0
      - serializedVersion: 2
        time: 4.883333
        value: {x: 0.8053892, y: 0, z: 0.425107}
        inSlope: {x: 0, y: 0, z: 0}
        outSlope: {x: 0, y: 0, z: 0}
        tangentMode: 0
      m_PreInfinity: 2
      m_PostInfinity: 2
      m_RotationOrder: 4
    path: Tutorial Back Art/Tutorial Content/Tutorial Enemy Sample Parent
  - curve:
      serializedVersion: 2
      m_Curve:
      - serializedVersion: 2
        time: 0
        value: {x: 0, y: 0, z: 0}
        inSlope: {x: 0, y: 0, z: 0}
        outSlope: {x: 0, y: 0, z: 0}
        tangentMode: 0
      - serializedVersion: 2
        time: 0.5
        value: {x: 0, y: 0, z: 0}
        inSlope: {x: 0, y: 0, z: 0}
        outSlope: {x: 3.8326206, y: 3.8326206, z: 3.8326206}
        tangentMode: 0
      - serializedVersion: 2
        time: 0.79999995
        value: {x: 1.149786, y: 1.149786, z: 1.149786}
        inSlope: {x: 0, y: 0, z: 0}
        outSlope: {x: 0, y: 0, z: 0}
        tangentMode: 0
      - serializedVersion: 2
        time: 0.9166666
        value: {x: 0.9232994, y: 0.9232994, z: 0.9232994}
        inSlope: {x: 0, y: 0, z: 0}
        outSlope: {x: 0, y: 0, z: 0}
        tangentMode: 0
      - serializedVersion: 2
        time: 1.0666667
        value: {x: 1, y: 1, z: 1}
        inSlope: {x: 0, y: 0, z: 0}
        outSlope: {x: 0, y: 0, z: 0}
        tangentMode: 0
      - serializedVersion: 2
        time: 1.5
        value: {x: 1, y: 1, z: 1}
        inSlope: {x: 0, y: 0, z: 0}
        outSlope: {x: 0, y: 0, z: 0}
        tangentMode: 0
      - serializedVersion: 2
        time: 4.633333
        value: {x: 1, y: 1, z: 1}
        inSlope: {x: 0, y: 0, z: 0}
        outSlope: {x: 0, y: 0, z: 0}
        tangentMode: 0
      - serializedVersion: 2
        time: 4.866667
        value: {x: 0, y: 0, z: 0}
        inSlope: {x: -4.2857094, y: -4.2857094, z: -4.2857094}
        outSlope: {x: -0, y: -0, z: -0}
        tangentMode: 0
      - serializedVersion: 2
        time: 5
        value: {x: 0, y: 0, z: 0}
        inSlope: {x: 0, y: 0, z: 0}
        outSlope: {x: 0, y: 0, z: 0}
        tangentMode: 0
      m_PreInfinity: 2
      m_PostInfinity: 2
      m_RotationOrder: 4
    path: Tutorial Back Art/Tutorial Content/Tutorial Enemy Sample Parent/Enemy Canvas/Enemy
      HP Parent
  - curve:
      serializedVersion: 2
      m_Curve:
      - serializedVersion: 2
        time: 0
        value: {x: 3.8502994, y: 3.8502994, z: 3.8502994}
        inSlope: {x: 0, y: 0, z: 0}
        outSlope: {x: -0, y: -0, z: -0}
        tangentMode: 0
      - serializedVersion: 2
        time: 0.34999996
        value: {x: 3.8502994, y: 3.8502994, z: 3.8502994}
        inSlope: {x: 0, y: 0, z: 0}
        outSlope: {x: -1.16501, y: -1.16501, z: -1.16501}
        tangentMode: 0
      - serializedVersion: 2
        time: 0.91666675
        value: {x: 3.190127, y: 3.190127, z: 3.190127}
        inSlope: {x: -2.0701642, y: -2.0701642, z: -2.0701642}
        outSlope: {x: -2.0701642, y: -2.0701642, z: -2.0701642}
        tangentMode: 0
      - serializedVersion: 2
        time: 1.3166666
        value: {x: 2, y: 2, z: 2}
        inSlope: {x: -2.9753182, y: -2.9753182, z: -2.9753182}
        outSlope: {x: 0, y: 0, z: 0}
        tangentMode: 0
      - serializedVersion: 2
        time: 2.1666667
        value: {x: 2, y: 2, z: 2}
        inSlope: {x: 0, y: 0, z: 0}
        outSlope: {x: 1.5982772, y: 1.5982772, z: 1.5982772}
        tangentMode: 0
      - serializedVersion: 2
        time: 2.5
        value: {x: 2.532759, y: 2.532759, z: 2.532759}
        inSlope: {x: 0, y: 0, z: 0}
        outSlope: {x: 0, y: 0, z: 0}
        tangentMode: 0
      - serializedVersion: 2
        time: 2.8333333
        value: {x: 2, y: 2, z: 2}
        inSlope: {x: -1.5982772, y: -1.5982772, z: -1.5982772}
        outSlope: {x: -0, y: -0, z: -0}
        tangentMode: 0
      - serializedVersion: 2
        time: 3.75
        value: {x: 2, y: 2, z: 2}
        inSlope: {x: 0, y: 0, z: 0}
        outSlope: {x: 0, y: 0, z: 0}
        tangentMode: 0
      - serializedVersion: 2
        time: 4.25
        value: {x: 3.0709467, y: 3.0709467, z: 3.0709467}
        inSlope: {x: 0, y: 0, z: 0}
        outSlope: {x: 0, y: 0, z: 0}
        tangentMode: 0
      m_PreInfinity: 2
      m_PostInfinity: 2
      m_RotationOrder: 4
    path: Tutorial Back Art/Tutorial Content/Tutorial Arm
  - curve:
      serializedVersion: 2
      m_Curve:
      - serializedVersion: 2
        time: 0
        value: {x: 0, y: 0, z: 0}
        inSlope: {x: 0, y: 0, z: 0}
        outSlope: {x: 0, y: 0, z: 0}
        tangentMode: 0
      - serializedVersion: 2
        time: 2.1500003
        value: {x: 0, y: 0, z: 0}
        inSlope: {x: 0, y: 0, z: 0}
        outSlope: {x: 5.784251, y: 5.784251, z: 5.784251}
        tangentMode: 0
      - serializedVersion: 2
        time: 2.3333335
        value: {x: 1.0604451, y: 1.0604451, z: 1.0604451}
        inSlope: {x: 0, y: 0, z: 0}
        outSlope: {x: 0, y: 0, z: 0}
        tangentMode: 0
      - serializedVersion: 2
        time: 2.4
        value: {x: 1, y: 1, z: 1}
        inSlope: {x: 0, y: 0, z: 0}
        outSlope: {x: 0, y: 0, z: 0}
        tangentMode: 0
      - serializedVersion: 2
        time: 2.4333336
        value: {x: 1, y: 1, z: 1}
        inSlope: {x: 0, y: 0, z: 0}
        outSlope: {x: 0, y: 0, z: 0}
        tangentMode: 0
      - serializedVersion: 2
        time: 2.8166666
        value: {x: 0.3, y: 0.3, z: 0.3}
        inSlope: {x: 0, y: 0, z: 0}
        outSlope: {x: 0, y: 0, z: 0}
        tangentMode: 0
      m_PreInfinity: 2
      m_PostInfinity: 2
      m_RotationOrder: 4
    path: Tutorial Back Art/Tutorial Content/Tutorial Other Stuff/Arrow (V)/Arrow
      Actual
  - curve:
      serializedVersion: 2
      m_Curve:
      - serializedVersion: 2
        time: 0
        value: {x: 0, y: 0, z: 0}
        inSlope: {x: 0, y: 0, z: 0}
        outSlope: {x: 0, y: 0, z: 0}
        tangentMode: 0
      - serializedVersion: 2
        time: 3.65
        value: {x: 0, y: 0, z: 0}
        inSlope: {x: 0, y: 0, z: 0}
        outSlope: {x: 5.784251, y: 5.784251, z: 5.784251}
        tangentMode: 0
      - serializedVersion: 2
        time: 3.8333333
        value: {x: 1.0604451, y: 1.0604451, z: 1.0604451}
        inSlope: {x: 0, y: 0, z: 0}
        outSlope: {x: 0, y: 0, z: 0}
        tangentMode: 0
      - serializedVersion: 2
        time: 3.8999999
        value: {x: 1, y: 1, z: 1}
        inSlope: {x: 0, y: 0, z: 0}
        outSlope: {x: 0, y: 0, z: 0}
        tangentMode: 0
      - serializedVersion: 2
        time: 3.9333334
        value: {x: 1, y: 1, z: 1}
        inSlope: {x: 0, y: 0, z: 0}
        outSlope: {x: 0, y: 0, z: 0}
        tangentMode: 0
      - serializedVersion: 2
        time: 4.316667
        value: {x: 0.3, y: 0.3, z: 0.3}
        inSlope: {x: 0, y: 0, z: 0}
        outSlope: {x: 0, y: 0, z: 0}
        tangentMode: 0
      m_PreInfinity: 2
      m_PostInfinity: 2
      m_RotationOrder: 4
    path: Tutorial Back Art/Tutorial Content/Tutorial Other Stuff/Arrow (V2)/Arrow
      Actual
  m_FloatCurves:
  - curve:
      serializedVersion: 2
      m_Curve:
      - serializedVersion: 2
        time: 0
        value: 0
        inSlope: Infinity
        outSlope: Infinity
        tangentMode: 103
      - serializedVersion: 2
        time: 0.25
        value: 1
        inSlope: Infinity
        outSlope: Infinity
        tangentMode: 103
      - serializedVersion: 2
        time: 0.9333334
        value: 1
        inSlope: Infinity
        outSlope: Infinity
        tangentMode: 103
      - serializedVersion: 2
        time: 1
        value: 1
        inSlope: Infinity
        outSlope: Infinity
        tangentMode: 103
      m_PreInfinity: 2
      m_PostInfinity: 2
      m_RotationOrder: 4
    attribute: m_IsActive
    path: Tutorial Back Art/Tutorial Content/Tutorial Arm
    classID: 1
    script: {fileID: 0}
  - curve:
      serializedVersion: 2
      m_Curve:
      - serializedVersion: 2
        time: 0
        value: 1077.1023
        inSlope: 0
        outSlope: 0
        tangentMode: 0
      - serializedVersion: 2
        time: 0.25
        value: 1077.1023
        inSlope: 0
        outSlope: 0
        tangentMode: 0
      - serializedVersion: 2
        time: 1.3166666
        value: 414.4765
        inSlope: -735.5837
        outSlope: -70.01563
        tangentMode: 1
      - serializedVersion: 2
        time: 2.1666667
        value: 248.10757
        inSlope: -78.78868
        outSlope: -215.14307
        tangentMode: 65
      - serializedVersion: 2
        time: 2.5
        value: 176.39323
        inSlope: 0
        outSlope: 0
        tangentMode: 1
      - serializedVersion: 2
        time: 2.8333333
        value: 248.10757
        inSlope: 0
        outSlope: 0
        tangentMode: 0
      - serializedVersion: 2
        time: 3.75
        value: 414.4765
        inSlope: 0
        outSlope: 0
        tangentMode: 0
      - serializedVersion: 2
        time: 4.0333333
        value: 534.05054
        inSlope: 729.61945
        outSlope: 729.61945
        tangentMode: 0
      - serializedVersion: 2
        time: 4.683333
        value: 800.87335
        inSlope: 0
        outSlope: 0
        tangentMode: 1
      m_PreInfinity: 2
      m_PostInfinity: 2
      m_RotationOrder: 4
    attribute: m_AnchoredPosition.x
    path: Tutorial Back Art/Tutorial Content/Tutorial Arm
    classID: 224
    script: {fileID: 0}
  - curve:
      serializedVersion: 2
      m_Curve:
      - serializedVersion: 2
        time: 0
        value: -952.66724
        inSlope: 0
        outSlope: 0
        tangentMode: 34
      - serializedVersion: 2
        time: 0.25
        value: -952.66724
        inSlope: 0
        outSlope: 796.9008
        tangentMode: 69
      - serializedVersion: 2
        time: 1.2333335
        value: -169.04797
        inSlope: 0
        outSlope: 0
        tangentMode: 0
      - serializedVersion: 2
        time: 1.3166667
        value: -169.04797
        inSlope: 0
        outSlope: -303.33325
        tangentMode: 65
      - serializedVersion: 2
        time: 1.75
        value: -300.49237
        inSlope: 0
        outSlope: 0
        tangentMode: 0
      - serializedVersion: 2
        time: 2.1666667
        value: -169.04797
        inSlope: 315.4665
        outSlope: -592.83374
        tangentMode: 69
      - serializedVersion: 2
        time: 2.5
        value: -366.65918
        inSlope: 0
        outSlope: 0
        tangentMode: 0
      - serializedVersion: 2
        time: 2.8333333
        value: -169.04797
        inSlope: -66.30678
        outSlope: -303.33334
        tangentMode: 65
      - serializedVersion: 2
        time: 3.2666664
        value: -300.49237
        inSlope: 0
        outSlope: 0
        tangentMode: 0
      - serializedVersion: 2
        time: 3.75
        value: -169.04797
        inSlope: 0
        outSlope: 0
        tangentMode: 0
      - serializedVersion: 2
        time: 4.0333333
        value: -220.59532
        inSlope: -631.6762
        outSlope: -631.6762
        tangentMode: 0
      - serializedVersion: 2
        time: 4.683333
        value: -923.51825
        inSlope: 0
        outSlope: 0
        tangentMode: 1
      m_PreInfinity: 2
      m_PostInfinity: 2
      m_RotationOrder: 4
    attribute: m_AnchoredPosition.y
    path: Tutorial Back Art/Tutorial Content/Tutorial Arm
    classID: 224
    script: {fileID: 0}
  - curve:
      serializedVersion: 2
      m_Curve:
      - serializedVersion: 2
        time: 0
        value: 1
        inSlope: Infinity
        outSlope: Infinity
        tangentMode: 103
      - serializedVersion: 2
        time: 4.8333335
        value: 0
        inSlope: Infinity
        outSlope: Infinity
        tangentMode: 103
      m_PreInfinity: 2
      m_PostInfinity: 2
      m_RotationOrder: 4
    attribute: m_IsActive
    path: Tutorial Back Art/Tutorial Content/Tutorial Enemy Sample Parent
    classID: 1
    script: {fileID: 0}
  - curve:
      serializedVersion: 2
      m_Curve:
      - serializedVersion: 2
        time: 0
        value: -152
        inSlope: 0
        outSlope: -0
        tangentMode: 65
      - serializedVersion: 2
        time: 0.33333328
        value: -152
        inSlope: 0
        outSlope: 0
        tangentMode: 0
      - serializedVersion: 2
        time: 0.83333325
        value: -140
        inSlope: 0
        outSlope: 0
        tangentMode: 0
      - serializedVersion: 2
        time: 1.3333333
        value: -152
        inSlope: 0
        outSlope: 0
        tangentMode: 0
      - serializedVersion: 2
        time: 1.8333333
        value: -140
        inSlope: 0
        outSlope: 0
        tangentMode: 0
      - serializedVersion: 2
        time: 2.3333333
        value: -152
        inSlope: 0
        outSlope: 0
        tangentMode: 0
      - serializedVersion: 2
        time: 2.8333333
        value: -140
        inSlope: 0
        outSlope: 0
        tangentMode: 0
      - serializedVersion: 2
        time: 3.3333333
        value: -152
        inSlope: 0
        outSlope: 0
        tangentMode: 0
      - serializedVersion: 2
        time: 3.8333333
        value: -140
        inSlope: 0
        outSlope: 0
        tangentMode: 0
      - serializedVersion: 2
        time: 4.433334
        value: -152
        inSlope: 0
        outSlope: 0
        tangentMode: 0
      m_PreInfinity: 2
      m_PostInfinity: 2
      m_RotationOrder: 4
    attribute: m_AnchoredPosition.x
    path: Tutorial Back Art/Tutorial Content/Tutorial Enemy Sample Parent
    classID: 224
    script: {fileID: 0}
  - curve:
      serializedVersion: 2
      m_Curve:
      - serializedVersion: 2
        time: 0
        value: 1
        inSlope: Infinity
        outSlope: Infinity
        tangentMode: 103
      - serializedVersion: 2
        time: 0.16666667
        value: 0
        inSlope: Infinity
        outSlope: Infinity
        tangentMode: 103
      - serializedVersion: 2
        time: 0.33333334
        value: 1
        inSlope: Infinity
        outSlope: Infinity
        tangentMode: 103
      - serializedVersion: 2
        time: 0.5
        value: 0
        inSlope: Infinity
        outSlope: Infinity
        tangentMode: 103
      - serializedVersion: 2
        time: 0.6666667
        value: 1
        inSlope: Infinity
        outSlope: Infinity
        tangentMode: 103
      - serializedVersion: 2
        time: 0.8333333
        value: 0
        inSlope: Infinity
        outSlope: Infinity
        tangentMode: 103
      - serializedVersion: 2
        time: 1
        value: 1
        inSlope: Infinity
        outSlope: Infinity
        tangentMode: 103
      - serializedVersion: 2
        time: 1.1666666
        value: 0
        inSlope: Infinity
        outSlope: Infinity
        tangentMode: 103
      - serializedVersion: 2
        time: 1.3333334
        value: 1
        inSlope: Infinity
        outSlope: Infinity
        tangentMode: 103
      - serializedVersion: 2
        time: 1.5
        value: 0
        inSlope: Infinity
        outSlope: Infinity
        tangentMode: 103
      - serializedVersion: 2
        time: 1.6666666
        value: 1
        inSlope: Infinity
        outSlope: Infinity
        tangentMode: 103
      - serializedVersion: 2
        time: 1.8333334
        value: 0
        inSlope: Infinity
        outSlope: Infinity
        tangentMode: 103
      - serializedVersion: 2
        time: 2
        value: 1
        inSlope: Infinity
        outSlope: Infinity
        tangentMode: 103
      - serializedVersion: 2
        time: 2.1666667
        value: 0
        inSlope: Infinity
        outSlope: Infinity
        tangentMode: 103
      - serializedVersion: 2
        time: 2.3333333
        value: 1
        inSlope: Infinity
        outSlope: Infinity
        tangentMode: 103
      - serializedVersion: 2
        time: 2.5
        value: 0
        inSlope: Infinity
        outSlope: Infinity
        tangentMode: 103
      - serializedVersion: 2
        time: 2.6666667
        value: 1
        inSlope: Infinity
        outSlope: Infinity
        tangentMode: 103
      - serializedVersion: 2
        time: 2.8333335
        value: 0
        inSlope: Infinity
        outSlope: Infinity
        tangentMode: 103
      - serializedVersion: 2
        time: 3
        value: 1
        inSlope: Infinity
        outSlope: Infinity
        tangentMode: 103
      - serializedVersion: 2
        time: 3.1666667
        value: 0
        inSlope: Infinity
        outSlope: Infinity
        tangentMode: 103
      - serializedVersion: 2
        time: 3.3333333
        value: 1
        inSlope: Infinity
        outSlope: Infinity
        tangentMode: 103
      - serializedVersion: 2
        time: 3.5
        value: 0
        inSlope: Infinity
        outSlope: Infinity
        tangentMode: 103
      - serializedVersion: 2
        time: 3.6666667
        value: 1
        inSlope: Infinity
        outSlope: Infinity
        tangentMode: 103
      - serializedVersion: 2
        time: 3.8333333
        value: 0
        inSlope: Infinity
        outSlope: Infinity
        tangentMode: 103
      - serializedVersion: 2
        time: 4
        value: 1
        inSlope: Infinity
        outSlope: Infinity
        tangentMode: 103
      - serializedVersion: 2
        time: 4.1666665
        value: 0
        inSlope: Infinity
        outSlope: Infinity
        tangentMode: 103
      - serializedVersion: 2
        time: 4.3333335
        value: 1
        inSlope: Infinity
        outSlope: Infinity
        tangentMode: 103
      - serializedVersion: 2
        time: 4.5
        value: 0
        inSlope: Infinity
        outSlope: Infinity
        tangentMode: 103
      m_PreInfinity: 2
      m_PostInfinity: 2
      m_RotationOrder: 4
    attribute: m_IsActive
    path: Tutorial Back Art/Tutorial Content/Tutorial Enemy Sample Parent/Tutorial
      Enemy Sample Body 2
    classID: 1
    script: {fileID: 0}
  - curve:
      serializedVersion: 2
      m_Curve:
      - serializedVersion: 2
        time: 0
        value: 0
        inSlope: Infinity
        outSlope: Infinity
        tangentMode: 103
      - serializedVersion: 2
        time: 0.16666667
        value: 1
        inSlope: Infinity
        outSlope: Infinity
        tangentMode: 103
      - serializedVersion: 2
        time: 0.33333334
        value: 0
        inSlope: Infinity
        outSlope: Infinity
        tangentMode: 103
      - serializedVersion: 2
        time: 0.5
        value: 1
        inSlope: Infinity
        outSlope: Infinity
        tangentMode: 103
      - serializedVersion: 2
        time: 0.6666667
        value: 0
        inSlope: Infinity
        outSlope: Infinity
        tangentMode: 103
      - serializedVersion: 2
        time: 0.8333333
        value: 1
        inSlope: Infinity
        outSlope: Infinity
        tangentMode: 103
      - serializedVersion: 2
        time: 1
        value: 0
        inSlope: Infinity
        outSlope: Infinity
        tangentMode: 103
      - serializedVersion: 2
        time: 1.1666666
        value: 1
        inSlope: Infinity
        outSlope: Infinity
        tangentMode: 103
      - serializedVersion: 2
        time: 1.3333334
        value: 0
        inSlope: Infinity
        outSlope: Infinity
        tangentMode: 103
      - serializedVersion: 2
        time: 1.5
        value: 1
        inSlope: Infinity
        outSlope: Infinity
        tangentMode: 103
      - serializedVersion: 2
        time: 1.6666666
        value: 0
        inSlope: Infinity
        outSlope: Infinity
        tangentMode: 103
      - serializedVersion: 2
        time: 1.8333334
        value: 1
        inSlope: Infinity
        outSlope: Infinity
        tangentMode: 103
      - serializedVersion: 2
        time: 2
        value: 0
        inSlope: Infinity
        outSlope: Infinity
        tangentMode: 103
      - serializedVersion: 2
        time: 2.1666667
        value: 1
        inSlope: Infinity
        outSlope: Infinity
        tangentMode: 103
      - serializedVersion: 2
        time: 2.3333333
        value: 0
        inSlope: Infinity
        outSlope: Infinity
        tangentMode: 103
      - serializedVersion: 2
        time: 2.5
        value: 1
        inSlope: Infinity
        outSlope: Infinity
        tangentMode: 103
      - serializedVersion: 2
        time: 2.6666667
        value: 0
        inSlope: Infinity
        outSlope: Infinity
        tangentMode: 103
      - serializedVersion: 2
        time: 3.1666665
        value: 1
        inSlope: Infinity
        outSlope: Infinity
        tangentMode: 103
      - serializedVersion: 2
        time: 3.3333333
        value: 0
        inSlope: Infinity
        outSlope: Infinity
        tangentMode: 103
      - serializedVersion: 2
        time: 3.5
        value: 1
        inSlope: Infinity
        outSlope: Infinity
        tangentMode: 103
      - serializedVersion: 2
        time: 3.6666665
        value: 0
        inSlope: Infinity
        outSlope: Infinity
        tangentMode: 103
      - serializedVersion: 2
        time: 3.8333333
        value: 1
        inSlope: Infinity
        outSlope: Infinity
        tangentMode: 103
      - serializedVersion: 2
        time: 4
        value: 0
        inSlope: Infinity
        outSlope: Infinity
        tangentMode: 103
      - serializedVersion: 2
        time: 4.1666665
        value: 1
        inSlope: Infinity
        outSlope: Infinity
        tangentMode: 103
      - serializedVersion: 2
        time: 4.333333
        value: 0
        inSlope: Infinity
        outSlope: Infinity
        tangentMode: 103
      m_PreInfinity: 2
      m_PostInfinity: 2
      m_RotationOrder: 4
    attribute: m_IsActive
    path: Tutorial Back Art/Tutorial Content/Tutorial Enemy Sample Parent/Tutorial
      Enemy Sample Body 1
    classID: 1
    script: {fileID: 0}
  - curve:
      serializedVersion: 2
      m_Curve:
      - serializedVersion: 2
        time: 0
        value: 0
        inSlope: Infinity
        outSlope: Infinity
        tangentMode: 103
      - serializedVersion: 2
        time: 1.4333333
        value: 1
        inSlope: Infinity
        outSlope: Infinity
        tangentMode: 103
      - serializedVersion: 2
        time: 2.25
        value: 0
        inSlope: Infinity
        outSlope: Infinity
        tangentMode: 103
      - serializedVersion: 2
        time: 2.8333333
        value: 1
        inSlope: Infinity
        outSlope: Infinity
        tangentMode: 103
      - serializedVersion: 2
        time: 3.75
        value: 0
        inSlope: Infinity
        outSlope: Infinity
        tangentMode: 103
      m_PreInfinity: 2
      m_PostInfinity: 2
      m_RotationOrder: 4
    attribute: m_Enabled
    path: Tutorial Back Art/Tutorial Content/Tutorial Arm Finger Line
    classID: 96
    script: {fileID: 0}
  - curve:
      serializedVersion: 2
      m_Curve:
      - serializedVersion: 2
        time: 0
        value: 82.26856
        inSlope: 0
        outSlope: -0
        tangentMode: 69
      - serializedVersion: 2
        time: 1.4166666
        value: 82.26856
        inSlope: 0
        outSlope: -332.9275
        tangentMode: 69
      - serializedVersion: 2
        time: 1.8499999
        value: -62
        inSlope: 0
        outSlope: 0
        tangentMode: 0
      - serializedVersion: 2
        time: 2.2666667
        value: 82.26856
        inSlope: 346.24448
        outSlope: -0
        tangentMode: 69
      - serializedVersion: 2
        time: 2.9166667
        value: 82.26856
        inSlope: 0
        outSlope: -332.92758
        tangentMode: 69
      - serializedVersion: 2
        time: 3.35
        value: -62
        inSlope: 0
        outSlope: 0
        tangentMode: 0
      - serializedVersion: 2
        time: 3.766667
        value: 82.26856
        inSlope: 346.2443
        outSlope: -0
        tangentMode: 69
      - serializedVersion: 2
        time: 5
        value: 82.26856
        inSlope: 0
        outSlope: -0
        tangentMode: 69
      m_PreInfinity: 2
      m_PostInfinity: 2
      m_RotationOrder: 4
    attribute: m_AnchoredPosition.y
    path: Tutorial Back Art/Tutorial Content/Tutorial Arm Finger Line
    classID: 224
    script: {fileID: 0}
  - curve:
      serializedVersion: 2
      m_Curve:
      - serializedVersion: 2
        time: 0
        value: -32
        inSlope: 0
        outSlope: -0
        tangentMode: 69
      - serializedVersion: 2
        time: 4.4166665
        value: -32
        inSlope: 0
        outSlope: -343.83826
        tangentMode: 69
      - serializedVersion: 2
        time: 4.4666667
        value: -49.19198
        inSlope: 0
        outSlope: 0
        tangentMode: 0
      - serializedVersion: 2
        time: 4.6
        value: -32
        inSlope: 0
        outSlope: -426.97305
        tangentMode: 65
      - serializedVersion: 2
        time: 4.8333335
        value: -131.62715
        inSlope: 0
        outSlope: 0
        tangentMode: 0
      m_PreInfinity: 2
      m_PostInfinity: 2
      m_RotationOrder: 4
    attribute: m_AnchoredPosition.y
    path: Tutorial Back Art/Tutorial Content/Tutorial Enemy Sample Parent
    classID: 224
    script: {fileID: 0}
  - curve:
      serializedVersion: 2
      m_Curve:
      - serializedVersion: 2
        time: 0
        value: 0
        inSlope: Infinity
        outSlope: Infinity
        tangentMode: 103
      - serializedVersion: 2
        time: 2.8166666
        value: 1
        inSlope: Infinity
        outSlope: Infinity
        tangentMode: 103
      - serializedVersion: 2
        time: 3
        value: 0
        inSlope: Infinity
        outSlope: Infinity
        tangentMode: 103
      - serializedVersion: 2
        time: 4.5
        value: 1
        inSlope: Infinity
        outSlope: Infinity
        tangentMode: 103
      - serializedVersion: 2
        time: 4.8333335
        value: 0
        inSlope: Infinity
        outSlope: Infinity
        tangentMode: 103
      m_PreInfinity: 2
      m_PostInfinity: 2
      m_RotationOrder: 4
    attribute: m_IsActive
    path: Tutorial Back Art/Tutorial Content/Tutorial Enemy Sample Parent/Tutorial
      Enemy Sample Body 3
    classID: 1
    script: {fileID: 0}
  - curve:
      serializedVersion: 2
      m_Curve:
      - serializedVersion: 2
        time: 0
        value: 1
        inSlope: Infinity
        outSlope: Infinity
        tangentMode: 103
      - serializedVersion: 2
        time: 2.7833333
        value: 0
        inSlope: Infinity
        outSlope: Infinity
        tangentMode: 103
      m_PreInfinity: 2
      m_PostInfinity: 2
      m_RotationOrder: 4
    attribute: m_IsActive
    path: Tutorial Back Art/Tutorial Content/Tutorial Other Stuff/Arrow (V)
    classID: 1
    script: {fileID: 0}
  - curve:
      serializedVersion: 2
      m_Curve:
      - serializedVersion: 2
        time: 0
        value: 0.75917387
        inSlope: 0
        outSlope: -0
        tangentMode: 69
      - serializedVersion: 2
        time: 2.4166667
        value: 0.75917387
        inSlope: 0
        outSlope: 1.5536523
        tangentMode: 69
      - serializedVersion: 2
        time: 2.9166667
        value: 1.536
        inSlope: 1.5536523
        outSlope: 1.5536523
        tangentMode: 34
      m_PreInfinity: 2
      m_PostInfinity: 2
      m_RotationOrder: 4
    attribute: m_AnchoredPosition.y
    path: Tutorial Back Art/Tutorial Content/Tutorial Other Stuff/Arrow (V)/Arrow
      Actual
    classID: 224
    script: {fileID: 0}
  - curve:
      serializedVersion: 2
      m_Curve:
      - serializedVersion: 2
        time: 0
        value: 2.8
        inSlope: 0
        outSlope: -0
        tangentMode: 69
      - serializedVersion: 2
        time: 2.4166667
        value: 2.8
        inSlope: 0
        outSlope: -5.304
        tangentMode: 69
      - serializedVersion: 2
        time: 2.9166667
        value: 0.148
        inSlope: -5.304
        outSlope: -5.304
        tangentMode: 34
      m_PreInfinity: 2
      m_PostInfinity: 2
      m_RotationOrder: 4
    attribute: m_AnchoredPosition.x
    path: Tutorial Back Art/Tutorial Content/Tutorial Other Stuff/Arrow (V)/Arrow
      Actual
    classID: 224
    script: {fileID: 0}
  - curve:
      serializedVersion: 2
      m_Curve:
      - serializedVersion: 2
        time: 0
        value: 1
        inSlope: Infinity
        outSlope: Infinity
        tangentMode: 103
      - serializedVersion: 2
        time: 0.28333333
        value: 1
        inSlope: Infinity
        outSlope: Infinity
        tangentMode: 103
      - serializedVersion: 2
        time: 4.4166665
        value: 0
        inSlope: Infinity
        outSlope: Infinity
        tangentMode: 103
      m_PreInfinity: 2
      m_PostInfinity: 2
      m_RotationOrder: 4
    attribute: m_IsActive
    path: Tutorial Back Art/Tutorial Content/Tutorial Other Stuff/Arrow (V2)
    classID: 1
    script: {fileID: 0}
  - curve:
      serializedVersion: 2
      m_Curve:
      - serializedVersion: 2
        time: 0
        value: 2.8
        inSlope: 0.16088495
        outSlope: -0
        tangentMode: 69
      - serializedVersion: 2
        time: 3.9
        value: 2.8
        inSlope: 0
        outSlope: -5.4868937
        tangentMode: 69
      - serializedVersion: 2
        time: 4.3833337
        value: 0.148
        inSlope: -5.4868937
        outSlope: -5.4868937
        tangentMode: 34
      m_PreInfinity: 2
      m_PostInfinity: 2
      m_RotationOrder: 4
    attribute: m_AnchoredPosition.x
    path: Tutorial Back Art/Tutorial Content/Tutorial Other Stuff/Arrow (V2)/Arrow
      Actual
    classID: 224
    script: {fileID: 0}
  - curve:
      serializedVersion: 2
      m_Curve:
      - serializedVersion: 2
        time: 0
        value: 0.75917387
        inSlope: -0.0069026533
        outSlope: -0
        tangentMode: 69
      - serializedVersion: 2
        time: 3.9
        value: 0.75917387
        inSlope: 0
        outSlope: 1.6072257
        tangentMode: 69
      - serializedVersion: 2
        time: 4.3833337
        value: 1.536
        inSlope: 1.6072257
        outSlope: 1.6072257
        tangentMode: 34
      m_PreInfinity: 2
      m_PostInfinity: 2
      m_RotationOrder: 4
    attribute: m_AnchoredPosition.y
    path: Tutorial Back Art/Tutorial Content/Tutorial Other Stuff/Arrow (V2)/Arrow
      Actual
    classID: 224
    script: {fileID: 0}
  - curve:
      serializedVersion: 2
      m_Curve:
      - serializedVersion: 2
        time: 0
        value: 1
        inSlope: Infinity
        outSlope: Infinity
        tangentMode: 103
      - serializedVersion: 2
        time: 2.75
        value: 0
        inSlope: Infinity
        outSlope: Infinity
        tangentMode: 103
      m_PreInfinity: 2
      m_PostInfinity: 2
      m_RotationOrder: 4
    attribute: m_IsActive
    path: Tutorial Back Art/Tutorial Content/Tutorial Enemy Sample Parent/Enemy Canvas/Enemy
      HP Parent/En Arrows Parent/En Arrows Wait Line/Arrow (V)
    classID: 1
    script: {fileID: 0}
  - curve:
      serializedVersion: 2
      m_Curve:
      - serializedVersion: 2
        time: 0
        value: 1.163
        inSlope: 0
        outSlope: 0
        tangentMode: 34
      - serializedVersion: 2
        time: 2.75
        value: 1.163
        inSlope: 0
        outSlope: -2.2519999
        tangentMode: 69
      - serializedVersion: 2
        time: 3
        value: 0.6
        inSlope: -2.2519999
        outSlope: -2.2519999
        tangentMode: 34
      m_PreInfinity: 2
      m_PostInfinity: 2
      m_RotationOrder: 4
    attribute: m_AnchoredPosition.x
    path: Tutorial Back Art/Tutorial Content/Tutorial Enemy Sample Parent/Enemy Canvas/Enemy
      HP Parent/En Arrows Parent/En Arrows Wait Line/Arrow (V2)
    classID: 224
    script: {fileID: 0}
  - curve:
      serializedVersion: 2
      m_Curve:
      - serializedVersion: 2
        time: 0
        value: 1
        inSlope: Infinity
        outSlope: Infinity
        tangentMode: 103
      - serializedVersion: 2
        time: 4.4166665
        value: 0
        inSlope: Infinity
        outSlope: Infinity
        tangentMode: 103
      m_PreInfinity: 2
      m_PostInfinity: 2
      m_RotationOrder: 4
    attribute: m_IsActive
    path: Tutorial Back Art/Tutorial Content/Tutorial Enemy Sample Parent/Enemy Canvas/Enemy
      HP Parent/En Arrows Parent/En Arrows Wait Line/Arrow (V2)
    classID: 1
    script: {fileID: 0}
  - curve:
      serializedVersion: 2
      m_Curve:
      - serializedVersion: 2
        time: 0
        value: 221.15375
        inSlope: 0
        outSlope: 0
        tangentMode: 0
      - serializedVersion: 2
        time: 1.4166666
        value: 221.15375
        inSlope: 0
        outSlope: -48.510735
        tangentMode: 1
      - serializedVersion: 2
        time: 2.2666667
        value: 27.650238
        inSlope: -70.506325
        outSlope: 0
        tangentMode: 1
      - serializedVersion: 2
        time: 2.9166667
        value: 27.650238
        inSlope: 0
        outSlope: 46.51163
        tangentMode: 1
      - serializedVersion: 2
        time: 3.8000002
        value: 221.15375
        inSlope: 65.07367
        outSlope: 0
        tangentMode: 1
      - serializedVersion: 2
        time: 5
        value: 221.15375
        inSlope: 0
        outSlope: 0
        tangentMode: 0
      m_PreInfinity: 2
      m_PostInfinity: 2
      m_RotationOrder: 4
    attribute: m_AnchoredPosition.x
    path: Tutorial Back Art/Tutorial Content/Tutorial Arm Finger Line
    classID: 224
    script: {fileID: 0}
  - curve:
      serializedVersion: 2
      m_Curve:
      - serializedVersion: 2
        time: 0
        value: 0
        inSlope: Infinity
        outSlope: Infinity
        tangentMode: 103
      - serializedVersion: 2
        time: 2.8166666
        value: 1
        inSlope: Infinity
        outSlope: Infinity
        tangentMode: 103
      m_PreInfinity: 2
      m_PostInfinity: 2
      m_RotationOrder: 4
    attribute: m_IsActive
    path: Tutorial Back Art/Tutorial Content/Tutorial Enemy Sample Parent/Enemy Canvas/Enemy
      HP Parent/En Arrows Parent/En HP Number Parent/Text (Actual HP Number 1)
    classID: 1
    script: {fileID: 0}
  - curve:
      serializedVersion: 2
      m_Curve:
      - serializedVersion: 2
        time: 0
        value: 1
        inSlope: Infinity
        outSlope: Infinity
        tangentMode: 103
      - serializedVersion: 2
        time: 2.8166666
        value: 0
        inSlope: Infinity
        outSlope: Infinity
        tangentMode: 103
      m_PreInfinity: 2
      m_PostInfinity: 2
      m_RotationOrder: 4
    attribute: m_IsActive
    path: Tutorial Back Art/Tutorial Content/Tutorial Enemy Sample Parent/Enemy Canvas/Enemy
      HP Parent/En Arrows Parent/En HP Number Parent/Text (Actual HP Number 2)
    classID: 1
    script: {fileID: 0}
  m_PPtrCurves: []
  m_SampleRate: 60
  m_WrapMode: 2
  m_Bounds:
    m_Center: {x: 0, y: 0, z: 0}
    m_Extent: {x: 0, y: 0, z: 0}
  m_ClipBindingConstant:
    genericBindings: []
    pptrCurveMapping: []
  m_AnimationClipSettings:
    serializedVersion: 2
    m_AdditiveReferencePoseClip: {fileID: 0}
    m_AdditiveReferencePoseTime: 0
    m_StartTime: 0
    m_StopTime: 5
    m_OrientationOffsetY: 0
    m_Level: 0
    m_CycleOffset: 0
    m_HasAdditiveReferencePose: 0
    m_LoopTime: 1
    m_LoopBlend: 0
    m_LoopBlendOrientation: 0
    m_LoopBlendPositionY: 0
    m_LoopBlendPositionXZ: 0
    m_KeepOriginalOrientation: 0
    m_KeepOriginalPositionY: 1
    m_KeepOriginalPositionXZ: 0
    m_HeightFromFeet: 0
    m_Mirror: 0
  m_EditorCurves:
  - curve:
      serializedVersion: 2
      m_Curve:
      - serializedVersion: 2
        time: 0
        value: 0
        inSlope: Infinity
        outSlope: Infinity
        tangentMode: 103
      - serializedVersion: 2
        time: 0.25
        value: 1
        inSlope: Infinity
        outSlope: Infinity
        tangentMode: 103
      - serializedVersion: 2
        time: 0.9333334
        value: 1
        inSlope: Infinity
        outSlope: Infinity
        tangentMode: 103
      - serializedVersion: 2
        time: 1
        value: 1
        inSlope: Infinity
        outSlope: Infinity
        tangentMode: 103
      m_PreInfinity: 2
      m_PostInfinity: 2
      m_RotationOrder: 4
    attribute: m_IsActive
    path: Tutorial Back Art/Tutorial Content/Tutorial Arm
    classID: 1
    script: {fileID: 0}
  - curve:
      serializedVersion: 2
      m_Curve:
      - serializedVersion: 2
        time: 0
        value: 1077.1023
        inSlope: 0
        outSlope: 0
        tangentMode: 0
      - serializedVersion: 2
        time: 0.25
        value: 1077.1023
        inSlope: 0
        outSlope: 0
        tangentMode: 0
      - serializedVersion: 2
        time: 1.3166666
        value: 414.4765
        inSlope: -735.5837
        outSlope: -70.01563
        tangentMode: 1
      - serializedVersion: 2
        time: 2.1666667
        value: 248.10757
        inSlope: -78.78868
        outSlope: -215.14307
        tangentMode: 65
      - serializedVersion: 2
        time: 2.5
        value: 176.39323
        inSlope: 0
        outSlope: 0
        tangentMode: 1
      - serializedVersion: 2
        time: 2.8333333
        value: 248.10757
        inSlope: 0
        outSlope: 0
        tangentMode: 0
      - serializedVersion: 2
        time: 3.75
        value: 414.4765
        inSlope: 0
        outSlope: 0
        tangentMode: 0
      - serializedVersion: 2
        time: 4.0333333
        value: 534.05054
        inSlope: 729.61945
        outSlope: 729.61945
        tangentMode: 0
      - serializedVersion: 2
        time: 4.683333
        value: 800.87335
        inSlope: 0
        outSlope: 0
        tangentMode: 1
      m_PreInfinity: 2
      m_PostInfinity: 2
      m_RotationOrder: 4
    attribute: m_AnchoredPosition.x
    path: Tutorial Back Art/Tutorial Content/Tutorial Arm
    classID: 224
    script: {fileID: 0}
  - curve:
      serializedVersion: 2
      m_Curve:
      - serializedVersion: 2
        time: 0
        value: -952.66724
        inSlope: 0
        outSlope: 0
        tangentMode: 34
      - serializedVersion: 2
        time: 0.25
        value: -952.66724
        inSlope: 0
        outSlope: 796.9008
        tangentMode: 69
      - serializedVersion: 2
        time: 1.2333335
        value: -169.04797
        inSlope: 0
        outSlope: 0
        tangentMode: 0
      - serializedVersion: 2
        time: 1.3166667
        value: -169.04797
        inSlope: 0
        outSlope: -303.33325
        tangentMode: 65
      - serializedVersion: 2
        time: 1.75
        value: -300.49237
        inSlope: 0
        outSlope: 0
        tangentMode: 0
      - serializedVersion: 2
        time: 2.1666667
        value: -169.04797
        inSlope: 315.4665
        outSlope: -592.83374
        tangentMode: 69
      - serializedVersion: 2
        time: 2.5
        value: -366.65918
        inSlope: 0
        outSlope: 0
        tangentMode: 0
      - serializedVersion: 2
        time: 2.8333333
        value: -169.04797
        inSlope: -66.30678
        outSlope: -303.33334
        tangentMode: 65
      - serializedVersion: 2
        time: 3.2666664
        value: -300.49237
        inSlope: 0
        outSlope: 0
        tangentMode: 0
      - serializedVersion: 2
        time: 3.75
        value: -169.04797
        inSlope: 0
        outSlope: 0
        tangentMode: 0
      - serializedVersion: 2
        time: 4.0333333
        value: -220.59532
        inSlope: -631.6762
        outSlope: -631.6762
        tangentMode: 0
      - serializedVersion: 2
        time: 4.683333
        value: -923.51825
        inSlope: 0
        outSlope: 0
        tangentMode: 1
      m_PreInfinity: 2
      m_PostInfinity: 2
      m_RotationOrder: 4
    attribute: m_AnchoredPosition.y
    path: Tutorial Back Art/Tutorial Content/Tutorial Arm
    classID: 224
    script: {fileID: 0}
  - curve:
      serializedVersion: 2
      m_Curve:
      - serializedVersion: 2
        time: 0
        value: 1
        inSlope: Infinity
        outSlope: Infinity
        tangentMode: 103
      - serializedVersion: 2
        time: 4.8333335
        value: 0
        inSlope: Infinity
        outSlope: Infinity
        tangentMode: 103
      m_PreInfinity: 2
      m_PostInfinity: 2
      m_RotationOrder: 4
    attribute: m_IsActive
    path: Tutorial Back Art/Tutorial Content/Tutorial Enemy Sample Parent
    classID: 1
    script: {fileID: 0}
  - curve:
      serializedVersion: 2
      m_Curve:
      - serializedVersion: 2
        time: 0
        value: -152
        inSlope: 0
        outSlope: -0
        tangentMode: 65
      - serializedVersion: 2
        time: 0.33333328
        value: -152
        inSlope: 0
        outSlope: 0
        tangentMode: 0
      - serializedVersion: 2
        time: 0.83333325
        value: -140
        inSlope: 0
        outSlope: 0
        tangentMode: 0
      - serializedVersion: 2
        time: 1.3333333
        value: -152
        inSlope: 0
        outSlope: 0
        tangentMode: 0
      - serializedVersion: 2
        time: 1.8333333
        value: -140
        inSlope: 0
        outSlope: 0
        tangentMode: 0
      - serializedVersion: 2
        time: 2.3333333
        value: -152
        inSlope: 0
        outSlope: 0
        tangentMode: 0
      - serializedVersion: 2
        time: 2.8333333
        value: -140
        inSlope: 0
        outSlope: 0
        tangentMode: 0
      - serializedVersion: 2
        time: 3.3333333
        value: -152
        inSlope: 0
        outSlope: 0
        tangentMode: 0
      - serializedVersion: 2
        time: 3.8333333
        value: -140
        inSlope: 0
        outSlope: 0
        tangentMode: 0
      - serializedVersion: 2
        time: 4.433334
        value: -152
        inSlope: 0
        outSlope: 0
        tangentMode: 0
      m_PreInfinity: 2
      m_PostInfinity: 2
      m_RotationOrder: 4
    attribute: m_AnchoredPosition.x
    path: Tutorial Back Art/Tutorial Content/Tutorial Enemy Sample Parent
    classID: 224
    script: {fileID: 0}
  - curve:
      serializedVersion: 2
      m_Curve:
      - serializedVersion: 2
        time: 0
        value: 1
        inSlope: Infinity
        outSlope: Infinity
        tangentMode: 103
      - serializedVersion: 2
        time: 0.16666667
        value: 0
        inSlope: Infinity
        outSlope: Infinity
        tangentMode: 103
      - serializedVersion: 2
        time: 0.33333334
        value: 1
        inSlope: Infinity
        outSlope: Infinity
        tangentMode: 103
      - serializedVersion: 2
        time: 0.5
        value: 0
        inSlope: Infinity
        outSlope: Infinity
        tangentMode: 103
      - serializedVersion: 2
        time: 0.6666667
        value: 1
        inSlope: Infinity
        outSlope: Infinity
        tangentMode: 103
      - serializedVersion: 2
        time: 0.8333333
        value: 0
        inSlope: Infinity
        outSlope: Infinity
        tangentMode: 103
      - serializedVersion: 2
        time: 1
        value: 1
        inSlope: Infinity
        outSlope: Infinity
        tangentMode: 103
      - serializedVersion: 2
        time: 1.1666666
        value: 0
        inSlope: Infinity
        outSlope: Infinity
        tangentMode: 103
      - serializedVersion: 2
        time: 1.3333334
        value: 1
        inSlope: Infinity
        outSlope: Infinity
        tangentMode: 103
      - serializedVersion: 2
        time: 1.5
        value: 0
        inSlope: Infinity
        outSlope: Infinity
        tangentMode: 103
      - serializedVersion: 2
        time: 1.6666666
        value: 1
        inSlope: Infinity
        outSlope: Infinity
        tangentMode: 103
      - serializedVersion: 2
        time: 1.8333334
        value: 0
        inSlope: Infinity
        outSlope: Infinity
        tangentMode: 103
      - serializedVersion: 2
        time: 2
        value: 1
        inSlope: Infinity
        outSlope: Infinity
        tangentMode: 103
      - serializedVersion: 2
        time: 2.1666667
        value: 0
        inSlope: Infinity
        outSlope: Infinity
        tangentMode: 103
      - serializedVersion: 2
        time: 2.3333333
        value: 1
        inSlope: Infinity
        outSlope: Infinity
        tangentMode: 103
      - serializedVersion: 2
        time: 2.5
        value: 0
        inSlope: Infinity
        outSlope: Infinity
        tangentMode: 103
      - serializedVersion: 2
        time: 2.6666667
        value: 1
        inSlope: Infinity
        outSlope: Infinity
        tangentMode: 103
      - serializedVersion: 2
        time: 2.8333335
        value: 0
        inSlope: Infinity
        outSlope: Infinity
        tangentMode: 103
      - serializedVersion: 2
        time: 3
        value: 1
        inSlope: Infinity
        outSlope: Infinity
        tangentMode: 103
      - serializedVersion: 2
        time: 3.1666667
        value: 0
        inSlope: Infinity
        outSlope: Infinity
        tangentMode: 103
      - serializedVersion: 2
        time: 3.3333333
        value: 1
        inSlope: Infinity
        outSlope: Infinity
        tangentMode: 103
      - serializedVersion: 2
        time: 3.5
        value: 0
        inSlope: Infinity
        outSlope: Infinity
        tangentMode: 103
      - serializedVersion: 2
        time: 3.6666667
        value: 1
        inSlope: Infinity
        outSlope: Infinity
        tangentMode: 103
      - serializedVersion: 2
        time: 3.8333333
        value: 0
        inSlope: Infinity
        outSlope: Infinity
        tangentMode: 103
      - serializedVersion: 2
        time: 4
        value: 1
        inSlope: Infinity
        outSlope: Infinity
        tangentMode: 103
      - serializedVersion: 2
        time: 4.1666665
        value: 0
        inSlope: Infinity
        outSlope: Infinity
        tangentMode: 103
      - serializedVersion: 2
        time: 4.3333335
        value: 1
        inSlope: Infinity
        outSlope: Infinity
        tangentMode: 103
      - serializedVersion: 2
        time: 4.5
        value: 0
        inSlope: Infinity
        outSlope: Infinity
        tangentMode: 103
      m_PreInfinity: 2
      m_PostInfinity: 2
      m_RotationOrder: 4
    attribute: m_IsActive
    path: Tutorial Back Art/Tutorial Content/Tutorial Enemy Sample Parent/Tutorial
      Enemy Sample Body 2
    classID: 1
    script: {fileID: 0}
  - curve:
      serializedVersion: 2
      m_Curve:
      - serializedVersion: 2
        time: 0
        value: 0
        inSlope: Infinity
        outSlope: Infinity
        tangentMode: 103
      - serializedVersion: 2
        time: 0.16666667
        value: 1
        inSlope: Infinity
        outSlope: Infinity
        tangentMode: 103
      - serializedVersion: 2
        time: 0.33333334
        value: 0
        inSlope: Infinity
        outSlope: Infinity
        tangentMode: 103
      - serializedVersion: 2
        time: 0.5
        value: 1
        inSlope: Infinity
        outSlope: Infinity
        tangentMode: 103
      - serializedVersion: 2
        time: 0.6666667
        value: 0
        inSlope: Infinity
        outSlope: Infinity
        tangentMode: 103
      - serializedVersion: 2
        time: 0.8333333
        value: 1
        inSlope: Infinity
        outSlope: Infinity
        tangentMode: 103
      - serializedVersion: 2
        time: 1
        value: 0
        inSlope: Infinity
        outSlope: Infinity
        tangentMode: 103
      - serializedVersion: 2
        time: 1.1666666
        value: 1
        inSlope: Infinity
        outSlope: Infinity
        tangentMode: 103
      - serializedVersion: 2
        time: 1.3333334
        value: 0
        inSlope: Infinity
        outSlope: Infinity
        tangentMode: 103
      - serializedVersion: 2
        time: 1.5
        value: 1
        inSlope: Infinity
        outSlope: Infinity
        tangentMode: 103
      - serializedVersion: 2
        time: 1.6666666
        value: 0
        inSlope: Infinity
        outSlope: Infinity
        tangentMode: 103
      - serializedVersion: 2
        time: 1.8333334
        value: 1
        inSlope: Infinity
        outSlope: Infinity
        tangentMode: 103
      - serializedVersion: 2
        time: 2
        value: 0
        inSlope: Infinity
        outSlope: Infinity
        tangentMode: 103
      - serializedVersion: 2
        time: 2.1666667
        value: 1
        inSlope: Infinity
        outSlope: Infinity
        tangentMode: 103
      - serializedVersion: 2
        time: 2.3333333
        value: 0
        inSlope: Infinity
        outSlope: Infinity
        tangentMode: 103
      - serializedVersion: 2
        time: 2.5
        value: 1
        inSlope: Infinity
        outSlope: Infinity
        tangentMode: 103
      - serializedVersion: 2
        time: 2.6666667
        value: 0
        inSlope: Infinity
        outSlope: Infinity
        tangentMode: 103
      - serializedVersion: 2
        time: 3.1666665
        value: 1
        inSlope: Infinity
        outSlope: Infinity
        tangentMode: 103
      - serializedVersion: 2
        time: 3.3333333
        value: 0
        inSlope: Infinity
        outSlope: Infinity
        tangentMode: 103
      - serializedVersion: 2
        time: 3.5
        value: 1
        inSlope: Infinity
        outSlope: Infinity
        tangentMode: 103
      - serializedVersion: 2
        time: 3.6666665
        value: 0
        inSlope: Infinity
        outSlope: Infinity
        tangentMode: 103
      - serializedVersion: 2
        time: 3.8333333
        value: 1
        inSlope: Infinity
        outSlope: Infinity
        tangentMode: 103
      - serializedVersion: 2
        time: 4
        value: 0
        inSlope: Infinity
        outSlope: Infinity
        tangentMode: 103
      - serializedVersion: 2
        time: 4.1666665
        value: 1
        inSlope: Infinity
        outSlope: Infinity
        tangentMode: 103
      - serializedVersion: 2
        time: 4.333333
        value: 0
        inSlope: Infinity
        outSlope: Infinity
        tangentMode: 103
      m_PreInfinity: 2
      m_PostInfinity: 2
      m_RotationOrder: 4
    attribute: m_IsActive
    path: Tutorial Back Art/Tutorial Content/Tutorial Enemy Sample Parent/Tutorial
      Enemy Sample Body 1
    classID: 1
    script: {fileID: 0}
  - curve:
      serializedVersion: 2
      m_Curve:
      - serializedVersion: 2
        time: 0
        value: 0
        inSlope: 0
        outSlope: 0
        tangentMode: 34
      - serializedVersion: 2
        time: 0.08333334
        value: 0
        inSlope: 0
        outSlope: 1.4947274
        tangentMode: 69
      - serializedVersion: 2
        time: 0.38333333
        value: 0.4484182
        inSlope: 0
        outSlope: 0
        tangentMode: 0
      - serializedVersion: 2
        time: 0.48333332
        value: 0.40720674
        inSlope: 0
        outSlope: 0
        tangentMode: 0
      - serializedVersion: 2
        time: 0.6
        value: 0.425107
        inSlope: 0
        outSlope: 0
        tangentMode: 0
      - serializedVersion: 2
        time: 1.5
        value: 0.425107
        inSlope: 0
        outSlope: 0
        tangentMode: 0
      - serializedVersion: 2
        time: 4.4166665
        value: 0.425107
        inSlope: 0
        outSlope: 0
        tangentMode: 0
      - serializedVersion: 2
        time: 4.466666
        value: 0.5029513
        inSlope: 0
        outSlope: 0
        tangentMode: 0
      - serializedVersion: 2
        time: 4.583333
        value: 0.425107
        inSlope: -0.6672363
        outSlope: 1.2676066
        tangentMode: 69
      - serializedVersion: 2
        time: 4.883333
        value: 0.8053892
        inSlope: 0
        outSlope: 0
        tangentMode: 0
      m_PreInfinity: 2
      m_PostInfinity: 2
      m_RotationOrder: 4
    attribute: m_LocalScale.x
    path: Tutorial Back Art/Tutorial Content/Tutorial Enemy Sample Parent
    classID: 224
    script: {fileID: 0}
  - curve:
      serializedVersion: 2
      m_Curve:
      - serializedVersion: 2
        time: 0
        value: 0
        inSlope: 0
        outSlope: 0
        tangentMode: 34
      - serializedVersion: 2
        time: 0.08333334
        value: 0
        inSlope: 0
        outSlope: 1.4947274
        tangentMode: 69
      - serializedVersion: 2
        time: 0.38333333
        value: 0.4484182
        inSlope: 0
        outSlope: 0
        tangentMode: 0
      - serializedVersion: 2
        time: 0.48333332
        value: 0.40720674
        inSlope: 0
        outSlope: 0
        tangentMode: 0
      - serializedVersion: 2
        time: 0.6
        value: 0.425107
        inSlope: 0
        outSlope: 0
        tangentMode: 0
      - serializedVersion: 2
        time: 1.5
        value: 0.425107
        inSlope: 0
        outSlope: 0
        tangentMode: 0
      - serializedVersion: 2
        time: 4.4166665
        value: 0.425107
        inSlope: 0
        outSlope: 0
        tangentMode: 0
      - serializedVersion: 2
        time: 4.466666
        value: 0.34847394
        inSlope: 0
        outSlope: 0
        tangentMode: 0
      - serializedVersion: 2
        time: 4.583333
        value: 0.425107
        inSlope: 0.65685415
        outSlope: -1.4170225
        tangentMode: 69
      - serializedVersion: 2
        time: 4.883333
        value: 0
        inSlope: 0
        outSlope: 0
        tangentMode: 0
      m_PreInfinity: 2
      m_PostInfinity: 2
      m_RotationOrder: 4
    attribute: m_LocalScale.y
    path: Tutorial Back Art/Tutorial Content/Tutorial Enemy Sample Parent
    classID: 224
    script: {fileID: 0}
  - curve:
      serializedVersion: 2
      m_Curve:
      - serializedVersion: 2
        time: 0
        value: 0
        inSlope: 0
        outSlope: 0
        tangentMode: 34
      - serializedVersion: 2
        time: 0.08333334
        value: 0
        inSlope: 0
        outSlope: 1.4947274
        tangentMode: 69
      - serializedVersion: 2
        time: 0.38333333
        value: 0.4484182
        inSlope: 0
        outSlope: 0
        tangentMode: 0
      - serializedVersion: 2
        time: 0.48333332
        value: 0.40720674
        inSlope: 0
        outSlope: 0
        tangentMode: 0
      - serializedVersion: 2
        time: 0.6
        value: 0.425107
        inSlope: 0
        outSlope: 0
        tangentMode: 0
      - serializedVersion: 2
        time: 1.5
        value: 0.425107
        inSlope: 0
        outSlope: 0
        tangentMode: 0
      - serializedVersion: 2
        time: 4.433333
        value: 0.425107
        inSlope: 0
        outSlope: -0
        tangentMode: 65
      - serializedVersion: 2
        time: 4.466666
        value: 0.425107
        inSlope: 0
        outSlope: -0
        tangentMode: 69
      - serializedVersion: 2
        time: 4.533333
        value: 0.425107
        inSlope: 0
        outSlope: -0
        tangentMode: 69
      - serializedVersion: 2
        time: 4.883333
        value: 0.425107
        inSlope: 0
        outSlope: 0
        tangentMode: 0
      m_PreInfinity: 2
      m_PostInfinity: 2
      m_RotationOrder: 4
    attribute: m_LocalScale.z
    path: Tutorial Back Art/Tutorial Content/Tutorial Enemy Sample Parent
    classID: 224
    script: {fileID: 0}
  - curve:
      serializedVersion: 2
      m_Curve:
      - serializedVersion: 2
        time: 0
        value: 0
        inSlope: 0
        outSlope: 0
        tangentMode: 34
      - serializedVersion: 2
        time: 0.5
        value: 0
        inSlope: 0
        outSlope: 3.8326206
        tangentMode: 69
      - serializedVersion: 2
        time: 0.79999995
        value: 1.149786
        inSlope: 0
        outSlope: 0
        tangentMode: 0
      - serializedVersion: 2
        time: 0.9166666
        value: 0.9232994
        inSlope: 0
        outSlope: 0
        tangentMode: 0
      - serializedVersion: 2
        time: 1.0666667
        value: 1
        inSlope: 0
        outSlope: 0
        tangentMode: 0
      - serializedVersion: 2
        time: 1.5
        value: 1
        inSlope: 0
        outSlope: 0
        tangentMode: 0
      - serializedVersion: 2
        time: 4.633333
        value: 1
        inSlope: 0
        outSlope: 0
        tangentMode: 0
      - serializedVersion: 2
        time: 4.866667
        value: 0
        inSlope: -4.2857094
        outSlope: -0
        tangentMode: 69
      - serializedVersion: 2
        time: 5
        value: 0
        inSlope: 0
        outSlope: 0
        tangentMode: 34
      m_PreInfinity: 2
      m_PostInfinity: 2
      m_RotationOrder: 4
    attribute: m_LocalScale.x
    path: Tutorial Back Art/Tutorial Content/Tutorial Enemy Sample Parent/Enemy Canvas/Enemy
      HP Parent
    classID: 224
    script: {fileID: 0}
  - curve:
      serializedVersion: 2
      m_Curve:
      - serializedVersion: 2
        time: 0
        value: 0
        inSlope: 0
        outSlope: 0
        tangentMode: 34
      - serializedVersion: 2
        time: 0.5
        value: 0
        inSlope: 0
        outSlope: 3.8326206
        tangentMode: 69
      - serializedVersion: 2
        time: 0.79999995
        value: 1.149786
        inSlope: 0
        outSlope: 0
        tangentMode: 0
      - serializedVersion: 2
        time: 0.9166666
        value: 0.9232994
        inSlope: 0
        outSlope: 0
        tangentMode: 0
      - serializedVersion: 2
        time: 1.0666667
        value: 1
        inSlope: 0
        outSlope: 0
        tangentMode: 0
      - serializedVersion: 2
        time: 1.5
        value: 1
        inSlope: 0
        outSlope: 0
        tangentMode: 0
      - serializedVersion: 2
        time: 4.633333
        value: 1
        inSlope: 0
        outSlope: 0
        tangentMode: 0
      - serializedVersion: 2
        time: 4.866667
        value: 0
        inSlope: -4.2857094
        outSlope: -0
        tangentMode: 69
      - serializedVersion: 2
        time: 5
        value: 0
        inSlope: 0
        outSlope: 0
        tangentMode: 34
      m_PreInfinity: 2
      m_PostInfinity: 2
      m_RotationOrder: 4
    attribute: m_LocalScale.y
    path: Tutorial Back Art/Tutorial Content/Tutorial Enemy Sample Parent/Enemy Canvas/Enemy
      HP Parent
    classID: 224
    script: {fileID: 0}
  - curve:
      serializedVersion: 2
      m_Curve:
      - serializedVersion: 2
        time: 0
        value: 0
        inSlope: 0
        outSlope: 0
        tangentMode: 34
      - serializedVersion: 2
        time: 0.5
        value: 0
        inSlope: 0
        outSlope: 3.8326206
        tangentMode: 69
      - serializedVersion: 2
        time: 0.79999995
        value: 1.149786
        inSlope: 0
        outSlope: 0
        tangentMode: 0
      - serializedVersion: 2
        time: 0.9166666
        value: 0.9232994
        inSlope: 0
        outSlope: 0
        tangentMode: 0
      - serializedVersion: 2
        time: 1.0666667
        value: 1
        inSlope: 0
        outSlope: 0
        tangentMode: 0
      - serializedVersion: 2
        time: 1.5
        value: 1
        inSlope: 0
        outSlope: 0
        tangentMode: 0
      - serializedVersion: 2
        time: 4.633333
        value: 1
        inSlope: 0
        outSlope: 0
        tangentMode: 0
      - serializedVersion: 2
        time: 4.866667
        value: 0
        inSlope: -4.2857094
        outSlope: -0
        tangentMode: 69
      - serializedVersion: 2
        time: 5
        value: 0
        inSlope: 0
        outSlope: 0
        tangentMode: 34
      m_PreInfinity: 2
      m_PostInfinity: 2
      m_RotationOrder: 4
    attribute: m_LocalScale.z
    path: Tutorial Back Art/Tutorial Content/Tutorial Enemy Sample Parent/Enemy Canvas/Enemy
      HP Parent
    classID: 224
    script: {fileID: 0}
  - curve:
      serializedVersion: 2
      m_Curve:
      - serializedVersion: 2
        time: 0
        value: 0
        inSlope: Infinity
        outSlope: Infinity
        tangentMode: 103
      - serializedVersion: 2
        time: 1.4333333
        value: 1
        inSlope: Infinity
        outSlope: Infinity
        tangentMode: 103
      - serializedVersion: 2
        time: 2.25
        value: 0
        inSlope: Infinity
        outSlope: Infinity
        tangentMode: 103
      - serializedVersion: 2
        time: 2.8333333
        value: 1
        inSlope: Infinity
        outSlope: Infinity
        tangentMode: 103
      - serializedVersion: 2
        time: 3.75
        value: 0
        inSlope: Infinity
        outSlope: Infinity
        tangentMode: 103
      m_PreInfinity: 2
      m_PostInfinity: 2
      m_RotationOrder: 4
    attribute: m_Enabled
    path: Tutorial Back Art/Tutorial Content/Tutorial Arm Finger Line
    classID: 96
    script: {fileID: 0}
  - curve:
      serializedVersion: 2
      m_Curve:
      - serializedVersion: 2
        time: 0
        value: 82.26856
        inSlope: 0
        outSlope: -0
        tangentMode: 69
      - serializedVersion: 2
        time: 1.4166666
        value: 82.26856
        inSlope: 0
        outSlope: -332.9275
        tangentMode: 69
      - serializedVersion: 2
        time: 1.8499999
        value: -62
        inSlope: 0
        outSlope: 0
        tangentMode: 0
      - serializedVersion: 2
        time: 2.2666667
        value: 82.26856
        inSlope: 346.24448
        outSlope: -0
        tangentMode: 69
      - serializedVersion: 2
        time: 2.9166667
        value: 82.26856
        inSlope: 0
        outSlope: -332.92758
        tangentMode: 69
      - serializedVersion: 2
        time: 3.35
        value: -62
        inSlope: 0
        outSlope: 0
        tangentMode: 0
      - serializedVersion: 2
        time: 3.766667
        value: 82.26856
        inSlope: 346.2443
        outSlope: -0
        tangentMode: 69
      - serializedVersion: 2
        time: 5
        value: 82.26856
        inSlope: 0
        outSlope: -0
        tangentMode: 69
      m_PreInfinity: 2
      m_PostInfinity: 2
      m_RotationOrder: 4
    attribute: m_AnchoredPosition.y
    path: Tutorial Back Art/Tutorial Content/Tutorial Arm Finger Line
    classID: 224
    script: {fileID: 0}
  - curve:
      serializedVersion: 2
      m_Curve:
      - serializedVersion: 2
        time: 0
        value: -32
        inSlope: 0
        outSlope: -0
        tangentMode: 69
      - serializedVersion: 2
        time: 4.4166665
        value: -32
        inSlope: 0
        outSlope: -343.83826
        tangentMode: 69
      - serializedVersion: 2
        time: 4.4666667
        value: -49.19198
        inSlope: 0
        outSlope: 0
        tangentMode: 0
      - serializedVersion: 2
        time: 4.6
        value: -32
        inSlope: 0
        outSlope: -426.97305
        tangentMode: 65
      - serializedVersion: 2
        time: 4.8333335
        value: -131.62715
        inSlope: 0
        outSlope: 0
        tangentMode: 0
      m_PreInfinity: 2
      m_PostInfinity: 2
      m_RotationOrder: 4
    attribute: m_AnchoredPosition.y
    path: Tutorial Back Art/Tutorial Content/Tutorial Enemy Sample Parent
    classID: 224
    script: {fileID: 0}
  - curve:
      serializedVersion: 2
      m_Curve:
      - serializedVersion: 2
        time: 0
        value: 0
        inSlope: Infinity
        outSlope: Infinity
        tangentMode: 103
      - serializedVersion: 2
        time: 2.8166666
        value: 1
        inSlope: Infinity
        outSlope: Infinity
        tangentMode: 103
      - serializedVersion: 2
        time: 3
        value: 0
        inSlope: Infinity
        outSlope: Infinity
        tangentMode: 103
      - serializedVersion: 2
        time: 4.5
        value: 1
        inSlope: Infinity
        outSlope: Infinity
        tangentMode: 103
      - serializedVersion: 2
        time: 4.8333335
        value: 0
        inSlope: Infinity
        outSlope: Infinity
        tangentMode: 103
      m_PreInfinity: 2
      m_PostInfinity: 2
      m_RotationOrder: 4
    attribute: m_IsActive
    path: Tutorial Back Art/Tutorial Content/Tutorial Enemy Sample Parent/Tutorial
      Enemy Sample Body 3
    classID: 1
    script: {fileID: 0}
  - curve:
      serializedVersion: 2
      m_Curve:
      - serializedVersion: 2
        time: 0
        value: 0
        inSlope: 0
        outSlope: 0
        tangentMode: 34
      - serializedVersion: 2
        time: 2.7833333
        value: 0
        inSlope: 0
        outSlope: 0
        tangentMode: 34
      - serializedVersion: 2
        time: 2.9499998
        value: 0
        inSlope: 0
        outSlope: 0
        tangentMode: 34
      - serializedVersion: 2
        time: 3.0333333
        value: 0
        inSlope: 0
        outSlope: 0
        tangentMode: 34
      m_PreInfinity: 2
      m_PostInfinity: 2
      m_RotationOrder: 4
    attribute: localEulerAnglesRaw.x
    path: Tutorial Back Art/Tutorial Content/Tutorial Enemy Sample Parent/Enemy Canvas/Enemy
      HP Parent
    classID: 224
    script: {fileID: 0}
  - curve:
      serializedVersion: 2
      m_Curve:
      - serializedVersion: 2
        time: 0
        value: 0
        inSlope: 0
        outSlope: 0
        tangentMode: 34
      - serializedVersion: 2
        time: 2.7833333
        value: 0
        inSlope: 0
        outSlope: 0
        tangentMode: 34
      - serializedVersion: 2
        time: 2.9499998
        value: 0
        inSlope: 0
        outSlope: 0
        tangentMode: 34
      - serializedVersion: 2
        time: 3.0333333
        value: 0
        inSlope: 0
        outSlope: 0
        tangentMode: 34
      m_PreInfinity: 2
      m_PostInfinity: 2
      m_RotationOrder: 4
    attribute: localEulerAnglesRaw.y
    path: Tutorial Back Art/Tutorial Content/Tutorial Enemy Sample Parent/Enemy Canvas/Enemy
      HP Parent
    classID: 224
    script: {fileID: 0}
  - curve:
      serializedVersion: 2
      m_Curve:
      - serializedVersion: 2
        time: 0
        value: 0
        inSlope: 0
        outSlope: -0
        tangentMode: 69
      - serializedVersion: 2
        time: 2.75
        value: 0
        inSlope: 0
        outSlope: 652.55896
        tangentMode: 69
      - serializedVersion: 2
        time: 2.7666667
        value: 10.875973
        inSlope: 652.55896
        outSlope: -308.78064
        tangentMode: 69
      - serializedVersion: 2
        time: 2.8333333
        value: -9.709384
        inSlope: -308.78064
        outSlope: 518.18756
        tangentMode: 69
      - serializedVersion: 2
        time: 2.8666666
        value: 7.563519
        inSlope: 518.18756
        outSlope: -311.44852
        tangentMode: 69
      - serializedVersion: 2
        time: 2.9166665
        value: -8.008892
        inSlope: -311.44852
        outSlope: 239.93352
        tangentMode: 69
      - serializedVersion: 2
        time: 2.9499998
        value: -0.011115973
        inSlope: 239.93352
        outSlope: 0
        tangentMode: 5
      m_PreInfinity: 2
      m_PostInfinity: 2
      m_RotationOrder: 4
    attribute: localEulerAnglesRaw.z
    path: Tutorial Back Art/Tutorial Content/Tutorial Enemy Sample Parent/Enemy Canvas/Enemy
      HP Parent
    classID: 224
    script: {fileID: 0}
  - curve:
      serializedVersion: 2
      m_Curve:
      - serializedVersion: 2
        time: 0
        value: 3.8502994
        inSlope: 0
        outSlope: -0
        tangentMode: 69
      - serializedVersion: 2
        time: 0.34999996
        value: 3.8502994
        inSlope: 0
        outSlope: -1.16501
        tangentMode: 69
      - serializedVersion: 2
        time: 0.91666675
        value: 3.190127
        inSlope: -2.0701642
        outSlope: -2.0701642
        tangentMode: 34
      - serializedVersion: 2
        time: 1.3166666
        value: 2
        inSlope: -2.9753182
        outSlope: 0
        tangentMode: 5
      - serializedVersion: 2
        time: 2.1666667
        value: 2
        inSlope: 0
        outSlope: 1.5982772
        tangentMode: 69
      - serializedVersion: 2
        time: 2.5
        value: 2.532759
        inSlope: 0
        outSlope: 0
        tangentMode: 0
      - serializedVersion: 2
        time: 2.8333333
        value: 2
        inSlope: -1.5982772
        outSlope: -0
        tangentMode: 69
      - serializedVersion: 2
        time: 3.75
        value: 2
        inSlope: 0
        outSlope: 0
        tangentMode: 0
      - serializedVersion: 2
        time: 4.25
        value: 3.0709467
        inSlope: 0
        outSlope: 0
        tangentMode: 1
      m_PreInfinity: 2
      m_PostInfinity: 2
      m_RotationOrder: 4
    attribute: m_LocalScale.x
    path: Tutorial Back Art/Tutorial Content/Tutorial Arm
    classID: 224
    script: {fileID: 0}
  - curve:
      serializedVersion: 2
      m_Curve:
      - serializedVersion: 2
        time: 0
        value: 3.8502994
        inSlope: 0
        outSlope: -0
        tangentMode: 69
      - serializedVersion: 2
        time: 0.34999996
        value: 3.8502994
        inSlope: 0
        outSlope: -1.16501
        tangentMode: 69
      - serializedVersion: 2
        time: 0.91666675
        value: 3.190127
        inSlope: -2.0701642
        outSlope: -2.0701642
        tangentMode: 34
      - serializedVersion: 2
        time: 1.3166666
        value: 2
        inSlope: -2.9753182
        outSlope: 0
        tangentMode: 5
      - serializedVersion: 2
        time: 2.1666667
        value: 2
        inSlope: 0
        outSlope: 1.5982772
        tangentMode: 69
      - serializedVersion: 2
        time: 2.5
        value: 2.532759
        inSlope: 0
        outSlope: 0
        tangentMode: 0
      - serializedVersion: 2
        time: 2.8333333
        value: 2
        inSlope: -1.5982772
        outSlope: -0
        tangentMode: 69
      - serializedVersion: 2
        time: 3.75
        value: 2
        inSlope: 0
        outSlope: 0
        tangentMode: 0
      - serializedVersion: 2
        time: 4.25
        value: 3.0709467
        inSlope: 0
        outSlope: 0
        tangentMode: 1
      m_PreInfinity: 2
      m_PostInfinity: 2
      m_RotationOrder: 4
    attribute: m_LocalScale.y
    path: Tutorial Back Art/Tutorial Content/Tutorial Arm
    classID: 224
    script: {fileID: 0}
  - curve:
      serializedVersion: 2
      m_Curve:
      - serializedVersion: 2
        time: 0
        value: 3.8502994
        inSlope: 0
        outSlope: -0
        tangentMode: 69
      - serializedVersion: 2
        time: 0.34999996
        value: 3.8502994
        inSlope: 0
        outSlope: -1.16501
        tangentMode: 69
      - serializedVersion: 2
        time: 0.91666675
        value: 3.190127
        inSlope: -2.0701642
        outSlope: -2.0701642
        tangentMode: 34
      - serializedVersion: 2
        time: 1.3166666
        value: 2
        inSlope: -2.9753182
        outSlope: 0
        tangentMode: 5
      - serializedVersion: 2
        time: 2.1666667
        value: 2
        inSlope: 0
        outSlope: 1.5982772
        tangentMode: 69
      - serializedVersion: 2
        time: 2.5
        value: 2.532759
        inSlope: 0
        outSlope: 0
        tangentMode: 0
      - serializedVersion: 2
        time: 2.8333333
        value: 2
        inSlope: -1.5982772
        outSlope: -0
        tangentMode: 69
      - serializedVersion: 2
        time: 3.75
        value: 2
        inSlope: 0
        outSlope: 0
        tangentMode: 0
      - serializedVersion: 2
        time: 4.25
        value: 3.0709467
        inSlope: 0
        outSlope: 0
        tangentMode: 1
      m_PreInfinity: 2
      m_PostInfinity: 2
      m_RotationOrder: 4
    attribute: m_LocalScale.z
    path: Tutorial Back Art/Tutorial Content/Tutorial Arm
    classID: 224
    script: {fileID: 0}
  - curve:
      serializedVersion: 2
      m_Curve:
      - serializedVersion: 2
        time: 0
        value: 0
        inSlope: 0
        outSlope: 0
        tangentMode: 34
      m_PreInfinity: 2
      m_PostInfinity: 2
      m_RotationOrder: 4
    attribute: localEulerAnglesRaw.x
    path: Tutorial Back Art/Tutorial Content/Tutorial Arm
    classID: 224
    script: {fileID: 0}
  - curve:
      serializedVersion: 2
      m_Curve:
      - serializedVersion: 2
        time: 0
        value: 0
        inSlope: 0
        outSlope: 0
        tangentMode: 34
      m_PreInfinity: 2
      m_PostInfinity: 2
      m_RotationOrder: 4
    attribute: localEulerAnglesRaw.y
    path: Tutorial Back Art/Tutorial Content/Tutorial Arm
    classID: 224
    script: {fileID: 0}
  - curve:
      serializedVersion: 2
      m_Curve:
      - serializedVersion: 2
        time: 0
        value: -20
        inSlope: 0
        outSlope: -0
        tangentMode: 69
      - serializedVersion: 2
        time: 0.76666665
        value: -20
        inSlope: 0
        outSlope: 36.36364
        tangentMode: 69
      - serializedVersion: 2
        time: 1.3166666
        value: 0
        inSlope: 36.36364
        outSlope: -0
        tangentMode: 69
      - serializedVersion: 2
        time: 2.1666667
        value: 0
        inSlope: 0
        outSlope: -27.674686
        tangentMode: 69
      - serializedVersion: 2
        time: 2.5
        value: -9.224894
        inSlope: 0
        outSlope: 0
        tangentMode: 0
      - serializedVersion: 2
        time: 2.8333333
        value: 0
        inSlope: 27.674686
        outSlope: -0
        tangentMode: 69
      - serializedVersion: 2
        time: 3.75
        value: 0
        inSlope: 0
        outSlope: -2.9144423
        tangentMode: 5
      - serializedVersion: 2
        time: 4.5
        value: -13.008595
        inSlope: -17.344793
        outSlope: 0
        tangentMode: 5
      - serializedVersion: 2
        time: 5
        value: -13.008595
        inSlope: 0
        outSlope: 0
        tangentMode: 5
      m_PreInfinity: 2
      m_PostInfinity: 2
      m_RotationOrder: 4
    attribute: localEulerAnglesRaw.z
    path: Tutorial Back Art/Tutorial Content/Tutorial Arm
    classID: 224
    script: {fileID: 0}
  - curve:
      serializedVersion: 2
      m_Curve:
      - serializedVersion: 2
        time: 0
        value: 1
        inSlope: Infinity
        outSlope: Infinity
        tangentMode: 103
      - serializedVersion: 2
        time: 2.7833333
        value: 0
        inSlope: Infinity
        outSlope: Infinity
        tangentMode: 103
      m_PreInfinity: 2
      m_PostInfinity: 2
      m_RotationOrder: 4
    attribute: m_IsActive
    path: Tutorial Back Art/Tutorial Content/Tutorial Other Stuff/Arrow (V)
    classID: 1
    script: {fileID: 0}
  - curve:
      serializedVersion: 2
      m_Curve:
      - serializedVersion: 2
        time: 0
        value: 0
        inSlope: 0
        outSlope: 0
        tangentMode: 0
      - serializedVersion: 2
        time: 2.1500003
        value: 0
        inSlope: 0
        outSlope: 5.784251
        tangentMode: 69
      - serializedVersion: 2
        time: 2.3333335
        value: 1.0604451
        inSlope: 0
        outSlope: 0
        tangentMode: 0
      - serializedVersion: 2
        time: 2.4
        value: 1
        inSlope: 0
        outSlope: 0
        tangentMode: 0
      - serializedVersion: 2
        time: 2.4333336
        value: 1
        inSlope: 0
        outSlope: 0
        tangentMode: 0
      - serializedVersion: 2
        time: 2.8166666
        value: 0.3
        inSlope: 0
        outSlope: 0
        tangentMode: 0
      m_PreInfinity: 2
      m_PostInfinity: 2
      m_RotationOrder: 4
    attribute: m_LocalScale.x
    path: Tutorial Back Art/Tutorial Content/Tutorial Other Stuff/Arrow (V)/Arrow
      Actual
    classID: 224
    script: {fileID: 0}
  - curve:
      serializedVersion: 2
      m_Curve:
      - serializedVersion: 2
        time: 0
        value: 0
        inSlope: 0
        outSlope: 0
        tangentMode: 0
      - serializedVersion: 2
        time: 2.1500003
        value: 0
        inSlope: 0
        outSlope: 5.784251
        tangentMode: 69
      - serializedVersion: 2
        time: 2.3333335
        value: 1.0604451
        inSlope: 0
        outSlope: 0
        tangentMode: 0
      - serializedVersion: 2
        time: 2.4
        value: 1
        inSlope: 0
        outSlope: 0
        tangentMode: 0
      - serializedVersion: 2
        time: 2.4333336
        value: 1
        inSlope: 0
        outSlope: 0
        tangentMode: 0
      - serializedVersion: 2
        time: 2.8166666
        value: 0.3
        inSlope: 0
        outSlope: 0
        tangentMode: 0
      m_PreInfinity: 2
      m_PostInfinity: 2
      m_RotationOrder: 4
    attribute: m_LocalScale.y
    path: Tutorial Back Art/Tutorial Content/Tutorial Other Stuff/Arrow (V)/Arrow
      Actual
    classID: 224
    script: {fileID: 0}
  - curve:
      serializedVersion: 2
      m_Curve:
      - serializedVersion: 2
        time: 0
        value: 0
        inSlope: 0
        outSlope: 0
        tangentMode: 0
      - serializedVersion: 2
        time: 2.1500003
        value: 0
        inSlope: 0
        outSlope: 5.784251
        tangentMode: 69
      - serializedVersion: 2
        time: 2.3333335
        value: 1.0604451
        inSlope: 0
        outSlope: 0
        tangentMode: 0
      - serializedVersion: 2
        time: 2.4
        value: 1
        inSlope: 0
        outSlope: 0
        tangentMode: 0
      - serializedVersion: 2
        time: 2.4333336
        value: 1
        inSlope: 0
        outSlope: 0
        tangentMode: 0
      - serializedVersion: 2
        time: 2.8166666
        value: 0.3
        inSlope: 0
        outSlope: 0
        tangentMode: 0
      m_PreInfinity: 2
      m_PostInfinity: 2
      m_RotationOrder: 4
    attribute: m_LocalScale.z
    path: Tutorial Back Art/Tutorial Content/Tutorial Other Stuff/Arrow (V)/Arrow
      Actual
    classID: 224
    script: {fileID: 0}
  - curve:
      serializedVersion: 2
      m_Curve:
      - serializedVersion: 2
        time: 0
        value: 0.75917387
        inSlope: 0
        outSlope: -0
        tangentMode: 69
      - serializedVersion: 2
        time: 2.4166667
        value: 0.75917387
        inSlope: 0
        outSlope: 1.5536523
        tangentMode: 69
      - serializedVersion: 2
        time: 2.9166667
        value: 1.536
        inSlope: 1.5536523
        outSlope: 1.5536523
        tangentMode: 34
      m_PreInfinity: 2
      m_PostInfinity: 2
      m_RotationOrder: 4
    attribute: m_AnchoredPosition.y
    path: Tutorial Back Art/Tutorial Content/Tutorial Other Stuff/Arrow (V)/Arrow
      Actual
    classID: 224
    script: {fileID: 0}
  - curve:
      serializedVersion: 2
      m_Curve:
      - serializedVersion: 2
        time: 0
        value: 2.8
        inSlope: 0
        outSlope: -0
        tangentMode: 69
      - serializedVersion: 2
        time: 2.4166667
        value: 2.8
        inSlope: 0
        outSlope: -5.304
        tangentMode: 69
      - serializedVersion: 2
        time: 2.9166667
        value: 0.148
        inSlope: -5.304
        outSlope: -5.304
        tangentMode: 34
      m_PreInfinity: 2
      m_PostInfinity: 2
      m_RotationOrder: 4
    attribute: m_AnchoredPosition.x
    path: Tutorial Back Art/Tutorial Content/Tutorial Other Stuff/Arrow (V)/Arrow
      Actual
    classID: 224
    script: {fileID: 0}
  - curve:
      serializedVersion: 2
      m_Curve:
      - serializedVersion: 2
        time: 0
        value: 1
        inSlope: Infinity
        outSlope: Infinity
        tangentMode: 103
      - serializedVersion: 2
        time: 0.28333333
        value: 1
        inSlope: Infinity
        outSlope: Infinity
        tangentMode: 103
      - serializedVersion: 2
        time: 4.4166665
        value: 0
        inSlope: Infinity
        outSlope: Infinity
        tangentMode: 103
      m_PreInfinity: 2
      m_PostInfinity: 2
      m_RotationOrder: 4
    attribute: m_IsActive
    path: Tutorial Back Art/Tutorial Content/Tutorial Other Stuff/Arrow (V2)
    classID: 1
    script: {fileID: 0}
  - curve:
      serializedVersion: 2
      m_Curve:
      - serializedVersion: 2
        time: 0
        value: 2.8
        inSlope: 0.16088495
        outSlope: -0
        tangentMode: 69
      - serializedVersion: 2
        time: 3.9
        value: 2.8
        inSlope: 0
        outSlope: -5.4868937
        tangentMode: 69
      - serializedVersion: 2
        time: 4.3833337
        value: 0.148
        inSlope: -5.4868937
        outSlope: -5.4868937
        tangentMode: 34
      m_PreInfinity: 2
      m_PostInfinity: 2
      m_RotationOrder: 4
    attribute: m_AnchoredPosition.x
    path: Tutorial Back Art/Tutorial Content/Tutorial Other Stuff/Arrow (V2)/Arrow
      Actual
    classID: 224
    script: {fileID: 0}
  - curve:
      serializedVersion: 2
      m_Curve:
      - serializedVersion: 2
        time: 0
        value: 0.75917387
        inSlope: -0.0069026533
        outSlope: -0
        tangentMode: 69
      - serializedVersion: 2
        time: 3.9
        value: 0.75917387
        inSlope: 0
        outSlope: 1.6072257
        tangentMode: 69
      - serializedVersion: 2
        time: 4.3833337
        value: 1.536
        inSlope: 1.6072257
        outSlope: 1.6072257
        tangentMode: 34
      m_PreInfinity: 2
      m_PostInfinity: 2
      m_RotationOrder: 4
    attribute: m_AnchoredPosition.y
    path: Tutorial Back Art/Tutorial Content/Tutorial Other Stuff/Arrow (V2)/Arrow
      Actual
    classID: 224
    script: {fileID: 0}
  - curve:
      serializedVersion: 2
      m_Curve:
      - serializedVersion: 2
        time: 0
        value: 0
        inSlope: 0
        outSlope: 0
        tangentMode: 0
      - serializedVersion: 2
        time: 3.65
        value: 0
        inSlope: 0
        outSlope: 5.784251
        tangentMode: 69
      - serializedVersion: 2
        time: 3.8333333
        value: 1.0604451
        inSlope: 0
        outSlope: 0
        tangentMode: 0
      - serializedVersion: 2
        time: 3.8999999
        value: 1
        inSlope: 0
        outSlope: 0
        tangentMode: 0
      - serializedVersion: 2
        time: 3.9333334
        value: 1
        inSlope: 0
        outSlope: 0
        tangentMode: 0
      - serializedVersion: 2
        time: 4.316667
        value: 0.3
        inSlope: 0
        outSlope: 0
        tangentMode: 0
      m_PreInfinity: 2
      m_PostInfinity: 2
      m_RotationOrder: 4
    attribute: m_LocalScale.x
    path: Tutorial Back Art/Tutorial Content/Tutorial Other Stuff/Arrow (V2)/Arrow
      Actual
    classID: 224
    script: {fileID: 0}
  - curve:
      serializedVersion: 2
      m_Curve:
      - serializedVersion: 2
        time: 0
        value: 0
        inSlope: 0
        outSlope: 0
        tangentMode: 0
      - serializedVersion: 2
        time: 3.65
        value: 0
        inSlope: 0
        outSlope: 5.784251
        tangentMode: 69
      - serializedVersion: 2
        time: 3.8333333
        value: 1.0604451
        inSlope: 0
        outSlope: 0
        tangentMode: 0
      - serializedVersion: 2
        time: 3.8999999
        value: 1
        inSlope: 0
        outSlope: 0
        tangentMode: 0
      - serializedVersion: 2
        time: 3.9333334
        value: 1
        inSlope: 0
        outSlope: 0
        tangentMode: 0
      - serializedVersion: 2
        time: 4.316667
        value: 0.3
        inSlope: 0
        outSlope: 0
        tangentMode: 0
      m_PreInfinity: 2
      m_PostInfinity: 2
      m_RotationOrder: 4
    attribute: m_LocalScale.y
    path: Tutorial Back Art/Tutorial Content/Tutorial Other Stuff/Arrow (V2)/Arrow
      Actual
    classID: 224
    script: {fileID: 0}
  - curve:
      serializedVersion: 2
      m_Curve:
      - serializedVersion: 2
        time: 0
        value: 0
        inSlope: 0
        outSlope: 0
        tangentMode: 0
      - serializedVersion: 2
        time: 3.65
        value: 0
        inSlope: 0
        outSlope: 5.784251
        tangentMode: 69
      - serializedVersion: 2
        time: 3.8333333
        value: 1.0604451
        inSlope: 0
        outSlope: 0
        tangentMode: 0
      - serializedVersion: 2
        time: 3.8999999
        value: 1
        inSlope: 0
        outSlope: 0
        tangentMode: 0
      - serializedVersion: 2
        time: 3.9333334
        value: 1
        inSlope: 0
        outSlope: 0
        tangentMode: 0
      - serializedVersion: 2
        time: 4.316667
        value: 0.3
        inSlope: 0
        outSlope: 0
        tangentMode: 0
      m_PreInfinity: 2
      m_PostInfinity: 2
      m_RotationOrder: 4
    attribute: m_LocalScale.z
    path: Tutorial Back Art/Tutorial Content/Tutorial Other Stuff/Arrow (V2)/Arrow
      Actual
    classID: 224
    script: {fileID: 0}
  - curve:
      serializedVersion: 2
      m_Curve:
      - serializedVersion: 2
        time: 0
        value: 1
        inSlope: Infinity
        outSlope: Infinity
        tangentMode: 103
      - serializedVersion: 2
        time: 2.75
        value: 0
        inSlope: Infinity
        outSlope: Infinity
        tangentMode: 103
      m_PreInfinity: 2
      m_PostInfinity: 2
      m_RotationOrder: 4
    attribute: m_IsActive
    path: Tutorial Back Art/Tutorial Content/Tutorial Enemy Sample Parent/Enemy Canvas/Enemy
      HP Parent/En Arrows Parent/En Arrows Wait Line/Arrow (V)
    classID: 1
    script: {fileID: 0}
  - curve:
      serializedVersion: 2
      m_Curve:
      - serializedVersion: 2
        time: 0
        value: 1.163
        inSlope: 0
        outSlope: 0
        tangentMode: 34
      - serializedVersion: 2
        time: 2.75
        value: 1.163
        inSlope: 0
        outSlope: -2.2519999
        tangentMode: 69
      - serializedVersion: 2
        time: 3
        value: 0.6
        inSlope: -2.2519999
        outSlope: -2.2519999
        tangentMode: 34
      m_PreInfinity: 2
      m_PostInfinity: 2
      m_RotationOrder: 4
    attribute: m_AnchoredPosition.x
    path: Tutorial Back Art/Tutorial Content/Tutorial Enemy Sample Parent/Enemy Canvas/Enemy
      HP Parent/En Arrows Parent/En Arrows Wait Line/Arrow (V2)
    classID: 224
    script: {fileID: 0}
  - curve:
      serializedVersion: 2
      m_Curve:
      - serializedVersion: 2
        time: 0
        value: 1
        inSlope: Infinity
        outSlope: Infinity
        tangentMode: 103
      - serializedVersion: 2
        time: 4.4166665
        value: 0
        inSlope: Infinity
        outSlope: Infinity
        tangentMode: 103
      m_PreInfinity: 2
      m_PostInfinity: 2
      m_RotationOrder: 4
    attribute: m_IsActive
    path: Tutorial Back Art/Tutorial Content/Tutorial Enemy Sample Parent/Enemy Canvas/Enemy
      HP Parent/En Arrows Parent/En Arrows Wait Line/Arrow (V2)
    classID: 1
    script: {fileID: 0}
  - curve:
      serializedVersion: 2
      m_Curve:
      - serializedVersion: 2
        time: 0
        value: 221.15375
        inSlope: 0
        outSlope: 0
        tangentMode: 0
      - serializedVersion: 2
        time: 1.4166666
        value: 221.15375
        inSlope: 0
        outSlope: -48.510735
        tangentMode: 1
      - serializedVersion: 2
        time: 2.2666667
        value: 27.650238
        inSlope: -70.506325
        outSlope: 0
        tangentMode: 1
      - serializedVersion: 2
        time: 2.9166667
        value: 27.650238
        inSlope: 0
        outSlope: 46.51163
        tangentMode: 1
      - serializedVersion: 2
        time: 3.8000002
        value: 221.15375
        inSlope: 65.07367
        outSlope: 0
        tangentMode: 1
      - serializedVersion: 2
        time: 5
        value: 221.15375
        inSlope: 0
        outSlope: 0
        tangentMode: 0
      m_PreInfinity: 2
      m_PostInfinity: 2
      m_RotationOrder: 4
    attribute: m_AnchoredPosition.x
    path: Tutorial Back Art/Tutorial Content/Tutorial Arm Finger Line
    classID: 224
    script: {fileID: 0}
  - curve:
      serializedVersion: 2
      m_Curve:
      - serializedVersion: 2
        time: 0
        value: 0
        inSlope: Infinity
        outSlope: Infinity
        tangentMode: 103
      - serializedVersion: 2
        time: 2.8166666
        value: 1
        inSlope: Infinity
        outSlope: Infinity
        tangentMode: 103
      m_PreInfinity: 2
      m_PostInfinity: 2
      m_RotationOrder: 4
    attribute: m_IsActive
    path: Tutorial Back Art/Tutorial Content/Tutorial Enemy Sample Parent/Enemy Canvas/Enemy
      HP Parent/En Arrows Parent/En HP Number Parent/Text (Actual HP Number 1)
    classID: 1
    script: {fileID: 0}
  - curve:
      serializedVersion: 2
      m_Curve:
      - serializedVersion: 2
        time: 0
        value: 1
        inSlope: Infinity
        outSlope: Infinity
        tangentMode: 103
      - serializedVersion: 2
        time: 2.8166666
        value: 0
        inSlope: Infinity
        outSlope: Infinity
        tangentMode: 103
      m_PreInfinity: 2
      m_PostInfinity: 2
      m_RotationOrder: 4
    attribute: m_IsActive
    path: Tutorial Back Art/Tutorial Content/Tutorial Enemy Sample Parent/Enemy Canvas/Enemy
      HP Parent/En Arrows Parent/En HP Number Parent/Text (Actual HP Number 2)
    classID: 1
    script: {fileID: 0}
  m_EulerEditorCurves:
  - curve:
      serializedVersion: 2
      m_Curve: []
      m_PreInfinity: 2
      m_PostInfinity: 2
      m_RotationOrder: 4
    attribute: m_LocalEulerAngles.z
    path: Tutorial Back Art/Tutorial Content/Tutorial Enemy Sample Parent/Enemy Canvas/Enemy
      HP Parent
    classID: 224
    script: {fileID: 0}
  - curve:
      serializedVersion: 2
      m_Curve: []
      m_PreInfinity: 2
      m_PostInfinity: 2
      m_RotationOrder: 4
    attribute: m_LocalEulerAngles.y
    path: Tutorial Back Art/Tutorial Content/Tutorial Enemy Sample Parent/Enemy Canvas/Enemy
      HP Parent
    classID: 224
    script: {fileID: 0}
  - curve:
      serializedVersion: 2
      m_Curve: []
      m_PreInfinity: 2
      m_PostInfinity: 2
      m_RotationOrder: 4
    attribute: m_LocalEulerAngles.x
    path: Tutorial Back Art/Tutorial Content/Tutorial Enemy Sample Parent/Enemy Canvas/Enemy
      HP Parent
    classID: 224
    script: {fileID: 0}
  - curve:
      serializedVersion: 2
      m_Curve: []
      m_PreInfinity: 2
      m_PostInfinity: 2
      m_RotationOrder: 4
    attribute: m_LocalEulerAngles.x
    path: Tutorial Back Art/Tutorial Content/Tutorial Arm
    classID: 224
    script: {fileID: 0}
  - curve:
      serializedVersion: 2
      m_Curve: []
      m_PreInfinity: 2
      m_PostInfinity: 2
      m_RotationOrder: 4
    attribute: m_LocalEulerAngles.y
    path: Tutorial Back Art/Tutorial Content/Tutorial Arm
    classID: 224
    script: {fileID: 0}
  - curve:
      serializedVersion: 2
      m_Curve: []
      m_PreInfinity: 2
      m_PostInfinity: 2
      m_RotationOrder: 4
    attribute: m_LocalEulerAngles.z
    path: Tutorial Back Art/Tutorial Content/Tutorial Arm
    classID: 224
    script: {fileID: 0}
  m_HasGenericRootTransform: 0
  m_HasMotionFloatCurves: 0
  m_GenerateMotionCurves: 0
  m_Events:
  - time: 1.4166666
    functionName: TrailReset
    data: 
    objectReferenceParameter: {fileID: 0}
    floatParameter: 0
    intParameter: 0
    messageOptions: 0
  - time: 2.9
    functionName: TrailReset
    data: 
    objectReferenceParameter: {fileID: 0}
    floatParameter: 0
    intParameter: 0
    messageOptions: 0
