%YAML 1.1
%TAG !u! tag:unity3d.com,2011:
--- !u!74 &7400000
AnimationClip:
  m_ObjectHideFlags: 0
  m_PrefabParentObject: {fileID: 0}
  m_PrefabInternal: {fileID: 0}
  m_Name: Tutorial 1-0 Interactive Anim 4-2 HandPicto (Legacy)
  serializedVersion: 6
  m_Legacy: 1
  m_Compressed: 0
  m_UseHighQualityCurve: 1
  m_RotationCurves: []
  m_CompressedRotationCurves: []
  m_EulerCurves: []
  m_PositionCurves: []
  m_ScaleCurves:
  - curve:
      serializedVersion: 2
      m_Curve:
      - serializedVersion: 2
        time: 0
        value: {x: 1.4, y: 1.4, z: 1.4}
        inSlope: {x: -0.96, y: -0.96, z: -0.96}
        outSlope: {x: -0.96, y: -0.96, z: -0.96}
        tangentMode: 0
      - serializedVersion: 2
        time: 0.41666666
        value: {x: 1, y: 1, z: 1}
        inSlope: {x: 0, y: 0, z: 0}
        outSlope: {x: -0, y: -0, z: -0}
        tangentMode: 0
      - serializedVersion: 2
        time: 1.3333334
        value: {x: 1, y: 1, z: 1}
        inSlope: {x: 0, y: 0, z: 0}
        outSlope: {x: 0.95999974, y: 0.95999974, z: 0.95999974}
        tangentMode: 0
      - serializedVersion: 2
        time: 1.7500001
        value: {x: 1.4, y: 1.4, z: 1.4}
        inSlope: {x: 0, y: 0, z: 0}
        outSlope: {x: 0, y: 0, z: 0}
        tangentMode: 0
      m_PreInfinity: 2
      m_PostInfinity: 2
      m_RotationOrder: 4
    path: First Time Hand Picto
  - curve:
      serializedVersion: 2
      m_Curve:
      - serializedVersion: 2
        time: 0
        value: {x: 0, y: 0, z: 0}
        inSlope: {x: 0, y: 0, z: 0}
        outSlope: {x: -0, y: -0, z: -0}
        tangentMode: 0
      - serializedVersion: 2
        time: 0.28333333
        value: {x: 0, y: 0, z: 0}
        inSlope: {x: 0, y: 0, z: 0}
        outSlope: {x: 6.0000005, y: 6.0000005, z: 6.0000005}
        tangentMode: 0
      - serializedVersion: 2
        time: 0.45
        value: {x: 1, y: 1, z: 1}
        inSlope: {x: 6.0000005, y: 6.0000005, z: 6.0000005}
        outSlope: {x: -0, y: -0, z: -0}
        tangentMode: 0
      - serializedVersion: 2
        time: 1.3833333
        value: {x: 1, y: 1, z: 1}
        inSlope: {x: 0, y: 0, z: 0}
        outSlope: {x: -3.333334, y: -3.333334, z: -3.333334}
        tangentMode: 0
      - serializedVersion: 2
        time: 1.6833333
        value: {x: 0, y: 0, z: 0}
        inSlope: {x: -3.333334, y: -3.333334, z: -3.333334}
        outSlope: {x: -0, y: -0, z: -0}
        tangentMode: 0
      - serializedVersion: 2
        time: 1.75
        value: {x: 0, y: 0, z: 0}
        inSlope: {x: 0, y: 0, z: 0}
        outSlope: {x: 6.0000005, y: 6.0000005, z: 6.0000005}
        tangentMode: 0
      m_PreInfinity: 2
      m_PostInfinity: 2
      m_RotationOrder: 4
    path: First Time Hand Circle
  m_FloatCurves:
  - curve:
      serializedVersion: 2
      m_Curve:
      - serializedVersion: 2
        time: 0
        value: -85.6
        inSlope: -180.82582
        outSlope: -180.82582
        tangentMode: 34
      - serializedVersion: 2
        time: 0.41666666
        value: -160.94409
        inSlope: 0
        outSlope: 0
        tangentMode: 0
      - serializedVersion: 2
        time: 1.3333334
        value: -160.94409
        inSlope: 0
        outSlope: 165.46579
        tangentMode: 69
      - serializedVersion: 2
        time: 1.7500001
        value: -92
        inSlope: 0
        outSlope: 0
        tangentMode: 0
      m_PreInfinity: 2
      m_PostInfinity: 2
      m_RotationOrder: 4
    attribute: m_AnchoredPosition.x
    path: First Time Hand Picto
    classID: 224
    script: {fileID: 0}
  - curve:
      serializedVersion: 2
      m_Curve:
      - serializedVersion: 2
        time: 0
        value: -222.46371
        inSlope: 0
        outSlope: 0
        tangentMode: 0
      - serializedVersion: 2
        time: 0.40000004
        value: -182
        inSlope: 101.15928
        outSlope: 236.78572
        tangentMode: 69
      - serializedVersion: 2
        time: 1.3333334
        value: 39
        inSlope: 236.78572
        outSlope: 101.378876
        tangentMode: 69
      - serializedVersion: 2
        time: 1.75
        value: 81.241196
        inSlope: 0
        outSlope: 0
        tangentMode: 0
      m_PreInfinity: 2
      m_PostInfinity: 2
      m_RotationOrder: 4
    attribute: m_AnchoredPosition.y
    path: First Time Hand Picto
    classID: 224
    script: {fileID: 0}
  - curve:
      serializedVersion: 2
      m_Curve:
      - serializedVersion: 2
        time: 0
        value: -110.8528
        inSlope: -0.00002861023
        outSlope: 0.00011444091
        tangentMode: 69
      - serializedVersion: 2
        time: 0.40000004
        value: -110.85275
        inSlope: 0.00011444091
        outSlope: 236.78566
        tangentMode: 69
      - serializedVersion: 2
        time: 1.3333334
        value: 110.1472
        inSlope: 236.78566
        outSlope: -0
        tangentMode: 69
      - serializedVersion: 2
        time: 1.7500001
        value: 110.1472
        inSlope: 0
        outSlope: -241.09085
        tangentMode: 69
      m_PreInfinity: 2
      m_PostInfinity: 2
      m_RotationOrder: 4
    attribute: m_AnchoredPosition.y
    path: First Time Hand Circle
    classID: 224
    script: {fileID: 0}
  - curve:
      serializedVersion: 2
      m_Curve:
      - serializedVersion: 2
        time: 0
        value: 1
        inSlope: Infinity
        outSlope: Infinity
        tangentMode: 103
      - serializedVersion: 2
        time: 1.75
        value: 0
        inSlope: Infinity
        outSlope: Infinity
        tangentMode: 103
      - serializedVersion: 2
        time: 2
        value: 1
        inSlope: Infinity
        outSlope: Infinity
        tangentMode: 103
      m_PreInfinity: 2
      m_PostInfinity: 2
      m_RotationOrder: 4
    attribute: m_IsActive
    path: First Time Hand Circle
    classID: 1
    script: {fileID: 0}
  - curve:
      serializedVersion: 2
      m_Curve:
      - serializedVersion: 2
        time: 0
        value: 1
        inSlope: Infinity
        outSlope: Infinity
        tangentMode: 103
      - serializedVersion: 2
        time: 1.75
        value: 0
        inSlope: Infinity
        outSlope: Infinity
        tangentMode: 103
      - serializedVersion: 2
        time: 2
        value: 0
        inSlope: Infinity
        outSlope: Infinity
        tangentMode: 103
      m_PreInfinity: 2
      m_PostInfinity: 2
      m_RotationOrder: 4
    attribute: m_IsActive
    path: First Time Hand Picto
    classID: 1
    script: {fileID: 0}
  - curve:
      serializedVersion: 2
      m_Curve:
      - serializedVersion: 2
        time: 0
        value: 475
        inSlope: 0
        outSlope: 0
        tangentMode: 34
      m_PreInfinity: 2
      m_PostInfinity: 2
      m_RotationOrder: 4
    attribute: m_AnchoredPosition.x
    path: 
    classID: 224
    script: {fileID: 0}
  - curve:
      serializedVersion: 2
      m_Curve:
      - serializedVersion: 2
        time: 0
        value: -210
        inSlope: 0
        outSlope: 0
        tangentMode: 34
      m_PreInfinity: 2
      m_PostInfinity: 2
      m_RotationOrder: 4
    attribute: m_AnchoredPosition.x
    path: First Time Hand Circle
    classID: 224
    script: {fileID: 0}
  m_PPtrCurves: []
  m_SampleRate: 60
  m_WrapMode: 2
  m_Bounds:
    m_Center: {x: 0, y: 0, z: 0}
    m_Extent: {x: 0, y: 0, z: 0}
  m_ClipBindingConstant:
    genericBindings: []
    pptrCurveMapping: []
  m_AnimationClipSettings:
    serializedVersion: 2
    m_AdditiveReferencePoseClip: {fileID: 0}
    m_AdditiveReferencePoseTime: 0
    m_StartTime: 0
    m_StopTime: 2
    m_OrientationOffsetY: 0
    m_Level: 0
    m_CycleOffset: 0
    m_HasAdditiveReferencePose: 0
    m_LoopTime: 1
    m_LoopBlend: 0
    m_LoopBlendOrientation: 0
    m_LoopBlendPositionY: 0
    m_LoopBlendPositionXZ: 0
    m_KeepOriginalOrientation: 0
    m_KeepOriginalPositionY: 1
    m_KeepOriginalPositionXZ: 0
    m_HeightFromFeet: 0
    m_Mirror: 0
  m_EditorCurves:
  - curve:
      serializedVersion: 2
      m_Curve:
      - serializedVersion: 2
        time: 0
        value: -85.6
        inSlope: -180.82582
        outSlope: -180.82582
        tangentMode: 34
      - serializedVersion: 2
        time: 0.41666666
        value: -160.94409
        inSlope: 0
        outSlope: 0
        tangentMode: 0
      - serializedVersion: 2
        time: 1.3333334
        value: -160.94409
        inSlope: 0
        outSlope: 165.46579
        tangentMode: 69
      - serializedVersion: 2
        time: 1.7500001
        value: -92
        inSlope: 0
        outSlope: 0
        tangentMode: 0
      m_PreInfinity: 2
      m_PostInfinity: 2
      m_RotationOrder: 4
    attribute: m_AnchoredPosition.x
    path: First Time Hand Picto
    classID: 224
    script: {fileID: 0}
  - curve:
      serializedVersion: 2
      m_Curve:
      - serializedVersion: 2
        time: 0
        value: -222.46371
        inSlope: 0
        outSlope: 0
        tangentMode: 0
      - serializedVersion: 2
        time: 0.40000004
        value: -182
        inSlope: 101.15928
        outSlope: 236.78572
        tangentMode: 69
      - serializedVersion: 2
        time: 1.3333334
        value: 39
        inSlope: 236.78572
        outSlope: 101.378876
        tangentMode: 69
      - serializedVersion: 2
        time: 1.75
        value: 81.241196
        inSlope: 0
        outSlope: 0
        tangentMode: 0
      m_PreInfinity: 2
      m_PostInfinity: 2
      m_RotationOrder: 4
    attribute: m_AnchoredPosition.y
    path: First Time Hand Picto
    classID: 224
    script: {fileID: 0}
  - curve:
      serializedVersion: 2
      m_Curve:
      - serializedVersion: 2
        time: 0
        value: 1.4
        inSlope: -0.96
        outSlope: -0.96
        tangentMode: 34
      - serializedVersion: 2
        time: 0.41666666
        value: 1
        inSlope: 0
        outSlope: -0
        tangentMode: 65
      - serializedVersion: 2
        time: 1.3333334
        value: 1
        inSlope: 0
        outSlope: 0.95999974
        tangentMode: 69
      - serializedVersion: 2
        time: 1.7500001
        value: 1.4
        inSlope: 0
        outSlope: 0
        tangentMode: 0
      m_PreInfinity: 2
      m_PostInfinity: 2
      m_RotationOrder: 4
    attribute: m_LocalScale.x
    path: First Time Hand Picto
    classID: 224
    script: {fileID: 0}
  - curve:
      serializedVersion: 2
      m_Curve:
      - serializedVersion: 2
        time: 0
        value: 1.4
        inSlope: -0.96
        outSlope: -0.96
        tangentMode: 34
      - serializedVersion: 2
        time: 0.41666666
        value: 1
        inSlope: 0
        outSlope: -0
        tangentMode: 65
      - serializedVersion: 2
        time: 1.3333334
        value: 1
        inSlope: 0
        outSlope: 0.95999974
        tangentMode: 69
      - serializedVersion: 2
        time: 1.7500001
        value: 1.4
        inSlope: 0
        outSlope: 0
        tangentMode: 0
      m_PreInfinity: 2
      m_PostInfinity: 2
      m_RotationOrder: 4
    attribute: m_LocalScale.y
    path: First Time Hand Picto
    classID: 224
    script: {fileID: 0}
  - curve:
      serializedVersion: 2
      m_Curve:
      - serializedVersion: 2
        time: 0
        value: 1.4
        inSlope: -0.96
        outSlope: -0.96
        tangentMode: 34
      - serializedVersion: 2
        time: 0.41666666
        value: 1
        inSlope: 0
        outSlope: -0
        tangentMode: 65
      - serializedVersion: 2
        time: 1.3333334
        value: 1
        inSlope: 0
        outSlope: 0.95999974
        tangentMode: 69
      - serializedVersion: 2
        time: 1.7500001
        value: 1.4
        inSlope: 0
        outSlope: 0
        tangentMode: 0
      m_PreInfinity: 2
      m_PostInfinity: 2
      m_RotationOrder: 4
    attribute: m_LocalScale.z
    path: First Time Hand Picto
    classID: 224
    script: {fileID: 0}
  - curve:
      serializedVersion: 2
      m_Curve:
      - serializedVersion: 2
        time: 0
        value: 0
        inSlope: 0
        outSlope: -0
        tangentMode: 69
      - serializedVersion: 2
        time: 0.28333333
        value: 0
        inSlope: 0
        outSlope: 6.0000005
        tangentMode: 69
      - serializedVersion: 2
        time: 0.45
        value: 1
        inSlope: 6.0000005
        outSlope: -0
        tangentMode: 69
      - serializedVersion: 2
        time: 1.3833333
        value: 1
        inSlope: 0
        outSlope: -3.333334
        tangentMode: 69
      - serializedVersion: 2
        time: 1.6833333
        value: 0
        inSlope: -3.333334
        outSlope: -0
        tangentMode: 69
      - serializedVersion: 2
        time: 1.75
        value: 0
        inSlope: 0
        outSlope: 6.0000005
        tangentMode: 69
      m_PreInfinity: 2
      m_PostInfinity: 2
      m_RotationOrder: 4
    attribute: m_LocalScale.x
    path: First Time Hand Circle
    classID: 224
    script: {fileID: 0}
  - curve:
      serializedVersion: 2
      m_Curve:
      - serializedVersion: 2
        time: 0
        value: 0
        inSlope: 0
        outSlope: -0
        tangentMode: 69
      - serializedVersion: 2
        time: 0.28333333
        value: 0
        inSlope: 0
        outSlope: 6.0000005
        tangentMode: 69
      - serializedVersion: 2
        time: 0.45
        value: 1
        inSlope: 6.0000005
        outSlope: -0
        tangentMode: 69
      - serializedVersion: 2
        time: 1.3833333
        value: 1
        inSlope: 0
        outSlope: -3.333334
        tangentMode: 69
      - serializedVersion: 2
        time: 1.6833333
        value: 0
        inSlope: -3.333334
        outSlope: -0
        tangentMode: 69
      - serializedVersion: 2
        time: 1.75
        value: 0
        inSlope: 0
        outSlope: 6.0000005
        tangentMode: 69
      m_PreInfinity: 2
      m_PostInfinity: 2
      m_RotationOrder: 4
    attribute: m_LocalScale.y
    path: First Time Hand Circle
    classID: 224
    script: {fileID: 0}
  - curve:
      serializedVersion: 2
      m_Curve:
      - serializedVersion: 2
        time: 0
        value: 0
        inSlope: 0
        outSlope: -0
        tangentMode: 69
      - serializedVersion: 2
        time: 0.28333333
        value: 0
        inSlope: 0
        outSlope: 6.0000005
        tangentMode: 69
      - serializedVersion: 2
        time: 0.45
        value: 1
        inSlope: 6.0000005
        outSlope: -0
        tangentMode: 69
      - serializedVersion: 2
        time: 1.3833333
        value: 1
        inSlope: 0
        outSlope: -3.333334
        tangentMode: 69
      - serializedVersion: 2
        time: 1.6833333
        value: 0
        inSlope: -3.333334
        outSlope: -0
        tangentMode: 69
      - serializedVersion: 2
        time: 1.75
        value: 0
        inSlope: 0
        outSlope: 6.0000005
        tangentMode: 69
      m_PreInfinity: 2
      m_PostInfinity: 2
      m_RotationOrder: 4
    attribute: m_LocalScale.z
    path: First Time Hand Circle
    classID: 224
    script: {fileID: 0}
  - curve:
      serializedVersion: 2
      m_Curve:
      - serializedVersion: 2
        time: 0
        value: -110.8528
        inSlope: -0.00002861023
        outSlope: 0.00011444091
        tangentMode: 69
      - serializedVersion: 2
        time: 0.40000004
        value: -110.85275
        inSlope: 0.00011444091
        outSlope: 236.78566
        tangentMode: 69
      - serializedVersion: 2
        time: 1.3333334
        value: 110.1472
        inSlope: 236.78566
        outSlope: -0
        tangentMode: 69
      - serializedVersion: 2
        time: 1.7500001
        value: 110.1472
        inSlope: 0
        outSlope: -241.09085
        tangentMode: 69
      m_PreInfinity: 2
      m_PostInfinity: 2
      m_RotationOrder: 4
    attribute: m_AnchoredPosition.y
    path: First Time Hand Circle
    classID: 224
    script: {fileID: 0}
  - curve:
      serializedVersion: 2
      m_Curve:
      - serializedVersion: 2
        time: 0
        value: 1
        inSlope: Infinity
        outSlope: Infinity
        tangentMode: 103
      - serializedVersion: 2
        time: 1.75
        value: 0
        inSlope: Infinity
        outSlope: Infinity
        tangentMode: 103
      - serializedVersion: 2
        time: 2
        value: 1
        inSlope: Infinity
        outSlope: Infinity
        tangentMode: 103
      m_PreInfinity: 2
      m_PostInfinity: 2
      m_RotationOrder: 4
    attribute: m_IsActive
    path: First Time Hand Circle
    classID: 1
    script: {fileID: 0}
  - curve:
      serializedVersion: 2
      m_Curve:
      - serializedVersion: 2
        time: 0
        value: 1
        inSlope: Infinity
        outSlope: Infinity
        tangentMode: 103
      - serializedVersion: 2
        time: 1.75
        value: 0
        inSlope: Infinity
        outSlope: Infinity
        tangentMode: 103
      - serializedVersion: 2
        time: 2
        value: 0
        inSlope: Infinity
        outSlope: Infinity
        tangentMode: 103
      m_PreInfinity: 2
      m_PostInfinity: 2
      m_RotationOrder: 4
    attribute: m_IsActive
    path: First Time Hand Picto
    classID: 1
    script: {fileID: 0}
  - curve:
      serializedVersion: 2
      m_Curve:
      - serializedVersion: 2
        time: 0
        value: 475
        inSlope: 0
        outSlope: 0
        tangentMode: 34
      m_PreInfinity: 2
      m_PostInfinity: 2
      m_RotationOrder: 4
    attribute: m_AnchoredPosition.x
    path: 
    classID: 224
    script: {fileID: 0}
  - curve:
      serializedVersion: 2
      m_Curve:
      - serializedVersion: 2
        time: 0
        value: -210
        inSlope: 0
        outSlope: 0
        tangentMode: 34
      m_PreInfinity: 2
      m_PostInfinity: 2
      m_RotationOrder: 4
    attribute: m_AnchoredPosition.x
    path: First Time Hand Circle
    classID: 224
    script: {fileID: 0}
  m_EulerEditorCurves: []
  m_HasGenericRootTransform: 0
  m_HasMotionFloatCurves: 0
  m_GenerateMotionCurves: 0
  m_Events: []
