%YAML 1.1
%TAG !u! tag:unity3d.com,2011:
--- !u!74 &7400000
AnimationClip:
  m_ObjectHideFlags: 0
  m_PrefabParentObject: {fileID: 0}
  m_PrefabInternal: {fileID: 0}
  m_Name: Enemy Barrel Line 3 Anim 1 (Legacy)
  serializedVersion: 6
  m_Legacy: 1
  m_Compressed: 0
  m_UseHighQualityCurve: 1
  m_RotationCurves: []
  m_CompressedRotationCurves: []
  m_EulerCurves: []
  m_PositionCurves:
  - curve:
      serializedVersion: 2
      m_Curve:
      - serializedVersion: 2
        time: 0
        value: {x: 0, y: 0, z: 1}
        inSlope: {x: 2, y: -9.575, z: -1}
        outSlope: {x: 2, y: -9.575, z: -1}
        tangentMode: 0
      - serializedVersion: 2
        time: 1
        value: {x: 2, y: -9.575, z: 0}
        inSlope: {x: 2, y: -9.575, z: -1}
        outSlope: {x: 2, y: -9.575, z: -1}
        tangentMode: 0
      m_PreInfinity: 2
      m_PostInfinity: 2
      m_RotationOrder: 4
    path: Enemy Animator/Body Buffer
  m_ScaleCurves:
  - curve:
      serializedVersion: 2
      m_Curve:
      - serializedVersion: 2
        time: 0
        value: {x: 0.32, y: 0.32, z: 0.32}
        inSlope: {x: 1.54, y: 1.54, z: 1.54}
        outSlope: {x: 1.54, y: 1.54, z: 1.54}
        tangentMode: 0
      - serializedVersion: 2
        time: 1
        value: {x: 1.86, y: 1.86, z: 1.86}
        inSlope: {x: 1.54, y: 1.54, z: 1.54}
        outSlope: {x: 1.54, y: 1.54, z: 1.54}
        tangentMode: 0
      m_PreInfinity: 2
      m_PostInfinity: 2
      m_RotationOrder: 4
    path: Enemy Animator/Body Buffer
  m_FloatCurves:
  - curve:
      serializedVersion: 2
      m_Curve:
      - serializedVersion: 2
        time: 0
        value: 0
        inSlope: Infinity
        outSlope: Infinity
        tangentMode: 103
      - serializedVersion: 2
        time: 0.11666667
        value: 1
        inSlope: Infinity
        outSlope: Infinity
        tangentMode: 103
      - serializedVersion: 2
        time: 1
        value: 1
        inSlope: Infinity
        outSlope: Infinity
        tangentMode: 103
      m_PreInfinity: 2
      m_PostInfinity: 2
      m_RotationOrder: 4
    attribute: m_IsActive
    path: Enemy Animator/Body Buffer/Body Remover/Enemy Body/Body Shadow
    classID: 1
    script: {fileID: 0}
  - curve:
      serializedVersion: 2
      m_Curve:
      - serializedVersion: 2
        time: 0
        value: 0
        inSlope: Infinity
        outSlope: Infinity
        tangentMode: 103
      - serializedVersion: 2
        time: 0.11666667
        value: 1
        inSlope: Infinity
        outSlope: Infinity
        tangentMode: 103
      - serializedVersion: 2
        time: 1
        value: 1
        inSlope: Infinity
        outSlope: Infinity
        tangentMode: 103
      m_PreInfinity: 2
      m_PostInfinity: 2
      m_RotationOrder: 4
    attribute: m_IsActive
    path: Enemy Animator/Body Buffer/Body Remover/Enemy Body/Enemy Barrel Obj Parent/Enemy
      Barrel Human Parent
    classID: 1
    script: {fileID: 0}
  m_PPtrCurves: []
  m_SampleRate: 60
  m_WrapMode: 0
  m_Bounds:
    m_Center: {x: 0, y: 0, z: 0}
    m_Extent: {x: 0, y: 0, z: 0}
  m_ClipBindingConstant:
    genericBindings: []
    pptrCurveMapping: []
  m_AnimationClipSettings:
    serializedVersion: 2
    m_AdditiveReferencePoseClip: {fileID: 0}
    m_AdditiveReferencePoseTime: 0
    m_StartTime: 0
    m_StopTime: 1
    m_OrientationOffsetY: 0
    m_Level: 0
    m_CycleOffset: 0
    m_HasAdditiveReferencePose: 0
    m_LoopTime: 1
    m_LoopBlend: 0
    m_LoopBlendOrientation: 0
    m_LoopBlendPositionY: 0
    m_LoopBlendPositionXZ: 0
    m_KeepOriginalOrientation: 0
    m_KeepOriginalPositionY: 1
    m_KeepOriginalPositionXZ: 0
    m_HeightFromFeet: 0
    m_Mirror: 0
  m_EditorCurves:
  - curve:
      serializedVersion: 2
      m_Curve:
      - serializedVersion: 2
        time: 0
        value: 0
        inSlope: 2
        outSlope: 2
        tangentMode: 34
      - serializedVersion: 2
        time: 1
        value: 2
        inSlope: 2
        outSlope: 2
        tangentMode: 34
      m_PreInfinity: 2
      m_PostInfinity: 2
      m_RotationOrder: 4
    attribute: m_LocalPosition.x
    path: Enemy Animator/Body Buffer
    classID: 4
    script: {fileID: 0}
  - curve:
      serializedVersion: 2
      m_Curve:
      - serializedVersion: 2
        time: 0
        value: 0
        inSlope: -9.575
        outSlope: -9.575
        tangentMode: 34
      - serializedVersion: 2
        time: 1
        value: -9.575
        inSlope: -9.575
        outSlope: -9.575
        tangentMode: 34
      m_PreInfinity: 2
      m_PostInfinity: 2
      m_RotationOrder: 4
    attribute: m_LocalPosition.y
    path: Enemy Animator/Body Buffer
    classID: 4
    script: {fileID: 0}
  - curve:
      serializedVersion: 2
      m_Curve:
      - serializedVersion: 2
        time: 0
        value: 1
        inSlope: -1
        outSlope: -1
        tangentMode: 34
      - serializedVersion: 2
        time: 1
        value: 0
        inSlope: -1
        outSlope: -1
        tangentMode: 34
      m_PreInfinity: 2
      m_PostInfinity: 2
      m_RotationOrder: 4
    attribute: m_LocalPosition.z
    path: Enemy Animator/Body Buffer
    classID: 4
    script: {fileID: 0}
  - curve:
      serializedVersion: 2
      m_Curve:
      - serializedVersion: 2
        time: 0
        value: 0.32
        inSlope: 1.54
        outSlope: 1.54
        tangentMode: 34
      - serializedVersion: 2
        time: 1
        value: 1.86
        inSlope: 1.54
        outSlope: 1.54
        tangentMode: 34
      m_PreInfinity: 2
      m_PostInfinity: 2
      m_RotationOrder: 4
    attribute: m_LocalScale.x
    path: Enemy Animator/Body Buffer
    classID: 4
    script: {fileID: 0}
  - curve:
      serializedVersion: 2
      m_Curve:
      - serializedVersion: 2
        time: 0
        value: 0.32
        inSlope: 1.54
        outSlope: 1.54
        tangentMode: 34
      - serializedVersion: 2
        time: 1
        value: 1.86
        inSlope: 1.54
        outSlope: 1.54
        tangentMode: 34
      m_PreInfinity: 2
      m_PostInfinity: 2
      m_RotationOrder: 4
    attribute: m_LocalScale.y
    path: Enemy Animator/Body Buffer
    classID: 4
    script: {fileID: 0}
  - curve:
      serializedVersion: 2
      m_Curve:
      - serializedVersion: 2
        time: 0
        value: 0.32
        inSlope: 1.54
        outSlope: 1.54
        tangentMode: 34
      - serializedVersion: 2
        time: 1
        value: 1.86
        inSlope: 1.54
        outSlope: 1.54
        tangentMode: 34
      m_PreInfinity: 2
      m_PostInfinity: 2
      m_RotationOrder: 4
    attribute: m_LocalScale.z
    path: Enemy Animator/Body Buffer
    classID: 4
    script: {fileID: 0}
  - curve:
      serializedVersion: 2
      m_Curve:
      - serializedVersion: 2
        time: 0
        value: 0
        inSlope: Infinity
        outSlope: Infinity
        tangentMode: 103
      - serializedVersion: 2
        time: 0.11666667
        value: 1
        inSlope: Infinity
        outSlope: Infinity
        tangentMode: 103
      - serializedVersion: 2
        time: 1
        value: 1
        inSlope: Infinity
        outSlope: Infinity
        tangentMode: 103
      m_PreInfinity: 2
      m_PostInfinity: 2
      m_RotationOrder: 4
    attribute: m_IsActive
    path: Enemy Animator/Body Buffer/Body Remover/Enemy Body/Body Shadow
    classID: 1
    script: {fileID: 0}
  - curve:
      serializedVersion: 2
      m_Curve:
      - serializedVersion: 2
        time: 0
        value: 0
        inSlope: Infinity
        outSlope: Infinity
        tangentMode: 103
      - serializedVersion: 2
        time: 0.11666667
        value: 1
        inSlope: Infinity
        outSlope: Infinity
        tangentMode: 103
      - serializedVersion: 2
        time: 1
        value: 1
        inSlope: Infinity
        outSlope: Infinity
        tangentMode: 103
      m_PreInfinity: 2
      m_PostInfinity: 2
      m_RotationOrder: 4
    attribute: m_IsActive
    path: Enemy Animator/Body Buffer/Body Remover/Enemy Body/Enemy Barrel Obj Parent/Enemy
      Barrel Human Parent
    classID: 1
    script: {fileID: 0}
  m_EulerEditorCurves: []
  m_HasGenericRootTransform: 0
  m_HasMotionFloatCurves: 0
  m_GenerateMotionCurves: 0
  m_Events:
  - time: 0.16666667
    functionName: MoveHead_Check
    data: 
    objectReferenceParameter: {fileID: 0}
    floatParameter: 0
    intParameter: 5
    messageOptions: 0
  - time: 0.2
    functionName: MoveHead_Check
    data: 
    objectReferenceParameter: {fileID: 0}
    floatParameter: 0
    intParameter: 4
    messageOptions: 0
  - time: 0.25
    functionName: MoveHead_Check
    data: 
    objectReferenceParameter: {fileID: 0}
    floatParameter: 0
    intParameter: 3
    messageOptions: 0
  - time: 0.33333334
    functionName: MoveHead_Check
    data: 
    objectReferenceParameter: {fileID: 0}
    floatParameter: 0
    intParameter: 52
    messageOptions: 0
  - time: 0.4
    functionName: MoveHead_Check
    data: 
    objectReferenceParameter: {fileID: 0}
    floatParameter: 0
    intParameter: 4
    messageOptions: 0
  - time: 0.5
    functionName: MoveHead_Check
    data: 
    objectReferenceParameter: {fileID: 0}
    floatParameter: 0
    intParameter: 53
    messageOptions: 0
  - time: 0.6
    functionName: MoveHead_Check
    data: 
    objectReferenceParameter: {fileID: 0}
    floatParameter: 0
    intParameter: 4
    messageOptions: 0
  - time: 0.6666667
    functionName: MoveHead_Check
    data: 
    objectReferenceParameter: {fileID: 0}
    floatParameter: 0
    intParameter: 52
    messageOptions: 0
  - time: 0.75
    functionName: MoveHead_Check
    data: 
    objectReferenceParameter: {fileID: 0}
    floatParameter: 0
    intParameter: 3
    messageOptions: 0
  - time: 0.8
    functionName: MoveHead_Check
    data: 
    objectReferenceParameter: {fileID: 0}
    floatParameter: 0
    intParameter: 4
    messageOptions: 0
  - time: 0.8333333
    functionName: MoveHead_Check
    data: 
    objectReferenceParameter: {fileID: 0}
    floatParameter: 0
    intParameter: 5
    messageOptions: 0
  - time: 1
    functionName: EnemyAttack
    data: 
    objectReferenceParameter: {fileID: 0}
    floatParameter: 0
    intParameter: 0
    messageOptions: 0
