%YAML 1.1
%TAG !u! tag:unity3d.com,2011:
--- !u!74 &7400000
AnimationClip:
  m_ObjectHideFlags: 0
  m_PrefabParentObject: {fileID: 0}
  m_PrefabInternal: {fileID: 0}
  m_Name: World 2 - Garage Door Close Anim 2 (Legacy)
  serializedVersion: 6
  m_Legacy: 1
  m_Compressed: 0
  m_UseHighQualityCurve: 1
  m_RotationCurves: []
  m_CompressedRotationCurves: []
  m_EulerCurves: []
  m_PositionCurves:
  - curve:
      serializedVersion: 2
      m_Curve:
      - serializedVersion: 2
        time: 0
        value: {x: 0, y: 2.2710462, z: 0}
        inSlope: {x: 0, y: 0, z: 0}
        outSlope: {x: 0, y: -4.4934845, z: 0}
        tangentMode: 0
      - serializedVersion: 2
        time: 0.3
        value: {x: 0, y: 1.648387, z: 0}
        inSlope: {x: 0, y: 0, z: 0}
        outSlope: {x: 0, y: -2.4643006, z: 0}
        tangentMode: 0
      - serializedVersion: 2
        time: 0.73333335
        value: {x: 0, y: 1.2275182, z: 0}
        inSlope: {x: 0, y: 0, z: 0}
        outSlope: {x: 0, y: -1.7346536, z: 0}
        tangentMode: 0
      - serializedVersion: 2
        time: 1.3333334
        value: {x: 0, y: 0.86675143, z: 0}
        inSlope: {x: 0, y: 0, z: 0}
        outSlope: {x: 0, y: -5.20051, z: 0}
        tangentMode: 0
      - serializedVersion: 2
        time: 1.5
        value: {x: 0, y: 0, z: 0}
        inSlope: {x: 0, y: -5.20051, z: 0}
        outSlope: {x: 0, y: 5.2492695, z: 0}
        tangentMode: 0
      m_PreInfinity: 2
      m_PostInfinity: 2
      m_RotationOrder: 4
    path: Garage Door
  m_ScaleCurves: []
  m_FloatCurves:
  - curve:
      serializedVersion: 2
      m_Curve:
      - serializedVersion: 2
        time: 0
        value: 0
        inSlope: Infinity
        outSlope: Infinity
        tangentMode: 103
      - serializedVersion: 2
        time: 1.4833333
        value: 1
        inSlope: Infinity
        outSlope: Infinity
        tangentMode: 103
      m_PreInfinity: 2
      m_PostInfinity: 2
      m_RotationOrder: 4
    attribute: m_IsActive
    path: Garage Door/Garage Close Dust Particle
    classID: 1
    script: {fileID: 0}
  m_PPtrCurves: []
  m_SampleRate: 60
  m_WrapMode: 0
  m_Bounds:
    m_Center: {x: 0, y: 0, z: 0}
    m_Extent: {x: 0, y: 0, z: 0}
  m_ClipBindingConstant:
    genericBindings: []
    pptrCurveMapping: []
  m_AnimationClipSettings:
    serializedVersion: 2
    m_AdditiveReferencePoseClip: {fileID: 0}
    m_AdditiveReferencePoseTime: 0
    m_StartTime: 0
    m_StopTime: 1.5
    m_OrientationOffsetY: 0
    m_Level: 0
    m_CycleOffset: 0
    m_HasAdditiveReferencePose: 0
    m_LoopTime: 1
    m_LoopBlend: 0
    m_LoopBlendOrientation: 0
    m_LoopBlendPositionY: 0
    m_LoopBlendPositionXZ: 0
    m_KeepOriginalOrientation: 0
    m_KeepOriginalPositionY: 1
    m_KeepOriginalPositionXZ: 0
    m_HeightFromFeet: 0
    m_Mirror: 0
  m_EditorCurves:
  - curve:
      serializedVersion: 2
      m_Curve:
      - serializedVersion: 2
        time: 0
        value: 0
        inSlope: 0
        outSlope: 0
        tangentMode: 34
      m_PreInfinity: 2
      m_PostInfinity: 2
      m_RotationOrder: 4
    attribute: m_LocalPosition.x
    path: Garage Door
    classID: 4
    script: {fileID: 0}
  - curve:
      serializedVersion: 2
      m_Curve:
      - serializedVersion: 2
        time: 0
        value: 2.2710462
        inSlope: 0
        outSlope: -4.4934845
        tangentMode: 5
      - serializedVersion: 2
        time: 0.3
        value: 1.648387
        inSlope: 0
        outSlope: -2.4643006
        tangentMode: 1
      - serializedVersion: 2
        time: 0.73333335
        value: 1.2275182
        inSlope: 0
        outSlope: -1.7346536
        tangentMode: 1
      - serializedVersion: 2
        time: 1.3333334
        value: 0.86675143
        inSlope: 0
        outSlope: -5.20051
        tangentMode: 65
      - serializedVersion: 2
        time: 1.5
        value: 0
        inSlope: -5.20051
        outSlope: 5.2492695
        tangentMode: 5
      m_PreInfinity: 2
      m_PostInfinity: 2
      m_RotationOrder: 4
    attribute: m_LocalPosition.y
    path: Garage Door
    classID: 4
    script: {fileID: 0}
  - curve:
      serializedVersion: 2
      m_Curve:
      - serializedVersion: 2
        time: 0
        value: 0
        inSlope: 0
        outSlope: 0
        tangentMode: 34
      m_PreInfinity: 2
      m_PostInfinity: 2
      m_RotationOrder: 4
    attribute: m_LocalPosition.z
    path: Garage Door
    classID: 4
    script: {fileID: 0}
  - curve:
      serializedVersion: 2
      m_Curve:
      - serializedVersion: 2
        time: 0
        value: 0
        inSlope: Infinity
        outSlope: Infinity
        tangentMode: 103
      - serializedVersion: 2
        time: 1.4833333
        value: 1
        inSlope: Infinity
        outSlope: Infinity
        tangentMode: 103
      m_PreInfinity: 2
      m_PostInfinity: 2
      m_RotationOrder: 4
    attribute: m_IsActive
    path: Garage Door/Garage Close Dust Particle
    classID: 1
    script: {fileID: 0}
  m_EulerEditorCurves: []
  m_HasGenericRootTransform: 0
  m_HasMotionFloatCurves: 0
  m_GenerateMotionCurves: 0
  m_Events: []
