%YAML 1.1
%TAG !u! tag:unity3d.com,2011:
--- !u!74 &7400000
AnimationClip:
  m_ObjectHideFlags: 0
  m_PrefabParentObject: {fileID: 0}
  m_PrefabInternal: {fileID: 0}
  m_Name: Cam Ripple Pow1 Start Anim 1 (Legacy)
  serializedVersion: 6
  m_Legacy: 1
  m_Compressed: 0
  m_UseHighQualityCurve: 1
  m_RotationCurves: []
  m_CompressedRotationCurves: []
  m_EulerCurves: []
  m_PositionCurves: []
  m_ScaleCurves: []
  m_FloatCurves:
  - curve:
      serializedVersion: 2
      m_Curve:
      - serializedVersion: 2
        time: 0.1
        value: 199.65636
        inSlope: 0
        outSlope: -955.3295
        tangentMode: 65
      - serializedVersion: 2
        time: 0.25
        value: 56.35693
        inSlope: -357.70297
        outSlope: -357.70297
        tangentMode: 0
      - serializedVersion: 2
        time: 0.45
        value: 0
        inSlope: -86.27927
        outSlope: 0
        tangentMode: 1
      m_PreInfinity: 2
      m_PostInfinity: 2
      m_RotationOrder: 4
    attribute: angle
    path: Camera Idle Anim/Main Camera
    classID: 114
    script: {fileID: 11500000, guid: bdda781cad112c75d0008dfa8d76c639, type: 3}
  - curve:
      serializedVersion: 2
      m_Curve:
      - serializedVersion: 2
        time: 0
        value: 0.93
        inSlope: 0
        outSlope: 0
        tangentMode: 34
      m_PreInfinity: 2
      m_PostInfinity: 2
      m_RotationOrder: 4
    attribute: center.x
    path: Camera Idle Anim/Main Camera
    classID: 114
    script: {fileID: 11500000, guid: bdda781cad112c75d0008dfa8d76c639, type: 3}
  - curve:
      serializedVersion: 2
      m_Curve:
      - serializedVersion: 2
        time: 0
        value: 0.12
        inSlope: -0.2000001
        outSlope: -0.2000001
        tangentMode: 34
      m_PreInfinity: 2
      m_PostInfinity: 2
      m_RotationOrder: 4
    attribute: center.y
    path: Camera Idle Anim/Main Camera
    classID: 114
    script: {fileID: 11500000, guid: bdda781cad112c75d0008dfa8d76c639, type: 3}
  - curve:
      serializedVersion: 2
      m_Curve:
      - serializedVersion: 2
        time: 0
        value: 1
        inSlope: Infinity
        outSlope: Infinity
        tangentMode: 103
      - serializedVersion: 2
        time: 0.6666667
        value: 0
        inSlope: Infinity
        outSlope: Infinity
        tangentMode: 103
      m_PreInfinity: 2
      m_PostInfinity: 2
      m_RotationOrder: 4
    attribute: m_Enabled
    path: Camera Idle Anim/Main Camera
    classID: 114
    script: {fileID: 11500000, guid: bdda781cad112c75d0008dfa8d76c639, type: 3}
  - curve:
      serializedVersion: 2
      m_Curve:
      - serializedVersion: 2
        time: 0
        value: 0.03
        inSlope: 0.5806452
        outSlope: 0.90000004
        tangentMode: 65
      - serializedVersion: 2
        time: 0.36666667
        value: 0.36
        inSlope: 0
        outSlope: 0
        tangentMode: 0
      m_PreInfinity: 2
      m_PostInfinity: 2
      m_RotationOrder: 4
    attribute: radius.x
    path: Camera Idle Anim/Main Camera
    classID: 114
    script: {fileID: 11500000, guid: bdda781cad112c75d0008dfa8d76c639, type: 3}
  - curve:
      serializedVersion: 2
      m_Curve:
      - serializedVersion: 2
        time: 0
        value: 0.06
        inSlope: 0.96774197
        outSlope: 1.5818181
        tangentMode: 65
      - serializedVersion: 2
        time: 0.36666667
        value: 0.64
        inSlope: 0
        outSlope: 0
        tangentMode: 0
      m_PreInfinity: 2
      m_PostInfinity: 2
      m_RotationOrder: 4
    attribute: radius.y
    path: Camera Idle Anim/Main Camera
    classID: 114
    script: {fileID: 11500000, guid: bdda781cad112c75d0008dfa8d76c639, type: 3}
  m_PPtrCurves: []
  m_SampleRate: 60
  m_WrapMode: 0
  m_Bounds:
    m_Center: {x: 0, y: 0, z: 0}
    m_Extent: {x: 0, y: 0, z: 0}
  m_ClipBindingConstant:
    genericBindings: []
    pptrCurveMapping: []
  m_AnimationClipSettings:
    serializedVersion: 2
    m_AdditiveReferencePoseClip: {fileID: 0}
    m_AdditiveReferencePoseTime: 0
    m_StartTime: 0
    m_StopTime: 0.6666667
    m_OrientationOffsetY: 0
    m_Level: 0
    m_CycleOffset: 0
    m_HasAdditiveReferencePose: 0
    m_LoopTime: 1
    m_LoopBlend: 0
    m_LoopBlendOrientation: 0
    m_LoopBlendPositionY: 0
    m_LoopBlendPositionXZ: 0
    m_KeepOriginalOrientation: 0
    m_KeepOriginalPositionY: 1
    m_KeepOriginalPositionXZ: 0
    m_HeightFromFeet: 0
    m_Mirror: 0
  m_EditorCurves:
  - curve:
      serializedVersion: 2
      m_Curve:
      - serializedVersion: 2
        time: 0.1
        value: 199.65636
        inSlope: 0
        outSlope: -955.3295
        tangentMode: 65
      - serializedVersion: 2
        time: 0.25
        value: 56.35693
        inSlope: -357.70297
        outSlope: -357.70297
        tangentMode: 0
      - serializedVersion: 2
        time: 0.45
        value: 0
        inSlope: -86.27927
        outSlope: 0
        tangentMode: 1
      m_PreInfinity: 2
      m_PostInfinity: 2
      m_RotationOrder: 4
    attribute: angle
    path: Camera Idle Anim/Main Camera
    classID: 114
    script: {fileID: 11500000, guid: bdda781cad112c75d0008dfa8d76c639, type: 3}
  - curve:
      serializedVersion: 2
      m_Curve:
      - serializedVersion: 2
        time: 0
        value: 0.93
        inSlope: 0
        outSlope: 0
        tangentMode: 34
      m_PreInfinity: 2
      m_PostInfinity: 2
      m_RotationOrder: 4
    attribute: center.x
    path: Camera Idle Anim/Main Camera
    classID: 114
    script: {fileID: 11500000, guid: bdda781cad112c75d0008dfa8d76c639, type: 3}
  - curve:
      serializedVersion: 2
      m_Curve:
      - serializedVersion: 2
        time: 0
        value: 0.12
        inSlope: -0.2000001
        outSlope: -0.2000001
        tangentMode: 34
      m_PreInfinity: 2
      m_PostInfinity: 2
      m_RotationOrder: 4
    attribute: center.y
    path: Camera Idle Anim/Main Camera
    classID: 114
    script: {fileID: 11500000, guid: bdda781cad112c75d0008dfa8d76c639, type: 3}
  - curve:
      serializedVersion: 2
      m_Curve:
      - serializedVersion: 2
        time: 0
        value: 1
        inSlope: Infinity
        outSlope: Infinity
        tangentMode: 103
      - serializedVersion: 2
        time: 0.6666667
        value: 0
        inSlope: Infinity
        outSlope: Infinity
        tangentMode: 103
      m_PreInfinity: 2
      m_PostInfinity: 2
      m_RotationOrder: 4
    attribute: m_Enabled
    path: Camera Idle Anim/Main Camera
    classID: 114
    script: {fileID: 11500000, guid: bdda781cad112c75d0008dfa8d76c639, type: 3}
  - curve:
      serializedVersion: 2
      m_Curve:
      - serializedVersion: 2
        time: 0
        value: 0.03
        inSlope: 0.5806452
        outSlope: 0.90000004
        tangentMode: 65
      - serializedVersion: 2
        time: 0.36666667
        value: 0.36
        inSlope: 0
        outSlope: 0
        tangentMode: 0
      m_PreInfinity: 2
      m_PostInfinity: 2
      m_RotationOrder: 4
    attribute: radius.x
    path: Camera Idle Anim/Main Camera
    classID: 114
    script: {fileID: 11500000, guid: bdda781cad112c75d0008dfa8d76c639, type: 3}
  - curve:
      serializedVersion: 2
      m_Curve:
      - serializedVersion: 2
        time: 0
        value: 0.06
        inSlope: 0.96774197
        outSlope: 1.5818181
        tangentMode: 65
      - serializedVersion: 2
        time: 0.36666667
        value: 0.64
        inSlope: 0
        outSlope: 0
        tangentMode: 0
      m_PreInfinity: 2
      m_PostInfinity: 2
      m_RotationOrder: 4
    attribute: radius.y
    path: Camera Idle Anim/Main Camera
    classID: 114
    script: {fileID: 11500000, guid: bdda781cad112c75d0008dfa8d76c639, type: 3}
  m_EulerEditorCurves: []
  m_HasGenericRootTransform: 0
  m_HasMotionFloatCurves: 0
  m_GenerateMotionCurves: 0
  m_Events: []
