%YAML 1.1
%TAG !u! tag:unity3d.com,2011:
--- !u!74 &7400000
AnimationClip:
  m_ObjectHideFlags: 0
  m_PrefabParentObject: {fileID: 0}
  m_PrefabInternal: {fileID: 0}
  m_Name: Cam Player Last Stand Shout Shake Anim 1 (Legacy)
  serializedVersion: 6
  m_Legacy: 1
  m_Compressed: 0
  m_UseHighQualityCurve: 1
  m_RotationCurves: []
  m_CompressedRotationCurves: []
  m_EulerCurves:
  - curve:
      serializedVersion: 2
      m_Curve:
      - serializedVersion: 2
        time: 0
        value: {x: 0, y: 0, z: 0}
        inSlope: {x: 0, y: 0, z: 0}
        outSlope: {x: 0, y: 0, z: 0}
        tangentMode: 0
      m_PreInfinity: 2
      m_PostInfinity: 2
      m_RotationOrder: 4
    path: 
  m_PositionCurves:
  - curve:
      serializedVersion: 2
      m_Curve:
      - serializedVersion: 2
        time: 0
        value: {x: -0.054734617, y: 0.02896113, z: -10}
        inSlope: {x: 20, y: 20, z: 0}
        outSlope: {x: 1.4065214, y: 11.088196, z: 0}
        tangentMode: 0
      - serializedVersion: 2
        time: 0.016666668
        value: {x: -0.026897214, y: 0.2137644, z: -10}
        inSlope: {x: 1.8460593, y: 0, z: 0}
        outSlope: {x: 1.8460593, y: 0, z: 0}
        tangentMode: 0
      - serializedVersion: 2
        time: 0.06666667
        value: {x: 0.039033484, y: -0.122155055, z: -10}
        inSlope: {x: 0, y: -6.7183886, z: 0}
        outSlope: {x: 0, y: -6.7183886, z: 0}
        tangentMode: 0
      - serializedVersion: 2
        time: 0.083333336
        value: {x: 0.033753783, y: -0.18436235, z: -10}
        inSlope: {x: -0.6109368, y: 0, z: 0}
        outSlope: {x: -0.6109368, y: 0, z: 0}
        tangentMode: 0
      - serializedVersion: 2
        time: 0.15
        value: {x: -0.055246882, y: 0.21480185, z: -10}
        inSlope: {x: -1.6970466, y: 0, z: 0}
        outSlope: {x: -1.6970466, y: 0, z: 0}
        tangentMode: 0
      - serializedVersion: 2
        time: 0.23333333
        value: {x: -0.14952725, y: -0.18436235, z: -10}
        inSlope: {x: 0, y: 0, z: 0}
        outSlope: {x: 0, y: 0, z: 0}
        tangentMode: 0
      - serializedVersion: 2
        time: 0.3
        value: {x: -0.06279841, y: 0.1918085, z: -10}
        inSlope: {x: 2.1855662, y: 0, z: 0}
        outSlope: {x: 2.1855662, y: 0, z: 0}
        tangentMode: 0
      - serializedVersion: 2
        time: 0.38333333
        value: {x: 0.11391149, y: -0.18436235, z: -10}
        inSlope: {x: 1.4050072, y: 0, z: 0}
        outSlope: {x: 1.4050072, y: 0, z: 0}
        tangentMode: 0
      - serializedVersion: 2
        time: 0.41666666
        value: {x: 0.13906287, y: -0.001898013, z: -10}
        inSlope: {x: 0, y: 8.210896, z: 0}
        outSlope: {x: 0, y: 8.210896, z: 0}
        tangentMode: 0
      - serializedVersion: 2
        time: 0.45
        value: {x: 0.12706867, y: 0.18056633, z: -10}
        inSlope: {x: -0.68694085, y: 0, z: 0}
        outSlope: {x: -0.68694085, y: 0, z: 0}
        tangentMode: 0
      - serializedVersion: 2
        time: 0.5333334
        value: {x: 0.02552665, y: -0.18436235, z: -10}
        inSlope: {x: -1.5456175, y: 0, z: 0}
        outSlope: {x: -1.5456175, y: 0, z: 0}
        tangentMode: 0
      - serializedVersion: 2
        time: 0.6
        value: {x: -0.07533364, y: 0.13182047, z: -10}
        inSlope: {x: -1.3493484, y: 0, z: 0}
        outSlope: {x: -1.3493484, y: 0, z: 0}
        tangentMode: 0
      - serializedVersion: 2
        time: 0.68333334
        value: {x: -0.14007509, y: -0.08685179, z: -10}
        inSlope: {x: 0, y: -1.9680502, z: 0}
        outSlope: {x: 0, y: -1.9680502, z: 0}
        tangentMode: 0
      - serializedVersion: 2
        time: 0.7
        value: {x: -0.13895187, y: -0.10434557, z: -10}
        inSlope: {x: 0.13233502, y: 0, z: 0}
        outSlope: {x: 0.13233502, y: 0, z: 0}
        tangentMode: 0
      - serializedVersion: 2
        time: 0.8
        value: {x: -0.09704574, y: 0.03803656, z: -10}
        inSlope: {x: 0.6175639, y: 0, z: 0}
        outSlope: {x: 0.6175639, y: 0, z: 0}
        tangentMode: 0
      - serializedVersion: 2
        time: 1
        value: {x: 0, y: 0, z: -10}
        inSlope: {x: 0, y: 0, z: 0}
        outSlope: {x: 0, y: 0, z: 0}
        tangentMode: 0
      m_PreInfinity: 2
      m_PostInfinity: 2
      m_RotationOrder: 4
    path: 
  m_ScaleCurves: []
  m_FloatCurves: []
  m_PPtrCurves: []
  m_SampleRate: 60
  m_WrapMode: 0
  m_Bounds:
    m_Center: {x: 0, y: 0, z: 0}
    m_Extent: {x: 0, y: 0, z: 0}
  m_ClipBindingConstant:
    genericBindings: []
    pptrCurveMapping: []
  m_AnimationClipSettings:
    serializedVersion: 2
    m_AdditiveReferencePoseClip: {fileID: 0}
    m_AdditiveReferencePoseTime: 0
    m_StartTime: 0
    m_StopTime: 1
    m_OrientationOffsetY: 0
    m_Level: 0
    m_CycleOffset: 0
    m_HasAdditiveReferencePose: 0
    m_LoopTime: 1
    m_LoopBlend: 0
    m_LoopBlendOrientation: 0
    m_LoopBlendPositionY: 0
    m_LoopBlendPositionXZ: 0
    m_KeepOriginalOrientation: 0
    m_KeepOriginalPositionY: 1
    m_KeepOriginalPositionXZ: 0
    m_HeightFromFeet: 0
    m_Mirror: 0
  m_EditorCurves:
  - curve:
      serializedVersion: 2
      m_Curve:
      - serializedVersion: 2
        time: 0
        value: -0.054734617
        inSlope: 20
        outSlope: 1.4065214
        tangentMode: 69
      - serializedVersion: 2
        time: 0.06666667
        value: 0.039033484
        inSlope: 0
        outSlope: 0
        tangentMode: 0
      - serializedVersion: 2
        time: 0.23333333
        value: -0.14952725
        inSlope: 0
        outSlope: 0
        tangentMode: 0
      - serializedVersion: 2
        time: 0.41666666
        value: 0.13906287
        inSlope: 0
        outSlope: 0
        tangentMode: 0
      - serializedVersion: 2
        time: 0.68333334
        value: -0.14007509
        inSlope: 0
        outSlope: 0
        tangentMode: 0
      - serializedVersion: 2
        time: 1
        value: 0
        inSlope: 0
        outSlope: 0
        tangentMode: 0
      m_PreInfinity: 2
      m_PostInfinity: 2
      m_RotationOrder: 4
    attribute: m_LocalPosition.x
    path: 
    classID: 4
    script: {fileID: 0}
  - curve:
      serializedVersion: 2
      m_Curve:
      - serializedVersion: 2
        time: 0
        value: 0.02896113
        inSlope: 20
        outSlope: 11.088196
        tangentMode: 69
      - serializedVersion: 2
        time: 0.016666668
        value: 0.2137644
        inSlope: 0
        outSlope: 0
        tangentMode: 0
      - serializedVersion: 2
        time: 0.083333336
        value: -0.18436235
        inSlope: 0
        outSlope: 0
        tangentMode: 0
      - serializedVersion: 2
        time: 0.15
        value: 0.21480185
        inSlope: 0
        outSlope: 0
        tangentMode: 0
      - serializedVersion: 2
        time: 0.23333335
        value: -0.18436235
        inSlope: 0
        outSlope: 0
        tangentMode: 0
      - serializedVersion: 2
        time: 0.3
        value: 0.1918085
        inSlope: 0
        outSlope: 0
        tangentMode: 0
      - serializedVersion: 2
        time: 0.38333333
        value: -0.18436235
        inSlope: 0
        outSlope: 0
        tangentMode: 0
      - serializedVersion: 2
        time: 0.45
        value: 0.18056633
        inSlope: 0
        outSlope: 0
        tangentMode: 0
      - serializedVersion: 2
        time: 0.5333334
        value: -0.18436235
        inSlope: 0
        outSlope: 0
        tangentMode: 0
      - serializedVersion: 2
        time: 0.6
        value: 0.13182047
        inSlope: 0
        outSlope: 0
        tangentMode: 0
      - serializedVersion: 2
        time: 0.7
        value: -0.10434557
        inSlope: 0
        outSlope: 0
        tangentMode: 0
      - serializedVersion: 2
        time: 0.8
        value: 0.03803656
        inSlope: 0
        outSlope: 0
        tangentMode: 0
      - serializedVersion: 2
        time: 1
        value: 0
        inSlope: 0
        outSlope: 0
        tangentMode: 0
      m_PreInfinity: 2
      m_PostInfinity: 2
      m_RotationOrder: 4
    attribute: m_LocalPosition.y
    path: 
    classID: 4
    script: {fileID: 0}
  - curve:
      serializedVersion: 2
      m_Curve:
      - serializedVersion: 2
        time: 0
        value: -10
        inSlope: 0
        outSlope: 0
        tangentMode: 34
      m_PreInfinity: 2
      m_PostInfinity: 2
      m_RotationOrder: 4
    attribute: m_LocalPosition.z
    path: 
    classID: 4
    script: {fileID: 0}
  - curve:
      serializedVersion: 2
      m_Curve:
      - serializedVersion: 2
        time: 0
        value: 0
        inSlope: 0
        outSlope: 0
        tangentMode: 34
      m_PreInfinity: 2
      m_PostInfinity: 2
      m_RotationOrder: 4
    attribute: localEulerAnglesRaw.x
    path: 
    classID: 4
    script: {fileID: 0}
  - curve:
      serializedVersion: 2
      m_Curve:
      - serializedVersion: 2
        time: 0
        value: 0
        inSlope: 0
        outSlope: 0
        tangentMode: 34
      m_PreInfinity: 2
      m_PostInfinity: 2
      m_RotationOrder: 4
    attribute: localEulerAnglesRaw.y
    path: 
    classID: 4
    script: {fileID: 0}
  - curve:
      serializedVersion: 2
      m_Curve:
      - serializedVersion: 2
        time: 0
        value: 0
        inSlope: 0
        outSlope: 0
        tangentMode: 0
      m_PreInfinity: 2
      m_PostInfinity: 2
      m_RotationOrder: 4
    attribute: localEulerAnglesRaw.z
    path: 
    classID: 4
    script: {fileID: 0}
  m_EulerEditorCurves:
  - curve:
      serializedVersion: 2
      m_Curve: []
      m_PreInfinity: 2
      m_PostInfinity: 2
      m_RotationOrder: 4
    attribute: m_LocalEulerAngles.x
    path: 
    classID: 4
    script: {fileID: 0}
  - curve:
      serializedVersion: 2
      m_Curve: []
      m_PreInfinity: 2
      m_PostInfinity: 2
      m_RotationOrder: 4
    attribute: m_LocalEulerAngles.y
    path: 
    classID: 4
    script: {fileID: 0}
  - curve:
      serializedVersion: 2
      m_Curve: []
      m_PreInfinity: 2
      m_PostInfinity: 2
      m_RotationOrder: 4
    attribute: m_LocalEulerAngles.z
    path: 
    classID: 4
    script: {fileID: 0}
  m_HasGenericRootTransform: 0
  m_HasMotionFloatCurves: 0
  m_GenerateMotionCurves: 0
  m_Events: []
