%YAML 1.1
%TAG !u! tag:unity3d.com,2011:
--- !u!74 &7400000
AnimationClip:
  m_ObjectHideFlags: 0
  m_PrefabParentObject: {fileID: 0}
  m_PrefabInternal: {fileID: 0}
  m_Name: Cam Player Hurt Explode Anim 1 (Legacy)
  serializedVersion: 6
  m_Legacy: 1
  m_Compressed: 0
  m_UseHighQualityCurve: 1
  m_RotationCurves: []
  m_CompressedRotationCurves: []
  m_EulerCurves:
  - curve:
      serializedVersion: 2
      m_Curve:
      - serializedVersion: 2
        time: 0
        value: {x: 0, y: 0, z: 0}
        inSlope: {x: 0, y: 0, z: -30}
        outSlope: {x: 0, y: 0, z: -117.77581}
        tangentMode: 0
      - serializedVersion: 2
        time: 0.06666667
        value: {x: 0, y: 0, z: -7.8517213}
        inSlope: {x: 0, y: 0, z: -117.77581}
        outSlope: {x: 0, y: 0, z: 151.188}
        tangentMode: 0
      - serializedVersion: 2
        time: 0.16666667
        value: {x: 0, y: 0, z: 7.267079}
        inSlope: {x: 0, y: 0, z: 151.188}
        outSlope: {x: 0, y: 0, z: -110.355644}
        tangentMode: 0
      - serializedVersion: 2
        time: 0.28333333
        value: {x: 0, y: 0, z: -5.6077456}
        inSlope: {x: 0, y: 0, z: -110.355644}
        outSlope: {x: 0, y: 0, z: 98.83704}
        tangentMode: 0
      - serializedVersion: 2
        time: 0.4
        value: {x: 0, y: 0, z: 5.923244}
        inSlope: {x: 0, y: 0, z: 98.83704}
        outSlope: {x: 0, y: 0, z: -84.04552}
        tangentMode: 0
      - serializedVersion: 2
        time: 0.5
        value: {x: 0, y: 0, z: -2.4813073}
        inSlope: {x: 0, y: 0, z: -84.04552}
        outSlope: {x: 0, y: 0, z: 54.723232}
        tangentMode: 0
      - serializedVersion: 2
        time: 0.5833333
        value: {x: 0, y: 0, z: 2.0789611}
        inSlope: {x: 0, y: 0, z: 54.723232}
        outSlope: {x: 0, y: 0, z: -8.315845}
        tangentMode: 0
      - serializedVersion: 2
        time: 0.8333333
        value: {x: 0, y: 0, z: 0}
        inSlope: {x: 0, y: 0, z: 0}
        outSlope: {x: 0, y: 0, z: 0}
        tangentMode: 0
      m_PreInfinity: 2
      m_PostInfinity: 2
      m_RotationOrder: 4
    path: 
  m_PositionCurves: []
  m_ScaleCurves: []
  m_FloatCurves:
  - curve:
      serializedVersion: 2
      m_Curve:
      - serializedVersion: 2
        time: 0
        value: 0.2
        inSlope: 316
        outSlope: 316
        tangentMode: 34
      - serializedVersion: 2
        time: 0.05
        value: 16
        inSlope: 0
        outSlope: 0
        tangentMode: 0
      - serializedVersion: 2
        time: 0.5
        value: 0
        inSlope: 0
        outSlope: 0
        tangentMode: 0
      m_PreInfinity: 2
      m_PostInfinity: 2
      m_RotationOrder: 4
    attribute: chromaticAberration
    path: 
    classID: 114
    script: {fileID: 11500000, guid: dd6d4281e5d7cd44d8c6e38bc2c1b8d8, type: 3}
  - curve:
      serializedVersion: 2
      m_Curve:
      - serializedVersion: 2
        time: 0
        value: 0.1
        inSlope: -0.2
        outSlope: -0.2
        tangentMode: 34
      - serializedVersion: 2
        time: 0.5
        value: 0
        inSlope: -0.2
        outSlope: -0.2
        tangentMode: 34
      m_PreInfinity: 2
      m_PostInfinity: 2
      m_RotationOrder: 4
    attribute: intensity
    path: 
    classID: 114
    script: {fileID: 11500000, guid: dd6d4281e5d7cd44d8c6e38bc2c1b8d8, type: 3}
  - curve:
      serializedVersion: 2
      m_Curve:
      - serializedVersion: 2
        time: 0
        value: 1
        inSlope: Infinity
        outSlope: Infinity
        tangentMode: 103
      - serializedVersion: 2
        time: 0.5
        value: 0
        inSlope: Infinity
        outSlope: Infinity
        tangentMode: 103
      m_PreInfinity: 2
      m_PostInfinity: 2
      m_RotationOrder: 4
    attribute: m_Enabled
    path: 
    classID: 114
    script: {fileID: 11500000, guid: dd6d4281e5d7cd44d8c6e38bc2c1b8d8, type: 3}
  m_PPtrCurves: []
  m_SampleRate: 60
  m_WrapMode: 0
  m_Bounds:
    m_Center: {x: 0, y: 0, z: 0}
    m_Extent: {x: 0, y: 0, z: 0}
  m_ClipBindingConstant:
    genericBindings: []
    pptrCurveMapping: []
  m_AnimationClipSettings:
    serializedVersion: 2
    m_AdditiveReferencePoseClip: {fileID: 0}
    m_AdditiveReferencePoseTime: 0
    m_StartTime: 0
    m_StopTime: 0.8333333
    m_OrientationOffsetY: 0
    m_Level: 0
    m_CycleOffset: 0
    m_HasAdditiveReferencePose: 0
    m_LoopTime: 1
    m_LoopBlend: 0
    m_LoopBlendOrientation: 0
    m_LoopBlendPositionY: 0
    m_LoopBlendPositionXZ: 0
    m_KeepOriginalOrientation: 0
    m_KeepOriginalPositionY: 1
    m_KeepOriginalPositionXZ: 0
    m_HeightFromFeet: 0
    m_Mirror: 0
  m_EditorCurves:
  - curve:
      serializedVersion: 2
      m_Curve:
      - serializedVersion: 2
        time: 0
        value: 0
        inSlope: 0
        outSlope: 0
        tangentMode: 34
      m_PreInfinity: 2
      m_PostInfinity: 2
      m_RotationOrder: 4
    attribute: localEulerAnglesRaw.x
    path: 
    classID: 4
    script: {fileID: 0}
  - curve:
      serializedVersion: 2
      m_Curve:
      - serializedVersion: 2
        time: 0
        value: 0
        inSlope: 0
        outSlope: 0
        tangentMode: 34
      m_PreInfinity: 2
      m_PostInfinity: 2
      m_RotationOrder: 4
    attribute: localEulerAnglesRaw.y
    path: 
    classID: 4
    script: {fileID: 0}
  - curve:
      serializedVersion: 2
      m_Curve:
      - serializedVersion: 2
        time: 0
        value: 0
        inSlope: -30
        outSlope: -117.77581
        tangentMode: 69
      - serializedVersion: 2
        time: 0.06666667
        value: -7.8517213
        inSlope: -117.77581
        outSlope: 151.188
        tangentMode: 69
      - serializedVersion: 2
        time: 0.16666667
        value: 7.267079
        inSlope: 151.188
        outSlope: -110.355644
        tangentMode: 69
      - serializedVersion: 2
        time: 0.28333333
        value: -5.6077456
        inSlope: -110.355644
        outSlope: 98.83704
        tangentMode: 69
      - serializedVersion: 2
        time: 0.4
        value: 5.923244
        inSlope: 98.83704
        outSlope: -84.04552
        tangentMode: 69
      - serializedVersion: 2
        time: 0.5
        value: -2.4813073
        inSlope: -84.04552
        outSlope: 54.723232
        tangentMode: 69
      - serializedVersion: 2
        time: 0.5833333
        value: 2.0789611
        inSlope: 54.723232
        outSlope: -8.315845
        tangentMode: 69
      - serializedVersion: 2
        time: 0.8333333
        value: 0
        inSlope: 0
        outSlope: 0
        tangentMode: 0
      m_PreInfinity: 2
      m_PostInfinity: 2
      m_RotationOrder: 4
    attribute: localEulerAnglesRaw.z
    path: 
    classID: 4
    script: {fileID: 0}
  - curve:
      serializedVersion: 2
      m_Curve:
      - serializedVersion: 2
        time: 0
        value: 0.2
        inSlope: 316
        outSlope: 316
        tangentMode: 34
      - serializedVersion: 2
        time: 0.05
        value: 16
        inSlope: 0
        outSlope: 0
        tangentMode: 0
      - serializedVersion: 2
        time: 0.5
        value: 0
        inSlope: 0
        outSlope: 0
        tangentMode: 0
      m_PreInfinity: 2
      m_PostInfinity: 2
      m_RotationOrder: 4
    attribute: chromaticAberration
    path: 
    classID: 114
    script: {fileID: 11500000, guid: dd6d4281e5d7cd44d8c6e38bc2c1b8d8, type: 3}
  - curve:
      serializedVersion: 2
      m_Curve:
      - serializedVersion: 2
        time: 0
        value: 0.1
        inSlope: -0.2
        outSlope: -0.2
        tangentMode: 34
      - serializedVersion: 2
        time: 0.5
        value: 0
        inSlope: -0.2
        outSlope: -0.2
        tangentMode: 34
      m_PreInfinity: 2
      m_PostInfinity: 2
      m_RotationOrder: 4
    attribute: intensity
    path: 
    classID: 114
    script: {fileID: 11500000, guid: dd6d4281e5d7cd44d8c6e38bc2c1b8d8, type: 3}
  - curve:
      serializedVersion: 2
      m_Curve:
      - serializedVersion: 2
        time: 0
        value: 1
        inSlope: Infinity
        outSlope: Infinity
        tangentMode: 103
      - serializedVersion: 2
        time: 0.5
        value: 0
        inSlope: Infinity
        outSlope: Infinity
        tangentMode: 103
      m_PreInfinity: 2
      m_PostInfinity: 2
      m_RotationOrder: 4
    attribute: m_Enabled
    path: 
    classID: 114
    script: {fileID: 11500000, guid: dd6d4281e5d7cd44d8c6e38bc2c1b8d8, type: 3}
  m_EulerEditorCurves:
  - curve:
      serializedVersion: 2
      m_Curve: []
      m_PreInfinity: 2
      m_PostInfinity: 2
      m_RotationOrder: 4
    attribute: m_LocalEulerAngles.x
    path: 
    classID: 4
    script: {fileID: 0}
  - curve:
      serializedVersion: 2
      m_Curve: []
      m_PreInfinity: 2
      m_PostInfinity: 2
      m_RotationOrder: 4
    attribute: m_LocalEulerAngles.y
    path: 
    classID: 4
    script: {fileID: 0}
  - curve:
      serializedVersion: 2
      m_Curve: []
      m_PreInfinity: 2
      m_PostInfinity: 2
      m_RotationOrder: 4
    attribute: m_LocalEulerAngles.z
    path: 
    classID: 4
    script: {fileID: 0}
  m_HasGenericRootTransform: 0
  m_HasMotionFloatCurves: 0
  m_GenerateMotionCurves: 0
  m_Events: []
