%YAML 1.1
%TAG !u! tag:unity3d.com,2011:
--- !u!74 &7400000
AnimationClip:
  m_ObjectHideFlags: 0
  m_PrefabParentObject: {fileID: 0}
  m_PrefabInternal: {fileID: 0}
  m_Name: Cam HF Clingy Idle Anim 1 (Legacy)
  serializedVersion: 6
  m_Legacy: 1
  m_Compressed: 0
  m_UseHighQualityCurve: 1
  m_RotationCurves: []
  m_CompressedRotationCurves: []
  m_EulerCurves: []
  m_PositionCurves:
  - curve:
      serializedVersion: 2
      m_Curve:
      - serializedVersion: 2
        time: 0
        value: {x: 0, y: 0, z: 0}
        inSlope: {x: -1.5362713, y: 0.85113925, z: 0}
        outSlope: {x: -0.42858237, y: 0.85113925, z: 0}
        tangentMode: 0
      - serializedVersion: 2
        time: 0.26666668
        value: {x: -0.114288636, y: 0.16734615, z: 0}
        inSlope: {x: -0.42858237, y: 0.4275428, z: 0}
        outSlope: {x: 0.7216171, y: 0.4275428, z: 0}
        tangentMode: 0
      - serializedVersion: 2
        time: 0.6166667
        value: {x: 0.13827735, y: 0.25016412, z: 0}
        inSlope: {x: 0.7216171, y: 0.0863333, z: 0}
        outSlope: {x: -0.67007643, y: 0.0863333, z: 0}
        tangentMode: 0
      - serializedVersion: 2
        time: 0.75
        value: {x: 0.048933823, y: 0.25689146, z: 0}
        inSlope: {x: -0.67007643, y: 0.020472959, z: 0}
        outSlope: {x: -0.67007643, y: 0.020472959, z: 0}
        tangentMode: 0
      - serializedVersion: 2
        time: 0.98333335
        value: {x: -0.10741735, y: 0.23086506, z: 0}
        inSlope: {x: -0.67007643, y: -0.2284662, z: 0}
        outSlope: {x: 0.5923994, y: -0.2284662, z: 0}
        tangentMode: 0
      - serializedVersion: 2
        time: 1.3666667
        value: {x: 0.119669095, y: 0.094767466, z: 0}
        inSlope: {x: 0.5923994, y: -0.4408802, z: 0}
        outSlope: {x: -0.65228987, y: -0.4408802, z: 0}
        tangentMode: 0
      - serializedVersion: 2
        time: 1.7
        value: {x: -0.09776088, y: -0.055004016, z: 0}
        inSlope: {x: -0.65228987, y: -0.4269519, z: 0}
        outSlope: {x: 0.72564596, y: -0.4269519, z: 0}
        tangentMode: 0
      - serializedVersion: 2
        time: 1.9833333
        value: {x: 0.10783878, y: -0.15686709, z: 0}
        inSlope: {x: 0.72564596, y: -0.26983145, z: 0}
        outSlope: {x: -0.6053934, y: -0.26983145, z: 0}
        tangentMode: 0
      - serializedVersion: 2
        time: 2.25
        value: {x: -0.053599443, y: -0.19547257, z: 0}
        inSlope: {x: -0.60539335, y: 0, z: 0}
        outSlope: {x: -0.60539335, y: 0, z: 0}
        tangentMode: 0
      - serializedVersion: 2
        time: 2.3333333
        value: {x: -0.104048856, y: -0.19471113, z: 0}
        inSlope: {x: -0.6053934, y: 0.020752221, z: 0}
        outSlope: {x: 0.5370619, y: 0.020752221, z: 0}
        tangentMode: 0
      - serializedVersion: 2
        time: 2.7333333
        value: {x: 0.11077598, y: -0.13651778, z: 0}
        inSlope: {x: 0.5370619, y: 0.32730085, z: 0}
        outSlope: {x: -0.41540995, y: 0.32730085, z: 0}
        tangentMode: 0
      - serializedVersion: 2
        time: 3
        value: {x: 0, y: 0, z: 0}
        inSlope: {x: -0.41540995, y: 0.72195417, z: 0}
        outSlope: {x: -1.0964344, y: 0.72195417, z: 0}
        tangentMode: 0
      m_PreInfinity: 2
      m_PostInfinity: 2
      m_RotationOrder: 4
    path: 
  m_ScaleCurves: []
  m_FloatCurves: []
  m_PPtrCurves: []
  m_SampleRate: 60
  m_WrapMode: 2
  m_Bounds:
    m_Center: {x: 0, y: 0, z: 0}
    m_Extent: {x: 0, y: 0, z: 0}
  m_ClipBindingConstant:
    genericBindings: []
    pptrCurveMapping: []
  m_AnimationClipSettings:
    serializedVersion: 2
    m_AdditiveReferencePoseClip: {fileID: 0}
    m_AdditiveReferencePoseTime: 0
    m_StartTime: 0
    m_StopTime: 3
    m_OrientationOffsetY: 0
    m_Level: 0
    m_CycleOffset: 0
    m_HasAdditiveReferencePose: 0
    m_LoopTime: 1
    m_LoopBlend: 0
    m_LoopBlendOrientation: 0
    m_LoopBlendPositionY: 0
    m_LoopBlendPositionXZ: 0
    m_KeepOriginalOrientation: 0
    m_KeepOriginalPositionY: 1
    m_KeepOriginalPositionXZ: 0
    m_HeightFromFeet: 0
    m_Mirror: 0
  m_EditorCurves:
  - curve:
      serializedVersion: 2
      m_Curve:
      - serializedVersion: 2
        time: 0
        value: 0
        inSlope: -1.5362713
        outSlope: -0.42858237
        tangentMode: 69
      - serializedVersion: 2
        time: 0.26666668
        value: -0.114288636
        inSlope: -0.42858237
        outSlope: 0.7216171
        tangentMode: 69
      - serializedVersion: 2
        time: 0.6166667
        value: 0.13827735
        inSlope: 0.7216171
        outSlope: -0.67007643
        tangentMode: 69
      - serializedVersion: 2
        time: 0.98333335
        value: -0.10741735
        inSlope: -0.67007643
        outSlope: 0.5923994
        tangentMode: 69
      - serializedVersion: 2
        time: 1.3666667
        value: 0.119669095
        inSlope: 0.5923994
        outSlope: -0.65228987
        tangentMode: 69
      - serializedVersion: 2
        time: 1.7
        value: -0.09776088
        inSlope: -0.65228987
        outSlope: 0.72564596
        tangentMode: 69
      - serializedVersion: 2
        time: 1.9833333
        value: 0.10783878
        inSlope: 0.72564596
        outSlope: -0.6053934
        tangentMode: 69
      - serializedVersion: 2
        time: 2.3333333
        value: -0.104048856
        inSlope: -0.6053934
        outSlope: 0.5370619
        tangentMode: 69
      - serializedVersion: 2
        time: 2.7333333
        value: 0.11077598
        inSlope: 0.5370619
        outSlope: -0.41540995
        tangentMode: 69
      - serializedVersion: 2
        time: 3
        value: 0
        inSlope: -0.41540995
        outSlope: -1.0964344
        tangentMode: 69
      m_PreInfinity: 2
      m_PostInfinity: 2
      m_RotationOrder: 4
    attribute: m_LocalPosition.x
    path: 
    classID: 4
    script: {fileID: 0}
  - curve:
      serializedVersion: 2
      m_Curve:
      - serializedVersion: 2
        time: 0
        value: 0
        inSlope: 0.85113925
        outSlope: 0.85113925
        tangentMode: 0
      - serializedVersion: 2
        time: 0.75
        value: 0.25689146
        inSlope: 0.020472959
        outSlope: 0.020472959
        tangentMode: 34
      - serializedVersion: 2
        time: 2.25
        value: -0.19547257
        inSlope: 0
        outSlope: 0
        tangentMode: 0
      - serializedVersion: 2
        time: 3
        value: 0
        inSlope: 0.72195417
        outSlope: 0.72195417
        tangentMode: 0
      m_PreInfinity: 2
      m_PostInfinity: 2
      m_RotationOrder: 4
    attribute: m_LocalPosition.y
    path: 
    classID: 4
    script: {fileID: 0}
  - curve:
      serializedVersion: 2
      m_Curve:
      - serializedVersion: 2
        time: 0
        value: 0
        inSlope: -0.24214424
        outSlope: -0.24214424
        tangentMode: 69
      m_PreInfinity: 2
      m_PostInfinity: 2
      m_RotationOrder: 4
    attribute: m_LocalPosition.z
    path: 
    classID: 4
    script: {fileID: 0}
  m_EulerEditorCurves: []
  m_HasGenericRootTransform: 0
  m_HasMotionFloatCurves: 0
  m_GenerateMotionCurves: 0
  m_Events: []
