%YAML 1.1
%TAG !u! tag:unity3d.com,2011:
--- !u!74 &7400000
AnimationClip:
  m_ObjectHideFlags: 0
  m_PrefabParentObject: {fileID: 0}
  m_PrefabInternal: {fileID: 0}
  m_Name: Cam Idle Anim 1 (Legacy)
  serializedVersion: 6
  m_Legacy: 1
  m_Compressed: 0
  m_UseHighQualityCurve: 1
  m_RotationCurves: []
  m_CompressedRotationCurves: []
  m_EulerCurves: []
  m_PositionCurves:
  - curve:
      serializedVersion: 2
      m_Curve:
      - serializedVersion: 2
        time: 0
        value: {x: 0, y: 0, z: 0}
        inSlope: {x: 0, y: 0, z: 0}
        outSlope: {x: 0, y: 0, z: 0}
        tangentMode: 0
      - serializedVersion: 2
        time: 1.66
        value: {x: -0.037381794, y: -0.052, z: 0}
        inSlope: {x: -0.023224114, y: 0, z: 0}
        outSlope: {x: -0.023224114, y: 0, z: 0}
        tangentMode: 0
      - serializedVersion: 2
        time: 2.2833333
        value: {x: -0.045, y: -0.038841583, z: 0}
        inSlope: {x: 0.0018565105, y: 0.037921723, z: 0}
        outSlope: {x: 0.0018565105, y: 0.037921723, z: 0}
        tangentMode: 0
      - serializedVersion: 2
        time: 4.116667
        value: {x: -0.001929488, y: 0.03, z: 0}
        inSlope: {x: 0.034658484, y: 0, z: 0}
        outSlope: {x: 0.034658484, y: 0, z: 0}
        tangentMode: 0
      - serializedVersion: 2
        time: 5.85
        value: {x: 0.043059483, y: -0.031055817, z: 0}
        inSlope: {x: 0.0078919865, y: -0.014845105, z: 0}
        outSlope: {x: 0.0078919865, y: 0.11884271, z: 0}
        tangentMode: 0
      - serializedVersion: 2
        time: 6.0666666
        value: {x: 0.043995015, y: -0.005306559, z: 0}
        inSlope: {x: 0.0005974614, y: 0.11884271, z: 0}
        outSlope: {x: 0.0005974614, y: -0.13096957, z: 0}
        tangentMode: 0
      - serializedVersion: 2
        time: 6.0833335
        value: {x: 0.044, y: -0.0074894144, z: 0}
        inSlope: {x: 0, y: -0.13096957, z: 0}
        outSlope: {x: 0, y: -0.13096957, z: 0}
        tangentMode: 0
      - serializedVersion: 2
        time: 6.4166665
        value: {x: 0.042255264, y: -0.051145896, z: 0}
        inSlope: {x: -0.01017846, y: -0.13096957, z: 0}
        outSlope: {x: -0.01017846, y: 0.09962862, z: 0}
        tangentMode: 0
      - serializedVersion: 2
        time: 6.8
        value: {x: 0.03644877, y: -0.012954891, z: 0}
        inSlope: {x: -0.019732745, y: 0.09962862, z: 0}
        outSlope: {x: -0.019732745, y: -0.11497156, z: 0}
        tangentMode: 0
      - serializedVersion: 2
        time: 7
        value: {x: 0.032084644, y: -0.03594918, z: 0}
        inSlope: {x: -0.02380413, y: -0.11497156, z: 0}
        outSlope: {x: -0.02380413, y: 0.011826596, z: 0}
        tangentMode: 0
      - serializedVersion: 2
        time: 8.65
        value: {x: -0.0210476, y: 0.022, z: 0}
        inSlope: {x: -0.03349325, y: 0, z: 0}
        outSlope: {x: -0.03349325, y: 0, z: 0}
        tangentMode: 0
      - serializedVersion: 2
        time: 10.316667
        value: {x: -0.055, y: -0.036628537, z: 0}
        inSlope: {x: 0, y: -0.037478413, z: 0}
        outSlope: {x: 0, y: -0.037478413, z: 0}
        tangentMode: 0
      - serializedVersion: 2
        time: 10.95
        value: {x: -0.04725455, y: -0.05, z: 0}
        inSlope: {x: 0.02217564, y: 0, z: 0}
        outSlope: {x: 0.02217564, y: 0, z: 0}
        tangentMode: 0
      - serializedVersion: 2
        time: 13
        value: {x: 0, y: 0, z: 0}
        inSlope: {x: 0, y: 0, z: 0}
        outSlope: {x: 0, y: 0, z: 0}
        tangentMode: 0
      m_PreInfinity: 2
      m_PostInfinity: 2
      m_RotationOrder: 4
    path: 
  m_ScaleCurves: []
  m_FloatCurves: []
  m_PPtrCurves: []
  m_SampleRate: 60
  m_WrapMode: 2
  m_Bounds:
    m_Center: {x: 0, y: 0, z: 0}
    m_Extent: {x: 0, y: 0, z: 0}
  m_ClipBindingConstant:
    genericBindings: []
    pptrCurveMapping: []
  m_AnimationClipSettings:
    serializedVersion: 2
    m_AdditiveReferencePoseClip: {fileID: 0}
    m_AdditiveReferencePoseTime: 0
    m_StartTime: 0
    m_StopTime: 13
    m_OrientationOffsetY: 0
    m_Level: 0
    m_CycleOffset: 0
    m_HasAdditiveReferencePose: 0
    m_LoopTime: 1
    m_LoopBlend: 0
    m_LoopBlendOrientation: 0
    m_LoopBlendPositionY: 0
    m_LoopBlendPositionXZ: 0
    m_KeepOriginalOrientation: 0
    m_KeepOriginalPositionY: 1
    m_KeepOriginalPositionXZ: 0
    m_HeightFromFeet: 0
    m_Mirror: 0
  m_EditorCurves:
  - curve:
      serializedVersion: 2
      m_Curve:
      - serializedVersion: 2
        time: 0
        value: 0
        inSlope: 0
        outSlope: 0
        tangentMode: 0
      - serializedVersion: 2
        time: 2.2833333
        value: -0.045
        inSlope: 0.0018565105
        outSlope: 0.0018565105
        tangentMode: 34
      - serializedVersion: 2
        time: 6.0833335
        value: 0.044
        inSlope: 0
        outSlope: 0
        tangentMode: 0
      - serializedVersion: 2
        time: 10.316667
        value: -0.055
        inSlope: 0
        outSlope: 0
        tangentMode: 0
      - serializedVersion: 2
        time: 13
        value: 0
        inSlope: 0
        outSlope: 0
        tangentMode: 0
      m_PreInfinity: 2
      m_PostInfinity: 2
      m_RotationOrder: 4
    attribute: m_LocalPosition.x
    path: 
    classID: 4
    script: {fileID: 0}
  - curve:
      serializedVersion: 2
      m_Curve:
      - serializedVersion: 2
        time: 0
        value: 0
        inSlope: 0
        outSlope: 0
        tangentMode: 0
      - serializedVersion: 2
        time: 1.66
        value: -0.052
        inSlope: 0
        outSlope: 0
        tangentMode: 0
      - serializedVersion: 2
        time: 4.116667
        value: 0.03
        inSlope: 0
        outSlope: 0
        tangentMode: 0
      - serializedVersion: 2
        time: 5.85
        value: -0.031055817
        inSlope: -0.014845105
        outSlope: 0.11884271
        tangentMode: 65
      - serializedVersion: 2
        time: 6.0666666
        value: -0.005306559
        inSlope: 0.11884271
        outSlope: -0.13096957
        tangentMode: 69
      - serializedVersion: 2
        time: 6.4166665
        value: -0.051145896
        inSlope: -0.13096957
        outSlope: 0.09962862
        tangentMode: 69
      - serializedVersion: 2
        time: 6.8
        value: -0.012954891
        inSlope: 0.09962862
        outSlope: -0.11497156
        tangentMode: 69
      - serializedVersion: 2
        time: 7
        value: -0.03594918
        inSlope: -0.11497156
        outSlope: 0.011826596
        tangentMode: 5
      - serializedVersion: 2
        time: 8.65
        value: 0.022
        inSlope: 0
        outSlope: 0
        tangentMode: 0
      - serializedVersion: 2
        time: 10.95
        value: -0.05
        inSlope: 0
        outSlope: 0
        tangentMode: 0
      - serializedVersion: 2
        time: 13
        value: 0
        inSlope: 0
        outSlope: 0
        tangentMode: 0
      m_PreInfinity: 2
      m_PostInfinity: 2
      m_RotationOrder: 4
    attribute: m_LocalPosition.y
    path: 
    classID: 4
    script: {fileID: 0}
  - curve:
      serializedVersion: 2
      m_Curve:
      - serializedVersion: 2
        time: 0
        value: 0
        inSlope: 0
        outSlope: 0
        tangentMode: 0
      m_PreInfinity: 2
      m_PostInfinity: 2
      m_RotationOrder: 4
    attribute: m_LocalPosition.z
    path: 
    classID: 4
    script: {fileID: 0}
  m_EulerEditorCurves: []
  m_HasGenericRootTransform: 0
  m_HasMotionFloatCurves: 0
  m_GenerateMotionCurves: 0
  m_Events: []
