%YAML 1.1
%TAG !u! tag:unity3d.com,2011:
--- !u!74 &7400000
AnimationClip:
  m_ObjectHideFlags: 0
  m_PrefabParentObject: {fileID: 0}
  m_PrefabInternal: {fileID: 0}
  m_Name: Cam Eyes Level Intro OLD Anim 1 (Legacy)
  serializedVersion: 6
  m_Legacy: 1
  m_Compressed: 0
  m_UseHighQualityCurve: 1
  m_RotationCurves: []
  m_CompressedRotationCurves: []
  m_EulerCurves: []
  m_PositionCurves:
  - curve:
      serializedVersion: 2
      m_Curve:
      - serializedVersion: 2
        time: 0
        value: {x: 0, y: 0.10592842, z: 0}
        inSlope: {x: 0, y: -7.321463, z: 0}
        outSlope: {x: 0, y: -7.321463, z: 0}
        tangentMode: 0
      - serializedVersion: 2
        time: 0.5833333
        value: {x: 0, y: -1.4347594, z: 0}
        inSlope: {x: 0, y: -3.26014, z: 0}
        outSlope: {x: 0, y: -3.26014, z: 0}
        tangentMode: 0
      - serializedVersion: 2
        time: 1.1666666
        value: {x: 0, y: -7.694072, z: 0}
        inSlope: {x: 0, y: -10.689705, z: 0}
        outSlope: {x: 0, y: 0, z: 0}
        tangentMode: 0
      - serializedVersion: 2
        time: 1.1833333
        value: {x: 0, y: -15.587355, z: 0}
        inSlope: {x: 0, y: Infinity, z: 0}
        outSlope: {x: 0, y: 0, z: 0}
        tangentMode: 0
      - serializedVersion: 2
        time: 1.25
        value: {x: 0, y: -15.481426, z: 0}
        inSlope: {x: 0, y: 1.588925, z: 0}
        outSlope: {x: 0, y: 0, z: 0}
        tangentMode: 0
      m_PreInfinity: 2
      m_PostInfinity: 2
      m_RotationOrder: 4
    path: Eyes Parent/Eyes Bottom Parent
  - curve:
      serializedVersion: 2
      m_Curve:
      - serializedVersion: 2
        time: 0
        value: {x: 0, y: 0, z: 0}
        inSlope: {x: 0, y: 5.714504, z: 0}
        outSlope: {x: 0, y: 5.714504, z: 0}
        tangentMode: 0
      - serializedVersion: 2
        time: 0.5833333
        value: {x: 0, y: 1.6593122, z: 0}
        inSlope: {x: 0, y: 2.5112517, z: 0}
        outSlope: {x: 0, y: 2.5112517, z: 0}
        tangentMode: 0
      - serializedVersion: 2
        time: 1.1666666
        value: {x: 0, y: 7.917736, z: 0}
        inSlope: {x: 0, y: 5.8606434, z: 0}
        outSlope: {x: 0, y: 0, z: 0}
        tangentMode: 0
      - serializedVersion: 2
        time: 1.1833333
        value: {x: 0, y: 15.237909, z: 0}
        inSlope: {x: 0, y: Infinity, z: 0}
        outSlope: {x: 0, y: 0, z: 0}
        tangentMode: 0
      - serializedVersion: 2
        time: 1.2
        value: {x: 0, y: 15.237909, z: 0}
        inSlope: {x: 0, y: Infinity, z: 0}
        outSlope: {x: 0, y: Infinity, z: 0}
        tangentMode: 0
      - serializedVersion: 2
        time: 1.25
        value: {x: 0, y: 15.237909, z: 0}
        inSlope: {x: 0, y: Infinity, z: 0}
        outSlope: {x: 0, y: 0, z: 0}
        tangentMode: 0
      m_PreInfinity: 2
      m_PostInfinity: 2
      m_RotationOrder: 4
    path: Eyes Parent/Eyes Top Parent
  m_ScaleCurves:
  - curve:
      serializedVersion: 2
      m_Curve:
      - serializedVersion: 2
        time: 0
        value: {x: 2.15, y: 0, z: 1}
        inSlope: {x: 0, y: 0, z: 0}
        outSlope: {x: 0, y: 0, z: 0}
        tangentMode: 0
      - serializedVersion: 2
        time: 0.16666667
        value: {x: 2.15, y: 0, z: 1}
        inSlope: {x: 0, y: 0, z: 0}
        outSlope: {x: 0, y: 0, z: 0}
        tangentMode: 0
      - serializedVersion: 2
        time: 0.5
        value: {x: 2.15, y: 0.124222174, z: 1}
        inSlope: {x: 0, y: 0.51126134, z: 0}
        outSlope: {x: 0, y: 0.51126134, z: 0}
        tangentMode: 0
      - serializedVersion: 2
        time: 0.6
        value: {x: 2.15, y: 0.17037737, z: 1}
        inSlope: {x: 0, y: 0.3907761, z: 0}
        outSlope: {x: 0, y: 0.3907761, z: 0}
        tangentMode: 0
      - serializedVersion: 2
        time: 1.1666666
        value: {x: 2.15, y: 2.15, z: 1}
        inSlope: {x: 0, y: 3.4934523, z: 0}
        outSlope: {x: 0, y: 0, z: 0}
        tangentMode: 0
      m_PreInfinity: 2
      m_PostInfinity: 2
      m_RotationOrder: 4
    path: Eyes Parent/Eyes Bottom Parent/Eyes Bottom Lids
  - curve:
      serializedVersion: 2
      m_Curve:
      - serializedVersion: 2
        time: 0
        value: {x: 2.15, y: 0, z: 1}
        inSlope: {x: 0, y: 0, z: 0}
        outSlope: {x: 0, y: 0, z: 0}
        tangentMode: 0
      - serializedVersion: 2
        time: 0.16666667
        value: {x: 2.15, y: 0, z: 1}
        inSlope: {x: 0, y: 0, z: 0}
        outSlope: {x: 0, y: 0, z: 0}
        tangentMode: 0
      - serializedVersion: 2
        time: 0.5
        value: {x: 2.15, y: 0.11964796, z: 1}
        inSlope: {x: 0, y: 0.5295581, z: 0}
        outSlope: {x: 0, y: 0.5295581, z: 0}
        tangentMode: 0
      - serializedVersion: 2
        time: 0.6
        value: {x: 2.15, y: 0.17037737, z: 1}
        inSlope: {x: 0, y: 0.46808028, z: 0}
        outSlope: {x: 0, y: 0.46808028, z: 0}
        tangentMode: 0
      - serializedVersion: 2
        time: 1.1666666
        value: {x: 2.15, y: 2.15, z: 1}
        inSlope: {x: 0, y: 3.4934523, z: 0}
        outSlope: {x: 0, y: 0, z: 0}
        tangentMode: 0
      m_PreInfinity: 2
      m_PostInfinity: 2
      m_RotationOrder: 4
    path: Eyes Parent/Eyes Top Parent/Eyes Top Lids
  m_FloatCurves:
  - curve:
      serializedVersion: 2
      m_Curve:
      - serializedVersion: 2
        time: 0.31666666
        value: 7.716226
        inSlope: -19.711441
        outSlope: -19.711441
        tangentMode: 0
      - serializedVersion: 2
        time: 1.1
        value: 0.03773585
        inSlope: 0
        outSlope: 0
        tangentMode: 0
      m_PreInfinity: 2
      m_PostInfinity: 2
      m_RotationOrder: 4
    attribute: intensity
    path: Camera Idle Anim/Main Camera
    classID: 114
    script: {fileID: 11500000, guid: 4975a6e437fc3b149a8cd508ce5bdd69, type: 3}
  - curve:
      serializedVersion: 2
      m_Curve:
      - serializedVersion: 2
        time: 0
        value: 0
        inSlope: Infinity
        outSlope: Infinity
        tangentMode: 103
      - serializedVersion: 2
        time: 1.1666666
        value: 0
        inSlope: Infinity
        outSlope: Infinity
        tangentMode: 103
      m_PreInfinity: 2
      m_PostInfinity: 2
      m_RotationOrder: 4
    attribute: m_Enabled
    path: Camera Idle Anim/Main Camera
    classID: 114
    script: {fileID: 11500000, guid: 4975a6e437fc3b149a8cd508ce5bdd69, type: 3}
  - curve:
      serializedVersion: 2
      m_Curve:
      - serializedVersion: 2
        time: 0
        value: 1
        inSlope: Infinity
        outSlope: Infinity
        tangentMode: 103
      m_PreInfinity: 2
      m_PostInfinity: 2
      m_RotationOrder: 4
    attribute: m_IsActive
    path: Eyes Parent/Eyes Particles/Eyes FullScreen Intro Particle
    classID: 1
    script: {fileID: 0}
  m_PPtrCurves: []
  m_SampleRate: 60
  m_WrapMode: 0
  m_Bounds:
    m_Center: {x: 0, y: 0, z: 0}
    m_Extent: {x: 0, y: 0, z: 0}
  m_ClipBindingConstant:
    genericBindings: []
    pptrCurveMapping: []
  m_AnimationClipSettings:
    serializedVersion: 2
    m_AdditiveReferencePoseClip: {fileID: 0}
    m_AdditiveReferencePoseTime: 0
    m_StartTime: 0
    m_StopTime: 1.25
    m_OrientationOffsetY: 0
    m_Level: 0
    m_CycleOffset: 0
    m_HasAdditiveReferencePose: 0
    m_LoopTime: 1
    m_LoopBlend: 0
    m_LoopBlendOrientation: 0
    m_LoopBlendPositionY: 0
    m_LoopBlendPositionXZ: 0
    m_KeepOriginalOrientation: 0
    m_KeepOriginalPositionY: 1
    m_KeepOriginalPositionXZ: 0
    m_HeightFromFeet: 0
    m_Mirror: 0
  m_EditorCurves:
  - curve:
      serializedVersion: 2
      m_Curve:
      - serializedVersion: 2
        time: 0.31666666
        value: 7.716226
        inSlope: -19.711441
        outSlope: -19.711441
        tangentMode: 0
      - serializedVersion: 2
        time: 1.1
        value: 0.03773585
        inSlope: 0
        outSlope: 0
        tangentMode: 0
      m_PreInfinity: 2
      m_PostInfinity: 2
      m_RotationOrder: 4
    attribute: intensity
    path: Camera Idle Anim/Main Camera
    classID: 114
    script: {fileID: 11500000, guid: 4975a6e437fc3b149a8cd508ce5bdd69, type: 3}
  - curve:
      serializedVersion: 2
      m_Curve:
      - serializedVersion: 2
        time: 0
        value: 0
        inSlope: Infinity
        outSlope: Infinity
        tangentMode: 103
      - serializedVersion: 2
        time: 1.1666666
        value: 0
        inSlope: Infinity
        outSlope: Infinity
        tangentMode: 103
      m_PreInfinity: 2
      m_PostInfinity: 2
      m_RotationOrder: 4
    attribute: m_Enabled
    path: Camera Idle Anim/Main Camera
    classID: 114
    script: {fileID: 11500000, guid: 4975a6e437fc3b149a8cd508ce5bdd69, type: 3}
  - curve:
      serializedVersion: 2
      m_Curve:
      - serializedVersion: 2
        time: 0
        value: 0
        inSlope: 0
        outSlope: 0
        tangentMode: 34
      m_PreInfinity: 2
      m_PostInfinity: 2
      m_RotationOrder: 4
    attribute: m_LocalPosition.x
    path: Eyes Parent/Eyes Bottom Parent
    classID: 4
    script: {fileID: 0}
  - curve:
      serializedVersion: 2
      m_Curve:
      - serializedVersion: 2
        time: 0
        value: 0.10592842
        inSlope: -7.321463
        outSlope: -7.321463
        tangentMode: 0
      - serializedVersion: 2
        time: 0.5833333
        value: -1.4347594
        inSlope: -3.26014
        outSlope: -3.26014
        tangentMode: 0
      - serializedVersion: 2
        time: 1.1666666
        value: -7.694072
        inSlope: -10.689705
        outSlope: 0
        tangentMode: 1
      - serializedVersion: 2
        time: 1.1833333
        value: -15.587355
        inSlope: Infinity
        outSlope: 0
        tangentMode: 7
      - serializedVersion: 2
        time: 1.25
        value: -15.481426
        inSlope: 1.588925
        outSlope: 0
        tangentMode: 69
      m_PreInfinity: 2
      m_PostInfinity: 2
      m_RotationOrder: 4
    attribute: m_LocalPosition.y
    path: Eyes Parent/Eyes Bottom Parent
    classID: 4
    script: {fileID: 0}
  - curve:
      serializedVersion: 2
      m_Curve:
      - serializedVersion: 2
        time: 0
        value: 0
        inSlope: 0
        outSlope: 0
        tangentMode: 34
      m_PreInfinity: 2
      m_PostInfinity: 2
      m_RotationOrder: 4
    attribute: m_LocalPosition.z
    path: Eyes Parent/Eyes Bottom Parent
    classID: 4
    script: {fileID: 0}
  - curve:
      serializedVersion: 2
      m_Curve:
      - serializedVersion: 2
        time: 0
        value: 0
        inSlope: 0
        outSlope: 0
        tangentMode: 34
      - serializedVersion: 2
        time: 1.2
        value: 0
        inSlope: 0
        outSlope: 0
        tangentMode: 34
      m_PreInfinity: 2
      m_PostInfinity: 2
      m_RotationOrder: 4
    attribute: m_LocalPosition.x
    path: Eyes Parent/Eyes Top Parent
    classID: 4
    script: {fileID: 0}
  - curve:
      serializedVersion: 2
      m_Curve:
      - serializedVersion: 2
        time: 0
        value: 0
        inSlope: 5.714504
        outSlope: 5.714504
        tangentMode: 0
      - serializedVersion: 2
        time: 0.5833333
        value: 1.6593122
        inSlope: 2.5112517
        outSlope: 2.5112517
        tangentMode: 0
      - serializedVersion: 2
        time: 1.1666666
        value: 7.917736
        inSlope: 5.8606434
        outSlope: 0
        tangentMode: 1
      - serializedVersion: 2
        time: 1.1833333
        value: 15.237909
        inSlope: Infinity
        outSlope: 0
        tangentMode: 7
      - serializedVersion: 2
        time: 1.25
        value: 15.237909
        inSlope: Infinity
        outSlope: 0
        tangentMode: 7
      m_PreInfinity: 2
      m_PostInfinity: 2
      m_RotationOrder: 4
    attribute: m_LocalPosition.y
    path: Eyes Parent/Eyes Top Parent
    classID: 4
    script: {fileID: 0}
  - curve:
      serializedVersion: 2
      m_Curve:
      - serializedVersion: 2
        time: 0
        value: 0
        inSlope: 0
        outSlope: 0
        tangentMode: 34
      - serializedVersion: 2
        time: 1.2
        value: 0
        inSlope: 0
        outSlope: 0
        tangentMode: 34
      m_PreInfinity: 2
      m_PostInfinity: 2
      m_RotationOrder: 4
    attribute: m_LocalPosition.z
    path: Eyes Parent/Eyes Top Parent
    classID: 4
    script: {fileID: 0}
  - curve:
      serializedVersion: 2
      m_Curve:
      - serializedVersion: 2
        time: 0
        value: 2.15
        inSlope: 0
        outSlope: 0
        tangentMode: 34
      m_PreInfinity: 2
      m_PostInfinity: 2
      m_RotationOrder: 4
    attribute: m_LocalScale.x
    path: Eyes Parent/Eyes Bottom Parent/Eyes Bottom Lids
    classID: 4
    script: {fileID: 0}
  - curve:
      serializedVersion: 2
      m_Curve:
      - serializedVersion: 2
        time: 0.16666667
        value: 0
        inSlope: 0
        outSlope: 0
        tangentMode: 0
      - serializedVersion: 2
        time: 0.6
        value: 0.17037737
        inSlope: 0.3907761
        outSlope: 0.3907761
        tangentMode: 0
      - serializedVersion: 2
        time: 1.1666666
        value: 2.15
        inSlope: 3.4934523
        outSlope: 0
        tangentMode: 5
      m_PreInfinity: 2
      m_PostInfinity: 2
      m_RotationOrder: 4
    attribute: m_LocalScale.y
    path: Eyes Parent/Eyes Bottom Parent/Eyes Bottom Lids
    classID: 4
    script: {fileID: 0}
  - curve:
      serializedVersion: 2
      m_Curve:
      - serializedVersion: 2
        time: 0
        value: 1
        inSlope: 0
        outSlope: 0
        tangentMode: 34
      - serializedVersion: 2
        time: 0.5
        value: 1
        inSlope: 0
        outSlope: 0
        tangentMode: 34
      m_PreInfinity: 2
      m_PostInfinity: 2
      m_RotationOrder: 4
    attribute: m_LocalScale.z
    path: Eyes Parent/Eyes Bottom Parent/Eyes Bottom Lids
    classID: 4
    script: {fileID: 0}
  - curve:
      serializedVersion: 2
      m_Curve:
      - serializedVersion: 2
        time: 0
        value: 2.15
        inSlope: 0
        outSlope: 0
        tangentMode: 34
      m_PreInfinity: 2
      m_PostInfinity: 2
      m_RotationOrder: 4
    attribute: m_LocalScale.x
    path: Eyes Parent/Eyes Top Parent/Eyes Top Lids
    classID: 4
    script: {fileID: 0}
  - curve:
      serializedVersion: 2
      m_Curve:
      - serializedVersion: 2
        time: 0.16666667
        value: 0
        inSlope: 0
        outSlope: 0
        tangentMode: 0
      - serializedVersion: 2
        time: 0.6
        value: 0.17037737
        inSlope: 0.46808028
        outSlope: 0.46808028
        tangentMode: 0
      - serializedVersion: 2
        time: 1.1666666
        value: 2.15
        inSlope: 3.4934523
        outSlope: 0
        tangentMode: 5
      m_PreInfinity: 2
      m_PostInfinity: 2
      m_RotationOrder: 4
    attribute: m_LocalScale.y
    path: Eyes Parent/Eyes Top Parent/Eyes Top Lids
    classID: 4
    script: {fileID: 0}
  - curve:
      serializedVersion: 2
      m_Curve:
      - serializedVersion: 2
        time: 0
        value: 1
        inSlope: 0
        outSlope: 0
        tangentMode: 34
      - serializedVersion: 2
        time: 0.5
        value: 1
        inSlope: 0
        outSlope: 0
        tangentMode: 34
      m_PreInfinity: 2
      m_PostInfinity: 2
      m_RotationOrder: 4
    attribute: m_LocalScale.z
    path: Eyes Parent/Eyes Top Parent/Eyes Top Lids
    classID: 4
    script: {fileID: 0}
  - curve:
      serializedVersion: 2
      m_Curve:
      - serializedVersion: 2
        time: 0
        value: 1
        inSlope: Infinity
        outSlope: Infinity
        tangentMode: 103
      m_PreInfinity: 2
      m_PostInfinity: 2
      m_RotationOrder: 4
    attribute: m_IsActive
    path: Eyes Parent/Eyes Particles/Eyes FullScreen Intro Particle
    classID: 1
    script: {fileID: 0}
  m_EulerEditorCurves: []
  m_HasGenericRootTransform: 0
  m_HasMotionFloatCurves: 0
  m_GenerateMotionCurves: 0
  m_Events: []
