%YAML 1.1
%TAG !u! tag:unity3d.com,2011:
--- !u!74 &7400000
AnimationClip:
  m_ObjectHideFlags: 0
  m_PrefabParentObject: {fileID: 0}
  m_PrefabInternal: {fileID: 0}
  m_Name: HUD ItemPickup Magnets START Anim 1 (Legacy)
  serializedVersion: 6
  m_Legacy: 1
  m_Compressed: 0
  m_UseHighQualityCurve: 1
  m_RotationCurves: []
  m_CompressedRotationCurves: []
  m_EulerCurves: []
  m_PositionCurves: []
  m_ScaleCurves:
  - curve:
      serializedVersion: 2
      m_Curve:
      - serializedVersion: 2
        time: 0.00016666666
        value: {x: 0, y: 0, z: 0}
        inSlope: {x: 6.0020003, y: 6.0020003, z: 6.0020003}
        outSlope: {x: 6.0020003, y: 6.0020003, z: 6.0020003}
        tangentMode: 0
      - serializedVersion: 2
        time: 0.5
        value: {x: 3, y: 3, z: 3}
        inSlope: {x: 6.0020003, y: 6.0020003, z: 6.0020003}
        outSlope: {x: 6.0020003, y: 6.0020003, z: 6.0020003}
        tangentMode: 0
      m_PreInfinity: 2
      m_PostInfinity: 2
      m_RotationOrder: 4
    path: 
  - curve:
      serializedVersion: 2
      m_Curve:
      - serializedVersion: 2
        time: 0
        value: {x: 0, y: 0, z: 0}
        inSlope: {x: 36, y: 36, z: 36}
        outSlope: {x: 36, y: 36, z: 36}
        tangentMode: 0
      - serializedVersion: 2
        time: 0.5
        value: {x: 18, y: 18, z: 18}
        inSlope: {x: 36, y: 36, z: 36}
        outSlope: {x: 36, y: 36, z: 36}
        tangentMode: 0
      m_PreInfinity: 2
      m_PostInfinity: 2
      m_RotationOrder: 4
    path: Elixir Magnet BIG Loop Particle
  m_FloatCurves: []
  m_PPtrCurves: []
  m_SampleRate: 60
  m_WrapMode: 0
  m_Bounds:
    m_Center: {x: 0, y: 0, z: 0}
    m_Extent: {x: 0, y: 0, z: 0}
  m_ClipBindingConstant:
    genericBindings: []
    pptrCurveMapping: []
  m_AnimationClipSettings:
    serializedVersion: 2
    m_AdditiveReferencePoseClip: {fileID: 0}
    m_AdditiveReferencePoseTime: 0
    m_StartTime: 0
    m_StopTime: 0.5
    m_OrientationOffsetY: 0
    m_Level: 0
    m_CycleOffset: 0
    m_HasAdditiveReferencePose: 0
    m_LoopTime: 1
    m_LoopBlend: 0
    m_LoopBlendOrientation: 0
    m_LoopBlendPositionY: 0
    m_LoopBlendPositionXZ: 0
    m_KeepOriginalOrientation: 0
    m_KeepOriginalPositionY: 1
    m_KeepOriginalPositionXZ: 0
    m_HeightFromFeet: 0
    m_Mirror: 0
  m_EditorCurves:
  - curve:
      serializedVersion: 2
      m_Curve:
      - serializedVersion: 2
        time: 0.00016666666
        value: 0
        inSlope: 6.0020003
        outSlope: 6.0020003
        tangentMode: 34
      - serializedVersion: 2
        time: 0.5
        value: 3
        inSlope: 6.0020003
        outSlope: 6.0020003
        tangentMode: 34
      m_PreInfinity: 2
      m_PostInfinity: 2
      m_RotationOrder: 4
    attribute: m_LocalScale.x
    path: 
    classID: 224
    script: {fileID: 0}
  - curve:
      serializedVersion: 2
      m_Curve:
      - serializedVersion: 2
        time: 0.00016666666
        value: 0
        inSlope: 6.0020003
        outSlope: 6.0020003
        tangentMode: 34
      - serializedVersion: 2
        time: 0.5
        value: 3
        inSlope: 6.0020003
        outSlope: 6.0020003
        tangentMode: 34
      m_PreInfinity: 2
      m_PostInfinity: 2
      m_RotationOrder: 4
    attribute: m_LocalScale.y
    path: 
    classID: 224
    script: {fileID: 0}
  - curve:
      serializedVersion: 2
      m_Curve:
      - serializedVersion: 2
        time: 0.00016666666
        value: 0
        inSlope: 6.0020003
        outSlope: 6.0020003
        tangentMode: 34
      - serializedVersion: 2
        time: 0.5
        value: 3
        inSlope: 6.0020003
        outSlope: 6.0020003
        tangentMode: 34
      m_PreInfinity: 2
      m_PostInfinity: 2
      m_RotationOrder: 4
    attribute: m_LocalScale.z
    path: 
    classID: 224
    script: {fileID: 0}
  - curve:
      serializedVersion: 2
      m_Curve:
      - serializedVersion: 2
        time: 0
        value: 0
        inSlope: 36
        outSlope: 36
        tangentMode: 34
      - serializedVersion: 2
        time: 0.5
        value: 18
        inSlope: 36
        outSlope: 36
        tangentMode: 34
      m_PreInfinity: 2
      m_PostInfinity: 2
      m_RotationOrder: 4
    attribute: m_LocalScale.x
    path: Elixir Magnet BIG Loop Particle
    classID: 224
    script: {fileID: 0}
  - curve:
      serializedVersion: 2
      m_Curve:
      - serializedVersion: 2
        time: 0
        value: 0
        inSlope: 36
        outSlope: 36
        tangentMode: 34
      - serializedVersion: 2
        time: 0.5
        value: 18
        inSlope: 36
        outSlope: 36
        tangentMode: 34
      m_PreInfinity: 2
      m_PostInfinity: 2
      m_RotationOrder: 4
    attribute: m_LocalScale.y
    path: Elixir Magnet BIG Loop Particle
    classID: 224
    script: {fileID: 0}
  - curve:
      serializedVersion: 2
      m_Curve:
      - serializedVersion: 2
        time: 0
        value: 0
        inSlope: 36
        outSlope: 36
        tangentMode: 34
      - serializedVersion: 2
        time: 0.5
        value: 18
        inSlope: 36
        outSlope: 36
        tangentMode: 34
      m_PreInfinity: 2
      m_PostInfinity: 2
      m_RotationOrder: 4
    attribute: m_LocalScale.z
    path: Elixir Magnet BIG Loop Particle
    classID: 224
    script: {fileID: 0}
  m_EulerEditorCurves: []
  m_HasGenericRootTransform: 0
  m_HasMotionFloatCurves: 0
  m_GenerateMotionCurves: 0
  m_Events: []
