%YAML 1.1
%TAG !u! tag:unity3d.com,2011:
--- !u!74 &7400000
AnimationClip:
  m_ObjectHideFlags: 0
  m_PrefabParentObject: {fileID: 0}
  m_PrefabInternal: {fileID: 0}
  m_Name: HUD Bell Intro Anim 3 (Legacy)
  serializedVersion: 6
  m_Legacy: 1
  m_Compressed: 0
  m_UseHighQualityCurve: 1
  m_RotationCurves: []
  m_CompressedRotationCurves: []
  m_EulerCurves:
  - curve:
      serializedVersion: 2
      m_Curve:
      - serializedVersion: 2
        time: 0
        value: {x: 0, y: 0, z: -25}
        inSlope: {x: 0, y: 0, z: 0}
        outSlope: {x: 0, y: 0, z: 0}
        tangentMode: 0
      - serializedVersion: 2
        time: 0.28333333
        value: {x: 0, y: 0, z: 35.01682}
        inSlope: {x: 0, y: 0, z: 0}
        outSlope: {x: 0, y: 0, z: 0}
        tangentMode: 0
      - serializedVersion: 2
        time: 0.7
        value: {x: 0, y: 0, z: 3.4213295}
        inSlope: {x: 0, y: 0, z: -56.725014}
        outSlope: {x: 0, y: 0, z: -56.725014}
        tangentMode: 0
      - serializedVersion: 2
        time: 1.0833334
        value: {x: 0, y: 0, z: -11}
        inSlope: {x: 0, y: 0, z: 0}
        outSlope: {x: 0, y: 0, z: 0}
        tangentMode: 0
      - serializedVersion: 2
        time: 1.4333333
        value: {x: 0, y: 0, z: 0.79396605}
        inSlope: {x: 0, y: 0, z: 24.62643}
        outSlope: {x: 0, y: 0, z: 24.62643}
        tangentMode: 0
      - serializedVersion: 2
        time: 1.8333334
        value: {x: 0, y: 0, z: 7.0162897}
        inSlope: {x: 0, y: 0, z: 0}
        outSlope: {x: 0, y: 0, z: 0}
        tangentMode: 0
      - serializedVersion: 2
        time: 2.2333333
        value: {x: 0, y: 0, z: 0.793967}
        inSlope: {x: 0, y: 0, z: -19.740711}
        outSlope: {x: 0, y: 0, z: -19.740711}
        tangentMode: 0
      - serializedVersion: 2
        time: 2.4666667
        value: {x: 0, y: 0, z: -4.7886763}
        inSlope: {x: 0, y: 0, z: 0}
        outSlope: {x: 0, y: 0, z: 0}
        tangentMode: 0
      - serializedVersion: 2
        time: 2.8
        value: {x: 0, y: 0, z: -0.51507616}
        inSlope: {x: 0, y: 0, z: 11.842875}
        outSlope: {x: 0, y: 0, z: 11.842875}
        tangentMode: 0
      - serializedVersion: 2
        time: 3.1666667
        value: {x: 0, y: 0, z: 3.4687386}
        inSlope: {x: 0, y: 0, z: 0}
        outSlope: {x: 0, y: 0, z: 0}
        tangentMode: 0
      m_PreInfinity: 2
      m_PostInfinity: 2
      m_RotationOrder: 4
    path: Bell String 6 Front
  - curve:
      serializedVersion: 2
      m_Curve:
      - serializedVersion: 2
        time: 0
        value: {x: 0, y: 0, z: -22}
        inSlope: {x: 0, y: 0, z: 0}
        outSlope: {x: 0, y: 0, z: 0}
        tangentMode: 0
      - serializedVersion: 2
        time: 0.28333333
        value: {x: 0, y: 0, z: 32.01682}
        inSlope: {x: 0, y: 0, z: 0}
        outSlope: {x: 0, y: 0, z: 0}
        tangentMode: 0
      - serializedVersion: 2
        time: 0.7
        value: {x: 0, y: 0, z: 3.4183674}
        inSlope: {x: 0, y: 0, z: -50.51601}
        outSlope: {x: 0, y: 0, z: -50.51601}
        tangentMode: 0
      - serializedVersion: 2
        time: 1.0833334
        value: {x: 0, y: 0, z: -9}
        inSlope: {x: 0, y: 0, z: 0}
        outSlope: {x: 0, y: 0, z: 0}
        tangentMode: 0
      - serializedVersion: 2
        time: 1.4333333
        value: {x: 0, y: 0, z: 0.793967}
        inSlope: {x: 0, y: 0, z: 21.862188}
        outSlope: {x: 0, y: 0, z: 21.862188}
        tangentMode: 0
      - serializedVersion: 2
        time: 1.8333335
        value: {x: 0, y: 0, z: 7.090613}
        inSlope: {x: 0, y: 0, z: 0}
        outSlope: {x: 0, y: 0, z: 0}
        tangentMode: 0
      - serializedVersion: 2
        time: 2.2333333
        value: {x: 0, y: 0, z: 0.7939656}
        inSlope: {x: 0, y: 0, z: -22.181417}
        outSlope: {x: 0, y: 0, z: -22.181417}
        tangentMode: 0
      - serializedVersion: 2
        time: 2.45
        value: {x: 0, y: 0, z: -5.407298}
        inSlope: {x: 0, y: 0, z: 0}
        outSlope: {x: 0, y: 0, z: 0}
        tangentMode: 0
      - serializedVersion: 2
        time: 2.8
        value: {x: 0, y: 0, z: -0.62396526}
        inSlope: {x: 0, y: 0, z: 11.168524}
        outSlope: {x: 0, y: 0, z: 11.168524}
        tangentMode: 0
      - serializedVersion: 2
        time: 3.1666667
        value: {x: 0, y: 0, z: 2.5551748}
        inSlope: {x: 0, y: 0, z: 0}
        outSlope: {x: 0, y: 0, z: 0}
        tangentMode: 0
      m_PreInfinity: 2
      m_PostInfinity: 2
      m_RotationOrder: 4
    path: Bell String 5 Side
  - curve:
      serializedVersion: 2
      m_Curve:
      - serializedVersion: 2
        time: 0
        value: {x: 0, y: 0, z: -19}
        inSlope: {x: 0, y: 0, z: 0}
        outSlope: {x: 0, y: 0, z: 0}
        tangentMode: 0
      - serializedVersion: 2
        time: 0.28333333
        value: {x: 0, y: 0, z: 29.016819}
        inSlope: {x: 0, y: 0, z: 0}
        outSlope: {x: 0, y: 0, z: 0}
        tangentMode: 0
      - serializedVersion: 2
        time: 0.7
        value: {x: 0, y: 0, z: 3.4154053}
        inSlope: {x: 0, y: 0, z: -44.307007}
        outSlope: {x: 0, y: 0, z: -44.307007}
        tangentMode: 0
      - serializedVersion: 2
        time: 1.0833334
        value: {x: 0, y: 0, z: -7}
        inSlope: {x: 0, y: 0, z: 0}
        outSlope: {x: 0, y: 0, z: 0}
        tangentMode: 0
      - serializedVersion: 2
        time: 1.4333333
        value: {x: 0, y: 0, z: 0.793967}
        inSlope: {x: 0, y: 0, z: 17.066406}
        outSlope: {x: 0, y: 0, z: 17.066406}
        tangentMode: 0
      - serializedVersion: 2
        time: 1.8333335
        value: {x: 0, y: 0, z: 5.5397005}
        inSlope: {x: 0, y: 0, z: 0}
        outSlope: {x: 0, y: 0, z: 0}
        tangentMode: 0
      - serializedVersion: 2
        time: 2.2333333
        value: {x: 0, y: 0, z: 0.79396605}
        inSlope: {x: 0, y: 0, z: -18.045559}
        outSlope: {x: 0, y: 0, z: -18.045559}
        tangentMode: 0
      - serializedVersion: 2
        time: 2.45
        value: {x: 0, y: 0, z: -4.4551697}
        inSlope: {x: 0, y: 0, z: 0}
        outSlope: {x: 0, y: 0, z: 0}
        tangentMode: 0
      - serializedVersion: 2
        time: 2.8
        value: {x: 0, y: 0, z: -0.57003546}
        inSlope: {x: 0, y: 0, z: 9.071337}
        outSlope: {x: 0, y: 0, z: 9.071337}
        tangentMode: 0
      - serializedVersion: 2
        time: 3.1666667
        value: {x: 0, y: 0, z: 2.0121372}
        inSlope: {x: 0, y: 0, z: 0}
        outSlope: {x: 0, y: 0, z: 0}
        tangentMode: 0
      m_PreInfinity: 2
      m_PostInfinity: 2
      m_RotationOrder: 4
    path: Bell String 4 Front
  - curve:
      serializedVersion: 2
      m_Curve:
      - serializedVersion: 2
        time: 0
        value: {x: 0, y: 0, z: -16}
        inSlope: {x: 0, y: 0, z: 0}
        outSlope: {x: 0, y: 0, z: 0}
        tangentMode: 0
      - serializedVersion: 2
        time: 0.28333333
        value: {x: 0, y: 0, z: 26.016819}
        inSlope: {x: 0, y: 0, z: 0}
        outSlope: {x: 0, y: 0, z: 0}
        tangentMode: 0
      - serializedVersion: 2
        time: 0.7
        value: {x: 0, y: 0, z: 3.4124432}
        inSlope: {x: 0, y: 0, z: -38.098003}
        outSlope: {x: 0, y: 0, z: -38.098003}
        tangentMode: 0
      - serializedVersion: 2
        time: 1.0833334
        value: {x: 0, y: 0, z: -5}
        inSlope: {x: 0, y: 0, z: 0}
        outSlope: {x: 0, y: 0, z: 0}
        tangentMode: 0
      - serializedVersion: 2
        time: 1.4333333
        value: {x: 0, y: 0, z: 0.79396677}
        inSlope: {x: 0, y: 0, z: 11.896383}
        outSlope: {x: 0, y: 0, z: 11.896383}
        tangentMode: 0
      - serializedVersion: 2
        time: 1.8333335
        value: {x: 0, y: 0, z: 3.6893964}
        inSlope: {x: 0, y: 0, z: 0}
        outSlope: {x: 0, y: 0, z: 0}
        tangentMode: 0
      - serializedVersion: 2
        time: 2.2333333
        value: {x: 0, y: 0, z: 0.7939663}
        inSlope: {x: 0, y: 0, z: -13.190006}
        outSlope: {x: 0, y: 0, z: -13.190006}
        tangentMode: 0
      - serializedVersion: 2
        time: 2.45
        value: {x: 0, y: 0, z: -3.353345}
        inSlope: {x: 0, y: 0, z: 0}
        outSlope: {x: 0, y: 0, z: 0}
        tangentMode: 0
      - serializedVersion: 2
        time: 2.8
        value: {x: 0, y: 0, z: -0.48482418}
        inSlope: {x: 0, y: 0, z: 6.6976614}
        outSlope: {x: 0, y: 0, z: 6.6976614}
        tangentMode: 0
      - serializedVersion: 2
        time: 3.1666667
        value: {x: 0, y: 0, z: 1.4216771}
        inSlope: {x: 0, y: 0, z: 0}
        outSlope: {x: 0, y: 0, z: 0}
        tangentMode: 0
      m_PreInfinity: 2
      m_PostInfinity: 2
      m_RotationOrder: 4
    path: Bell String 3 Side
  - curve:
      serializedVersion: 2
      m_Curve:
      - serializedVersion: 2
        time: 0
        value: {x: 0, y: 0, z: -13}
        inSlope: {x: 0, y: 0, z: 0}
        outSlope: {x: 0, y: 0, z: 0}
        tangentMode: 0
      - serializedVersion: 2
        time: 0.28333333
        value: {x: 0, y: 0, z: 23.016819}
        inSlope: {x: 0, y: 0, z: 0}
        outSlope: {x: 0, y: 0, z: 0}
        tangentMode: 0
      - serializedVersion: 2
        time: 0.7
        value: {x: 0, y: 0, z: 3.409481}
        inSlope: {x: 0, y: 0, z: -31.888998}
        outSlope: {x: 0, y: 0, z: -31.888998}
        tangentMode: 0
      - serializedVersion: 2
        time: 1.0833334
        value: {x: 0, y: 0, z: -3}
        inSlope: {x: 0, y: 0, z: 0}
        outSlope: {x: 0, y: 0, z: 0}
        tangentMode: 0
      - serializedVersion: 2
        time: 1.4333333
        value: {x: 0, y: 0, z: 0.79396653}
        inSlope: {x: 0, y: 0, z: 7.1006002}
        outSlope: {x: 0, y: 0, z: 7.1006002}
        tangentMode: 0
      - serializedVersion: 2
        time: 1.8333335
        value: {x: 0, y: 0, z: 2.1384842}
        inSlope: {x: 0, y: 0, z: 0}
        outSlope: {x: 0, y: 0, z: 0}
        tangentMode: 0
      - serializedVersion: 2
        time: 2.2333333
        value: {x: 0, y: 0, z: 0.79396653}
        inSlope: {x: 0, y: 0, z: -7.3268857}
        outSlope: {x: 0, y: 0, z: -7.3268857}
        tangentMode: 0
      - serializedVersion: 2
        time: 2.45
        value: {x: 0, y: 0, z: -1.6527368}
        inSlope: {x: 0, y: 0, z: 0}
        outSlope: {x: 0, y: 0, z: 0}
        tangentMode: 0
      - serializedVersion: 2
        time: 2.8
        value: {x: 0, y: 0, z: -0.43478382}
        inSlope: {x: 0, y: 0, z: 2.8437781}
        outSlope: {x: 0, y: 0, z: 2.8437781}
        tangentMode: 0
      - serializedVersion: 2
        time: 3.1666667
        value: {x: 0, y: 0, z: 0.3747027}
        inSlope: {x: 0, y: 0, z: 0}
        outSlope: {x: 0, y: 0, z: 0}
        tangentMode: 0
      m_PreInfinity: 2
      m_PostInfinity: 2
      m_RotationOrder: 4
    path: Bell String 2 Front
  - curve:
      serializedVersion: 2
      m_Curve:
      - serializedVersion: 2
        time: 0
        value: {x: 0, y: 0, z: -10}
        inSlope: {x: 0, y: 0, z: 0}
        outSlope: {x: 0, y: 0, z: 0}
        tangentMode: 0
      - serializedVersion: 2
        time: 0.28333333
        value: {x: 0, y: 0, z: 20.016819}
        inSlope: {x: 0, y: 0, z: 0}
        outSlope: {x: 0, y: 0, z: 0}
        tangentMode: 0
      - serializedVersion: 2
        time: 0.7
        value: {x: 0, y: 0, z: 3.4065175}
        inSlope: {x: 0, y: 0, z: -25.679995}
        outSlope: {x: 0, y: 0, z: -25.679995}
        tangentMode: 0
      - serializedVersion: 2
        time: 1.0833334
        value: {x: 0, y: 0, z: -1}
        inSlope: {x: 0, y: 0, z: 0}
        outSlope: {x: 0, y: 0, z: 0}
        tangentMode: 0
      - serializedVersion: 2
        time: 1.4333333
        value: {x: 0, y: 0, z: 0.79396653}
        inSlope: {x: 0, y: 0, z: 2.6790566}
        outSlope: {x: 0, y: 0, z: 2.6790566}
        tangentMode: 0
      - serializedVersion: 2
        time: 1.8333335
        value: {x: 0, y: 0, z: 0.88696384}
        inSlope: {x: 0, y: 0, z: 0}
        outSlope: {x: 0, y: 0, z: 0}
        tangentMode: 0
      - serializedVersion: 2
        time: 2.2333333
        value: {x: 0, y: 0, z: 0.79396653}
        inSlope: {x: 0, y: 0, z: -3.2198126}
        outSlope: {x: 0, y: 0, z: -3.2198126}
        tangentMode: 0
      - serializedVersion: 2
        time: 2.45
        value: {x: 0, y: 0, z: -0.55091226}
        inSlope: {x: 0, y: 0, z: 0}
        outSlope: {x: 0, y: 0, z: 0}
        tangentMode: 0
      - serializedVersion: 2
        time: 2.8
        value: {x: 0, y: 0, z: -0.36827898}
        inSlope: {x: 0, y: 0, z: 0.4264274}
        outSlope: {x: 0, y: 0, z: 0.4264274}
        tangentMode: 0
      - serializedVersion: 2
        time: 3.1666667
        value: {x: 0, y: 0, z: -0.24689567}
        inSlope: {x: 0, y: 0, z: 0}
        outSlope: {x: 0, y: 0, z: 0}
        tangentMode: 0
      m_PreInfinity: 2
      m_PostInfinity: 2
      m_RotationOrder: 4
    path: Bell String 1 Side
  - curve:
      serializedVersion: 2
      m_Curve:
      - serializedVersion: 2
        time: 0
        value: {x: 0, y: 0, z: -27}
        inSlope: {x: 0, y: 0, z: 0}
        outSlope: {x: 0, y: 0, z: 0}
        tangentMode: 0
      - serializedVersion: 2
        time: 0.28333333
        value: {x: 0, y: 0, z: 37.01682}
        inSlope: {x: 0, y: 0, z: 0}
        outSlope: {x: 0, y: 0, z: 0}
        tangentMode: 0
      - serializedVersion: 2
        time: 0.7
        value: {x: 0, y: 0, z: 3.0236988}
        inSlope: {x: 0, y: 0, z: -128.85036}
        outSlope: {x: 0, y: 0, z: -128.85036}
        tangentMode: 0
      - serializedVersion: 2
        time: 1.0333333
        value: {x: 0, y: 0, z: -23.862059}
        inSlope: {x: 0, y: 0, z: 0}
        outSlope: {x: 0, y: 0, z: 0}
        tangentMode: 0
      - serializedVersion: 2
        time: 1.4
        value: {x: 0, y: 0, z: -4.521509}
        inSlope: {x: 0, y: 0, z: 84.7773}
        outSlope: {x: 0, y: 0, z: 84.7773}
        tangentMode: 0
      - serializedVersion: 2
        time: 1.8333334
        value: {x: 0, y: 0, z: 10.444138}
        inSlope: {x: 0, y: 0, z: 0}
        outSlope: {x: 0, y: 0, z: 0}
        tangentMode: 0
      - serializedVersion: 2
        time: 2.1833334
        value: {x: 0, y: 0, z: 1.0250746}
        inSlope: {x: 0, y: 0, z: -46.661777}
        outSlope: {x: 0, y: 0, z: -46.661777}
        tangentMode: 0
      - serializedVersion: 2
        time: 2.45
        value: {x: 0, y: 0, z: -5.0687633}
        inSlope: {x: 0, y: 0, z: 0}
        outSlope: {x: 0, y: 0, z: 0}
        tangentMode: 0
      - serializedVersion: 2
        time: 2.8
        value: {x: 0, y: 0, z: -0.19338226}
        inSlope: {x: 0, y: 0, z: 13.687456}
        outSlope: {x: 0, y: 0, z: 13.687456}
        tangentMode: 0
      - serializedVersion: 2
        time: 3.1666667
        value: {x: 0, y: 0, z: 4.7365437}
        inSlope: {x: 0, y: 0, z: 0}
        outSlope: {x: 0, y: 0, z: 0}
        tangentMode: 0
      m_PreInfinity: 2
      m_PostInfinity: 2
      m_RotationOrder: 4
    path: Bell String Body Inside
  - curve:
      serializedVersion: 2
      m_Curve:
      - serializedVersion: 2
        time: 0
        value: {x: 0, y: 0, z: 0}
        inSlope: {x: 0, y: 0, z: 0.00002203435}
        outSlope: {x: 0, y: 0, z: -0}
        tangentMode: 0
      - serializedVersion: 2
        time: 0.05
        value: {x: 0, y: 0, z: 0}
        inSlope: {x: 0, y: 0, z: 0}
        outSlope: {x: 0, y: 0, z: 68.12526}
        tangentMode: 0
      - serializedVersion: 2
        time: 0.38333333
        value: {x: 0, y: 0, z: 22.70842}
        inSlope: {x: 0, y: 0, z: 68.125275}
        outSlope: {x: 0, y: 0, z: 68.125275}
        tangentMode: 0
      - serializedVersion: 2
        time: 0.45
        value: {x: 0, y: 0, z: 27.250103}
        inSlope: {x: 0, y: 0, z: 68.12526}
        outSlope: {x: 0, y: 0, z: -151.49121}
        tangentMode: 0
      - serializedVersion: 2
        time: 1.3
        value: {x: 0, y: 0, z: -49.912617}
        inSlope: {x: 0, y: 0, z: -144.34013}
        outSlope: {x: 0, y: 0, z: 129.3645}
        tangentMode: 0
      - serializedVersion: 2
        time: 2.15
        value: {x: 0, y: 0, z: 26.94143}
        inSlope: {x: 0, y: 0, z: 0}
        outSlope: {x: 0, y: 0, z: 0}
        tangentMode: 0
      - serializedVersion: 2
        time: 2.8333333
        value: {x: 0, y: 0, z: -7.7003007}
        inSlope: {x: 0, y: 0, z: 0}
        outSlope: {x: 0, y: 0, z: 0}
        tangentMode: 0
      - serializedVersion: 2
        time: 3.1666667
        value: {x: 0, y: 0, z: 8.480951}
        inSlope: {x: 0, y: 0, z: 48.54373}
        outSlope: {x: 0, y: 0, z: 0}
        tangentMode: 0
      m_PreInfinity: 2
      m_PostInfinity: 2
      m_RotationOrder: 4
    path: Bell String Body Inside/Bell String Body Dinger
  m_PositionCurves: []
  m_ScaleCurves: []
  m_FloatCurves:
  - curve:
      serializedVersion: 2
      m_Curve:
      - serializedVersion: 2
        time: 0
        value: 150
        inSlope: 0
        outSlope: 0
        tangentMode: 0
      - serializedVersion: 2
        time: 0.25
        value: 150
        inSlope: 0
        outSlope: -330.99734
        tangentMode: 65
      - serializedVersion: 2
        time: 0.73333335
        value: -9.982049
        inSlope: 0
        outSlope: 0
        tangentMode: 0
      - serializedVersion: 2
        time: 1
        value: 14.020719
        inSlope: 0
        outSlope: 0
        tangentMode: 0
      - serializedVersion: 2
        time: 1.2833333
        value: 4.0667605
        inSlope: 0
        outSlope: 0
        tangentMode: 0
      - serializedVersion: 2
        time: 1.6166667
        value: 10.257531
        inSlope: 0
        outSlope: 0
        tangentMode: 0
      - serializedVersion: 2
        time: 1.9833333
        value: 1.0439875
        inSlope: 0
        outSlope: 0
        tangentMode: 0
      - serializedVersion: 2
        time: 2.2666667
        value: 5.74481
        inSlope: 0
        outSlope: 0
        tangentMode: 0
      - serializedVersion: 2
        time: 2.6
        value: 0
        inSlope: 0
        outSlope: 0
        tangentMode: 0
      - serializedVersion: 2
        time: 3.1666667
        value: 150
        inSlope: 0
        outSlope: 0
        tangentMode: 0
      m_PreInfinity: 2
      m_PostInfinity: 2
      m_RotationOrder: 4
    attribute: m_AnchoredPosition.y
    path: 
    classID: 224
    script: {fileID: 0}
  - curve:
      serializedVersion: 2
      m_Curve:
      - serializedVersion: 2
        time: 0
        value: -0.3
        inSlope: -3.717098
        outSlope: -14.782922
        tangentMode: 1
      - serializedVersion: 2
        time: 0.53333336
        value: -2.2824523
        inSlope: 0.6466627
        outSlope: 0.6466627
        tangentMode: 0
      - serializedVersion: 2
        time: 1
        value: 11.1
        inSlope: 28.676685
        outSlope: -0.5538968
        tangentMode: 5
      - serializedVersion: 2
        time: 1.3166667
        value: 9.218873
        inSlope: -20.476042
        outSlope: -20.476042
        tangentMode: 0
      - serializedVersion: 2
        time: 1.6333333
        value: -2.4904375
        inSlope: -9.285327
        outSlope: -9.285327
        tangentMode: 0
      - serializedVersion: 2
        time: 2.05
        value: -2.5940921
        inSlope: 11.370423
        outSlope: 11.370423
        tangentMode: 0
      - serializedVersion: 2
        time: 2.6833334
        value: 0.9687718
        inSlope: 0
        outSlope: 0
        tangentMode: 0
      m_PreInfinity: 2
      m_PostInfinity: 2
      m_RotationOrder: 4
    attribute: m_AnchoredPosition.x
    path: Bell String Body Inside
    classID: 224
    script: {fileID: 0}
  - curve:
      serializedVersion: 2
      m_Curve:
      - serializedVersion: 2
        time: 0
        value: 284.1999
        inSlope: -2.295998
        outSlope: -2.295998
        tangentMode: 34
      - serializedVersion: 2
        time: 0.6333333
        value: 282.74576
        inSlope: -0.7661404
        outSlope: -0.7661404
        tangentMode: 0
      - serializedVersion: 2
        time: 1.15
        value: 281.33307
        inSlope: -5.1879883
        outSlope: -5.1879883
        tangentMode: 0
      - serializedVersion: 2
        time: 1.35
        value: 283.4108
        inSlope: 0
        outSlope: 0
        tangentMode: 0
      - serializedVersion: 2
        time: 1.45
        value: 283.42908
        inSlope: 0
        outSlope: 0
        tangentMode: 0
      - serializedVersion: 2
        time: 1.7833333
        value: 281.9576
        inSlope: 0
        outSlope: 0
        tangentMode: 0
      - serializedVersion: 2
        time: 2.4166667
        value: 282.81827
        inSlope: 0
        outSlope: 0
        tangentMode: 0
      m_PreInfinity: 2
      m_PostInfinity: 2
      m_RotationOrder: 4
    attribute: m_AnchoredPosition.y
    path: Bell String Body Inside
    classID: 224
    script: {fileID: 0}
  m_PPtrCurves: []
  m_SampleRate: 60
  m_WrapMode: 0
  m_Bounds:
    m_Center: {x: 0, y: 0, z: 0}
    m_Extent: {x: 0, y: 0, z: 0}
  m_ClipBindingConstant:
    genericBindings: []
    pptrCurveMapping: []
  m_AnimationClipSettings:
    serializedVersion: 2
    m_AdditiveReferencePoseClip: {fileID: 0}
    m_AdditiveReferencePoseTime: 0
    m_StartTime: 0
    m_StopTime: 3.1666667
    m_OrientationOffsetY: 0
    m_Level: 0
    m_CycleOffset: 0
    m_HasAdditiveReferencePose: 0
    m_LoopTime: 1
    m_LoopBlend: 0
    m_LoopBlendOrientation: 0
    m_LoopBlendPositionY: 0
    m_LoopBlendPositionXZ: 0
    m_KeepOriginalOrientation: 0
    m_KeepOriginalPositionY: 1
    m_KeepOriginalPositionXZ: 0
    m_HeightFromFeet: 0
    m_Mirror: 0
  m_EditorCurves:
  - curve:
      serializedVersion: 2
      m_Curve:
      - serializedVersion: 2
        time: 0
        value: 150
        inSlope: 0
        outSlope: 0
        tangentMode: 0
      - serializedVersion: 2
        time: 0.25
        value: 150
        inSlope: 0
        outSlope: -330.99734
        tangentMode: 65
      - serializedVersion: 2
        time: 0.73333335
        value: -9.982049
        inSlope: 0
        outSlope: 0
        tangentMode: 0
      - serializedVersion: 2
        time: 1
        value: 14.020719
        inSlope: 0
        outSlope: 0
        tangentMode: 0
      - serializedVersion: 2
        time: 1.2833333
        value: 4.0667605
        inSlope: 0
        outSlope: 0
        tangentMode: 0
      - serializedVersion: 2
        time: 1.6166667
        value: 10.257531
        inSlope: 0
        outSlope: 0
        tangentMode: 0
      - serializedVersion: 2
        time: 1.9833333
        value: 1.0439875
        inSlope: 0
        outSlope: 0
        tangentMode: 0
      - serializedVersion: 2
        time: 2.2666667
        value: 5.74481
        inSlope: 0
        outSlope: 0
        tangentMode: 0
      - serializedVersion: 2
        time: 2.6
        value: 0
        inSlope: 0
        outSlope: 0
        tangentMode: 0
      - serializedVersion: 2
        time: 3.1666667
        value: 150
        inSlope: 0
        outSlope: 0
        tangentMode: 0
      m_PreInfinity: 2
      m_PostInfinity: 2
      m_RotationOrder: 4
    attribute: m_AnchoredPosition.y
    path: 
    classID: 224
    script: {fileID: 0}
  - curve:
      serializedVersion: 2
      m_Curve:
      - serializedVersion: 2
        time: 0
        value: 0
        inSlope: 0
        outSlope: 0
        tangentMode: 0
      - serializedVersion: 2
        time: 2.8
        value: 0
        inSlope: 0
        outSlope: 0
        tangentMode: 34
      m_PreInfinity: 2
      m_PostInfinity: 2
      m_RotationOrder: 4
    attribute: localEulerAnglesRaw.x
    path: Bell String 6 Front
    classID: 224
    script: {fileID: 0}
  - curve:
      serializedVersion: 2
      m_Curve:
      - serializedVersion: 2
        time: 0
        value: 0
        inSlope: 0
        outSlope: 0
        tangentMode: 0
      - serializedVersion: 2
        time: 2.8
        value: 0
        inSlope: 0
        outSlope: 0
        tangentMode: 34
      m_PreInfinity: 2
      m_PostInfinity: 2
      m_RotationOrder: 4
    attribute: localEulerAnglesRaw.y
    path: Bell String 6 Front
    classID: 224
    script: {fileID: 0}
  - curve:
      serializedVersion: 2
      m_Curve:
      - serializedVersion: 2
        time: 0
        value: -25
        inSlope: 0
        outSlope: 0
        tangentMode: 0
      - serializedVersion: 2
        time: 0.28333333
        value: 35.01682
        inSlope: 0
        outSlope: 0
        tangentMode: 0
      - serializedVersion: 2
        time: 0.7
        value: 3.4213295
        inSlope: -56.725014
        outSlope: -56.725014
        tangentMode: 34
      - serializedVersion: 2
        time: 1.0833334
        value: -11
        inSlope: 0
        outSlope: 0
        tangentMode: 0
      - serializedVersion: 2
        time: 1.4333333
        value: 0.79396605
        inSlope: 24.62643
        outSlope: 24.62643
        tangentMode: 34
      - serializedVersion: 2
        time: 1.8333334
        value: 7.0162897
        inSlope: 0
        outSlope: 0
        tangentMode: 0
      - serializedVersion: 2
        time: 2.2333333
        value: 0.793967
        inSlope: -19.740711
        outSlope: -19.740711
        tangentMode: 34
      - serializedVersion: 2
        time: 2.4666667
        value: -4.7886763
        inSlope: 0
        outSlope: 0
        tangentMode: 0
      - serializedVersion: 2
        time: 2.8
        value: -0.51507616
        inSlope: 11.842875
        outSlope: 11.842875
        tangentMode: 34
      - serializedVersion: 2
        time: 3.1666667
        value: 3.4687386
        inSlope: 0
        outSlope: 0
        tangentMode: 0
      m_PreInfinity: 2
      m_PostInfinity: 2
      m_RotationOrder: 4
    attribute: localEulerAnglesRaw.z
    path: Bell String 6 Front
    classID: 224
    script: {fileID: 0}
  - curve:
      serializedVersion: 2
      m_Curve:
      - serializedVersion: 2
        time: 0
        value: 0
        inSlope: 0
        outSlope: 0
        tangentMode: 0
      - serializedVersion: 2
        time: 2.8
        value: 0
        inSlope: 0
        outSlope: 0
        tangentMode: 34
      m_PreInfinity: 2
      m_PostInfinity: 2
      m_RotationOrder: 4
    attribute: localEulerAnglesRaw.x
    path: Bell String 5 Side
    classID: 224
    script: {fileID: 0}
  - curve:
      serializedVersion: 2
      m_Curve:
      - serializedVersion: 2
        time: 0
        value: 0
        inSlope: 0
        outSlope: 0
        tangentMode: 0
      - serializedVersion: 2
        time: 2.8
        value: 0
        inSlope: 0
        outSlope: 0
        tangentMode: 34
      m_PreInfinity: 2
      m_PostInfinity: 2
      m_RotationOrder: 4
    attribute: localEulerAnglesRaw.y
    path: Bell String 5 Side
    classID: 224
    script: {fileID: 0}
  - curve:
      serializedVersion: 2
      m_Curve:
      - serializedVersion: 2
        time: 0
        value: -22
        inSlope: 0
        outSlope: 0
        tangentMode: 0
      - serializedVersion: 2
        time: 0.28333333
        value: 32.01682
        inSlope: 0
        outSlope: 0
        tangentMode: 0
      - serializedVersion: 2
        time: 0.7
        value: 3.4183674
        inSlope: -50.51601
        outSlope: -50.51601
        tangentMode: 34
      - serializedVersion: 2
        time: 1.0833334
        value: -9
        inSlope: 0
        outSlope: 0
        tangentMode: 0
      - serializedVersion: 2
        time: 1.4333333
        value: 0.793967
        inSlope: 21.862188
        outSlope: 21.862188
        tangentMode: 34
      - serializedVersion: 2
        time: 1.8333335
        value: 7.090613
        inSlope: 0
        outSlope: 0
        tangentMode: 0
      - serializedVersion: 2
        time: 2.2333333
        value: 0.7939656
        inSlope: -22.181417
        outSlope: -22.181417
        tangentMode: 34
      - serializedVersion: 2
        time: 2.45
        value: -5.407298
        inSlope: 0
        outSlope: 0
        tangentMode: 0
      - serializedVersion: 2
        time: 2.8
        value: -0.62396526
        inSlope: 11.168524
        outSlope: 11.168524
        tangentMode: 34
      - serializedVersion: 2
        time: 3.1666667
        value: 2.5551748
        inSlope: 0
        outSlope: 0
        tangentMode: 0
      m_PreInfinity: 2
      m_PostInfinity: 2
      m_RotationOrder: 4
    attribute: localEulerAnglesRaw.z
    path: Bell String 5 Side
    classID: 224
    script: {fileID: 0}
  - curve:
      serializedVersion: 2
      m_Curve:
      - serializedVersion: 2
        time: 0
        value: 0
        inSlope: 0
        outSlope: 0
        tangentMode: 0
      - serializedVersion: 2
        time: 2.8
        value: 0
        inSlope: 0
        outSlope: 0
        tangentMode: 34
      m_PreInfinity: 2
      m_PostInfinity: 2
      m_RotationOrder: 4
    attribute: localEulerAnglesRaw.x
    path: Bell String 4 Front
    classID: 224
    script: {fileID: 0}
  - curve:
      serializedVersion: 2
      m_Curve:
      - serializedVersion: 2
        time: 0
        value: 0
        inSlope: 0
        outSlope: 0
        tangentMode: 0
      - serializedVersion: 2
        time: 2.8
        value: 0
        inSlope: 0
        outSlope: 0
        tangentMode: 34
      m_PreInfinity: 2
      m_PostInfinity: 2
      m_RotationOrder: 4
    attribute: localEulerAnglesRaw.y
    path: Bell String 4 Front
    classID: 224
    script: {fileID: 0}
  - curve:
      serializedVersion: 2
      m_Curve:
      - serializedVersion: 2
        time: 0
        value: -19
        inSlope: 0
        outSlope: 0
        tangentMode: 0
      - serializedVersion: 2
        time: 0.28333333
        value: 29.016819
        inSlope: 0
        outSlope: 0
        tangentMode: 0
      - serializedVersion: 2
        time: 0.7
        value: 3.4154053
        inSlope: -44.307007
        outSlope: -44.307007
        tangentMode: 34
      - serializedVersion: 2
        time: 1.0833334
        value: -7
        inSlope: 0
        outSlope: 0
        tangentMode: 0
      - serializedVersion: 2
        time: 1.4333333
        value: 0.793967
        inSlope: 17.066406
        outSlope: 17.066406
        tangentMode: 34
      - serializedVersion: 2
        time: 1.8333335
        value: 5.5397005
        inSlope: 0
        outSlope: 0
        tangentMode: 0
      - serializedVersion: 2
        time: 2.2333333
        value: 0.79396605
        inSlope: -18.045559
        outSlope: -18.045559
        tangentMode: 34
      - serializedVersion: 2
        time: 2.45
        value: -4.4551697
        inSlope: 0
        outSlope: 0
        tangentMode: 0
      - serializedVersion: 2
        time: 2.8
        value: -0.57003546
        inSlope: 9.071337
        outSlope: 9.071337
        tangentMode: 34
      - serializedVersion: 2
        time: 3.1666667
        value: 2.0121372
        inSlope: 0
        outSlope: 0
        tangentMode: 0
      m_PreInfinity: 2
      m_PostInfinity: 2
      m_RotationOrder: 4
    attribute: localEulerAnglesRaw.z
    path: Bell String 4 Front
    classID: 224
    script: {fileID: 0}
  - curve:
      serializedVersion: 2
      m_Curve:
      - serializedVersion: 2
        time: 0
        value: 0
        inSlope: 0
        outSlope: 0
        tangentMode: 0
      - serializedVersion: 2
        time: 2.8
        value: 0
        inSlope: 0
        outSlope: 0
        tangentMode: 34
      m_PreInfinity: 2
      m_PostInfinity: 2
      m_RotationOrder: 4
    attribute: localEulerAnglesRaw.x
    path: Bell String 3 Side
    classID: 224
    script: {fileID: 0}
  - curve:
      serializedVersion: 2
      m_Curve:
      - serializedVersion: 2
        time: 0
        value: 0
        inSlope: 0
        outSlope: 0
        tangentMode: 0
      - serializedVersion: 2
        time: 2.8
        value: 0
        inSlope: 0
        outSlope: 0
        tangentMode: 34
      m_PreInfinity: 2
      m_PostInfinity: 2
      m_RotationOrder: 4
    attribute: localEulerAnglesRaw.y
    path: Bell String 3 Side
    classID: 224
    script: {fileID: 0}
  - curve:
      serializedVersion: 2
      m_Curve:
      - serializedVersion: 2
        time: 0
        value: -16
        inSlope: 0
        outSlope: 0
        tangentMode: 0
      - serializedVersion: 2
        time: 0.28333333
        value: 26.016819
        inSlope: 0
        outSlope: 0
        tangentMode: 0
      - serializedVersion: 2
        time: 0.7
        value: 3.4124432
        inSlope: -38.098003
        outSlope: -38.098003
        tangentMode: 34
      - serializedVersion: 2
        time: 1.0833334
        value: -5
        inSlope: 0
        outSlope: 0
        tangentMode: 0
      - serializedVersion: 2
        time: 1.4333333
        value: 0.79396677
        inSlope: 11.896383
        outSlope: 11.896383
        tangentMode: 34
      - serializedVersion: 2
        time: 1.8333335
        value: 3.6893964
        inSlope: 0
        outSlope: 0
        tangentMode: 0
      - serializedVersion: 2
        time: 2.2333333
        value: 0.7939663
        inSlope: -13.190006
        outSlope: -13.190006
        tangentMode: 34
      - serializedVersion: 2
        time: 2.45
        value: -3.353345
        inSlope: 0
        outSlope: 0
        tangentMode: 0
      - serializedVersion: 2
        time: 2.8
        value: -0.48482418
        inSlope: 6.6976614
        outSlope: 6.6976614
        tangentMode: 34
      - serializedVersion: 2
        time: 3.1666667
        value: 1.4216771
        inSlope: 0
        outSlope: 0
        tangentMode: 0
      m_PreInfinity: 2
      m_PostInfinity: 2
      m_RotationOrder: 4
    attribute: localEulerAnglesRaw.z
    path: Bell String 3 Side
    classID: 224
    script: {fileID: 0}
  - curve:
      serializedVersion: 2
      m_Curve:
      - serializedVersion: 2
        time: 0
        value: 0
        inSlope: 0
        outSlope: 0
        tangentMode: 0
      - serializedVersion: 2
        time: 2.8
        value: 0
        inSlope: 0
        outSlope: 0
        tangentMode: 34
      m_PreInfinity: 2
      m_PostInfinity: 2
      m_RotationOrder: 4
    attribute: localEulerAnglesRaw.x
    path: Bell String 2 Front
    classID: 224
    script: {fileID: 0}
  - curve:
      serializedVersion: 2
      m_Curve:
      - serializedVersion: 2
        time: 0
        value: 0
        inSlope: 0
        outSlope: 0
        tangentMode: 0
      - serializedVersion: 2
        time: 2.8
        value: 0
        inSlope: 0
        outSlope: 0
        tangentMode: 34
      m_PreInfinity: 2
      m_PostInfinity: 2
      m_RotationOrder: 4
    attribute: localEulerAnglesRaw.y
    path: Bell String 2 Front
    classID: 224
    script: {fileID: 0}
  - curve:
      serializedVersion: 2
      m_Curve:
      - serializedVersion: 2
        time: 0
        value: -13
        inSlope: 0
        outSlope: 0
        tangentMode: 0
      - serializedVersion: 2
        time: 0.28333333
        value: 23.016819
        inSlope: 0
        outSlope: 0
        tangentMode: 0
      - serializedVersion: 2
        time: 0.7
        value: 3.409481
        inSlope: -31.888998
        outSlope: -31.888998
        tangentMode: 34
      - serializedVersion: 2
        time: 1.0833334
        value: -3
        inSlope: 0
        outSlope: 0
        tangentMode: 0
      - serializedVersion: 2
        time: 1.4333333
        value: 0.79396653
        inSlope: 7.1006002
        outSlope: 7.1006002
        tangentMode: 34
      - serializedVersion: 2
        time: 1.8333335
        value: 2.1384842
        inSlope: 0
        outSlope: 0
        tangentMode: 0
      - serializedVersion: 2
        time: 2.2333333
        value: 0.79396653
        inSlope: -7.3268857
        outSlope: -7.3268857
        tangentMode: 34
      - serializedVersion: 2
        time: 2.45
        value: -1.6527368
        inSlope: 0
        outSlope: 0
        tangentMode: 0
      - serializedVersion: 2
        time: 2.8
        value: -0.43478382
        inSlope: 2.8437781
        outSlope: 2.8437781
        tangentMode: 34
      - serializedVersion: 2
        time: 3.1666667
        value: 0.3747027
        inSlope: 0
        outSlope: 0
        tangentMode: 0
      m_PreInfinity: 2
      m_PostInfinity: 2
      m_RotationOrder: 4
    attribute: localEulerAnglesRaw.z
    path: Bell String 2 Front
    classID: 224
    script: {fileID: 0}
  - curve:
      serializedVersion: 2
      m_Curve:
      - serializedVersion: 2
        time: 0
        value: 0
        inSlope: 0
        outSlope: 0
        tangentMode: 0
      - serializedVersion: 2
        time: 2.8
        value: 0
        inSlope: 0
        outSlope: 0
        tangentMode: 34
      m_PreInfinity: 2
      m_PostInfinity: 2
      m_RotationOrder: 4
    attribute: localEulerAnglesRaw.x
    path: Bell String 1 Side
    classID: 224
    script: {fileID: 0}
  - curve:
      serializedVersion: 2
      m_Curve:
      - serializedVersion: 2
        time: 0
        value: 0
        inSlope: 0
        outSlope: 0
        tangentMode: 0
      - serializedVersion: 2
        time: 2.8
        value: 0
        inSlope: 0
        outSlope: 0
        tangentMode: 34
      m_PreInfinity: 2
      m_PostInfinity: 2
      m_RotationOrder: 4
    attribute: localEulerAnglesRaw.y
    path: Bell String 1 Side
    classID: 224
    script: {fileID: 0}
  - curve:
      serializedVersion: 2
      m_Curve:
      - serializedVersion: 2
        time: 0
        value: -10
        inSlope: 0
        outSlope: 0
        tangentMode: 0
      - serializedVersion: 2
        time: 0.28333333
        value: 20.016819
        inSlope: 0
        outSlope: 0
        tangentMode: 0
      - serializedVersion: 2
        time: 0.7
        value: 3.4065175
        inSlope: -25.679995
        outSlope: -25.679995
        tangentMode: 34
      - serializedVersion: 2
        time: 1.0833334
        value: -1
        inSlope: 0
        outSlope: 0
        tangentMode: 0
      - serializedVersion: 2
        time: 1.4333333
        value: 0.79396653
        inSlope: 2.6790566
        outSlope: 2.6790566
        tangentMode: 34
      - serializedVersion: 2
        time: 1.8333335
        value: 0.88696384
        inSlope: 0
        outSlope: 0
        tangentMode: 0
      - serializedVersion: 2
        time: 2.2333333
        value: 0.79396653
        inSlope: -3.2198126
        outSlope: -3.2198126
        tangentMode: 34
      - serializedVersion: 2
        time: 2.45
        value: -0.55091226
        inSlope: 0
        outSlope: 0
        tangentMode: 0
      - serializedVersion: 2
        time: 2.8
        value: -0.36827898
        inSlope: 0.4264274
        outSlope: 0.4264274
        tangentMode: 34
      - serializedVersion: 2
        time: 3.1666667
        value: -0.24689567
        inSlope: 0
        outSlope: 0
        tangentMode: 0
      m_PreInfinity: 2
      m_PostInfinity: 2
      m_RotationOrder: 4
    attribute: localEulerAnglesRaw.z
    path: Bell String 1 Side
    classID: 224
    script: {fileID: 0}
  - curve:
      serializedVersion: 2
      m_Curve:
      - serializedVersion: 2
        time: 0
        value: 0
        inSlope: 0
        outSlope: 0
        tangentMode: 0
      - serializedVersion: 2
        time: 2.8
        value: 0
        inSlope: 0
        outSlope: 0
        tangentMode: 34
      m_PreInfinity: 2
      m_PostInfinity: 2
      m_RotationOrder: 4
    attribute: localEulerAnglesRaw.x
    path: Bell String Body Inside
    classID: 224
    script: {fileID: 0}
  - curve:
      serializedVersion: 2
      m_Curve:
      - serializedVersion: 2
        time: 0
        value: 0
        inSlope: 0
        outSlope: 0
        tangentMode: 0
      - serializedVersion: 2
        time: 2.8
        value: 0
        inSlope: 0
        outSlope: 0
        tangentMode: 34
      m_PreInfinity: 2
      m_PostInfinity: 2
      m_RotationOrder: 4
    attribute: localEulerAnglesRaw.y
    path: Bell String Body Inside
    classID: 224
    script: {fileID: 0}
  - curve:
      serializedVersion: 2
      m_Curve:
      - serializedVersion: 2
        time: 0
        value: -27
        inSlope: 0
        outSlope: 0
        tangentMode: 0
      - serializedVersion: 2
        time: 0.28333333
        value: 37.01682
        inSlope: 0
        outSlope: 0
        tangentMode: 0
      - serializedVersion: 2
        time: 0.7
        value: 3.0236988
        inSlope: -128.85036
        outSlope: -128.85036
        tangentMode: 0
      - serializedVersion: 2
        time: 1.0333333
        value: -23.862059
        inSlope: 0
        outSlope: 0
        tangentMode: 0
      - serializedVersion: 2
        time: 1.4
        value: -4.521509
        inSlope: 84.7773
        outSlope: 84.7773
        tangentMode: 0
      - serializedVersion: 2
        time: 1.8333334
        value: 10.444138
        inSlope: 0
        outSlope: 0
        tangentMode: 0
      - serializedVersion: 2
        time: 2.1833334
        value: 1.0250746
        inSlope: -46.661777
        outSlope: -46.661777
        tangentMode: 0
      - serializedVersion: 2
        time: 2.45
        value: -5.0687633
        inSlope: 0
        outSlope: 0
        tangentMode: 0
      - serializedVersion: 2
        time: 2.8
        value: -0.19338226
        inSlope: 13.687456
        outSlope: 13.687456
        tangentMode: 34
      - serializedVersion: 2
        time: 3.1666667
        value: 4.7365437
        inSlope: 0
        outSlope: 0
        tangentMode: 0
      m_PreInfinity: 2
      m_PostInfinity: 2
      m_RotationOrder: 4
    attribute: localEulerAnglesRaw.z
    path: Bell String Body Inside
    classID: 224
    script: {fileID: 0}
  - curve:
      serializedVersion: 2
      m_Curve:
      - serializedVersion: 2
        time: 0
        value: 0
        inSlope: 0
        outSlope: 0
        tangentMode: 34
      - serializedVersion: 2
        time: 0.38333333
        value: 0
        inSlope: 0
        outSlope: 0
        tangentMode: 34
      m_PreInfinity: 2
      m_PostInfinity: 2
      m_RotationOrder: 4
    attribute: localEulerAnglesRaw.x
    path: Bell String Body Inside/Bell String Body Dinger
    classID: 224
    script: {fileID: 0}
  - curve:
      serializedVersion: 2
      m_Curve:
      - serializedVersion: 2
        time: 0
        value: 0
        inSlope: 0
        outSlope: 0
        tangentMode: 34
      - serializedVersion: 2
        time: 0.38333333
        value: 0
        inSlope: 0
        outSlope: 0
        tangentMode: 34
      m_PreInfinity: 2
      m_PostInfinity: 2
      m_RotationOrder: 4
    attribute: localEulerAnglesRaw.y
    path: Bell String Body Inside/Bell String Body Dinger
    classID: 224
    script: {fileID: 0}
  - curve:
      serializedVersion: 2
      m_Curve:
      - serializedVersion: 2
        time: 0
        value: 0
        inSlope: 0.00002203435
        outSlope: -0
        tangentMode: 69
      - serializedVersion: 2
        time: 0.05
        value: 0
        inSlope: 0
        outSlope: 68.12526
        tangentMode: 69
      - serializedVersion: 2
        time: 0.45
        value: 27.250103
        inSlope: 68.12526
        outSlope: -151.49121
        tangentMode: 5
      - serializedVersion: 2
        time: 1.3
        value: -49.912617
        inSlope: -144.34013
        outSlope: 129.3645
        tangentMode: 1
      - serializedVersion: 2
        time: 2.15
        value: 26.94143
        inSlope: 0
        outSlope: 0
        tangentMode: 0
      - serializedVersion: 2
        time: 2.8333333
        value: -7.7003007
        inSlope: 0
        outSlope: 0
        tangentMode: 0
      - serializedVersion: 2
        time: 3.1666667
        value: 8.480951
        inSlope: 48.54373
        outSlope: 0
        tangentMode: 69
      m_PreInfinity: 2
      m_PostInfinity: 2
      m_RotationOrder: 4
    attribute: localEulerAnglesRaw.z
    path: Bell String Body Inside/Bell String Body Dinger
    classID: 224
    script: {fileID: 0}
  - curve:
      serializedVersion: 2
      m_Curve:
      - serializedVersion: 2
        time: 0
        value: -0.3
        inSlope: -3.717098
        outSlope: -14.782922
        tangentMode: 1
      - serializedVersion: 2
        time: 0.53333336
        value: -2.2824523
        inSlope: 0.6466627
        outSlope: 0.6466627
        tangentMode: 0
      - serializedVersion: 2
        time: 1
        value: 11.1
        inSlope: 28.676685
        outSlope: -0.5538968
        tangentMode: 5
      - serializedVersion: 2
        time: 1.3166667
        value: 9.218873
        inSlope: -20.476042
        outSlope: -20.476042
        tangentMode: 0
      - serializedVersion: 2
        time: 1.6333333
        value: -2.4904375
        inSlope: -9.285327
        outSlope: -9.285327
        tangentMode: 0
      - serializedVersion: 2
        time: 2.05
        value: -2.5940921
        inSlope: 11.370423
        outSlope: 11.370423
        tangentMode: 0
      - serializedVersion: 2
        time: 2.6833334
        value: 0.9687718
        inSlope: 0
        outSlope: 0
        tangentMode: 0
      m_PreInfinity: 2
      m_PostInfinity: 2
      m_RotationOrder: 4
    attribute: m_AnchoredPosition.x
    path: Bell String Body Inside
    classID: 224
    script: {fileID: 0}
  - curve:
      serializedVersion: 2
      m_Curve:
      - serializedVersion: 2
        time: 0
        value: 284.1999
        inSlope: -2.295998
        outSlope: -2.295998
        tangentMode: 34
      - serializedVersion: 2
        time: 0.6333333
        value: 282.74576
        inSlope: -0.7661404
        outSlope: -0.7661404
        tangentMode: 0
      - serializedVersion: 2
        time: 1.15
        value: 281.33307
        inSlope: -5.1879883
        outSlope: -5.1879883
        tangentMode: 0
      - serializedVersion: 2
        time: 1.35
        value: 283.4108
        inSlope: 0
        outSlope: 0
        tangentMode: 0
      - serializedVersion: 2
        time: 1.45
        value: 283.42908
        inSlope: 0
        outSlope: 0
        tangentMode: 0
      - serializedVersion: 2
        time: 1.7833333
        value: 281.9576
        inSlope: 0
        outSlope: 0
        tangentMode: 0
      - serializedVersion: 2
        time: 2.4166667
        value: 282.81827
        inSlope: 0
        outSlope: 0
        tangentMode: 0
      m_PreInfinity: 2
      m_PostInfinity: 2
      m_RotationOrder: 4
    attribute: m_AnchoredPosition.y
    path: Bell String Body Inside
    classID: 224
    script: {fileID: 0}
  m_EulerEditorCurves:
  - curve:
      serializedVersion: 2
      m_Curve: []
      m_PreInfinity: 2
      m_PostInfinity: 2
      m_RotationOrder: 4
    attribute: m_LocalEulerAngles.z
    path: Bell String 2 Front
    classID: 224
    script: {fileID: 0}
  - curve:
      serializedVersion: 2
      m_Curve: []
      m_PreInfinity: 2
      m_PostInfinity: 2
      m_RotationOrder: 4
    attribute: m_LocalEulerAngles.y
    path: Bell String 2 Front
    classID: 224
    script: {fileID: 0}
  - curve:
      serializedVersion: 2
      m_Curve: []
      m_PreInfinity: 2
      m_PostInfinity: 2
      m_RotationOrder: 4
    attribute: m_LocalEulerAngles.x
    path: Bell String 2 Front
    classID: 224
    script: {fileID: 0}
  - curve:
      serializedVersion: 2
      m_Curve: []
      m_PreInfinity: 2
      m_PostInfinity: 2
      m_RotationOrder: 4
    attribute: m_LocalEulerAngles.z
    path: Bell String 3 Side
    classID: 224
    script: {fileID: 0}
  - curve:
      serializedVersion: 2
      m_Curve: []
      m_PreInfinity: 2
      m_PostInfinity: 2
      m_RotationOrder: 4
    attribute: m_LocalEulerAngles.y
    path: Bell String 3 Side
    classID: 224
    script: {fileID: 0}
  - curve:
      serializedVersion: 2
      m_Curve: []
      m_PreInfinity: 2
      m_PostInfinity: 2
      m_RotationOrder: 4
    attribute: m_LocalEulerAngles.x
    path: Bell String 3 Side
    classID: 224
    script: {fileID: 0}
  - curve:
      serializedVersion: 2
      m_Curve: []
      m_PreInfinity: 2
      m_PostInfinity: 2
      m_RotationOrder: 4
    attribute: m_LocalEulerAngles.z
    path: Bell String 6 Front
    classID: 224
    script: {fileID: 0}
  - curve:
      serializedVersion: 2
      m_Curve: []
      m_PreInfinity: 2
      m_PostInfinity: 2
      m_RotationOrder: 4
    attribute: m_LocalEulerAngles.y
    path: Bell String 6 Front
    classID: 224
    script: {fileID: 0}
  - curve:
      serializedVersion: 2
      m_Curve: []
      m_PreInfinity: 2
      m_PostInfinity: 2
      m_RotationOrder: 4
    attribute: m_LocalEulerAngles.x
    path: Bell String 6 Front
    classID: 224
    script: {fileID: 0}
  - curve:
      serializedVersion: 2
      m_Curve: []
      m_PreInfinity: 2
      m_PostInfinity: 2
      m_RotationOrder: 4
    attribute: m_LocalEulerAngles.z
    path: Bell String 1 Side
    classID: 224
    script: {fileID: 0}
  - curve:
      serializedVersion: 2
      m_Curve: []
      m_PreInfinity: 2
      m_PostInfinity: 2
      m_RotationOrder: 4
    attribute: m_LocalEulerAngles.y
    path: Bell String 1 Side
    classID: 224
    script: {fileID: 0}
  - curve:
      serializedVersion: 2
      m_Curve: []
      m_PreInfinity: 2
      m_PostInfinity: 2
      m_RotationOrder: 4
    attribute: m_LocalEulerAngles.x
    path: Bell String 1 Side
    classID: 224
    script: {fileID: 0}
  - curve:
      serializedVersion: 2
      m_Curve: []
      m_PreInfinity: 2
      m_PostInfinity: 2
      m_RotationOrder: 4
    attribute: m_LocalEulerAngles.z
    path: Bell String 4 Front
    classID: 224
    script: {fileID: 0}
  - curve:
      serializedVersion: 2
      m_Curve: []
      m_PreInfinity: 2
      m_PostInfinity: 2
      m_RotationOrder: 4
    attribute: m_LocalEulerAngles.y
    path: Bell String 4 Front
    classID: 224
    script: {fileID: 0}
  - curve:
      serializedVersion: 2
      m_Curve: []
      m_PreInfinity: 2
      m_PostInfinity: 2
      m_RotationOrder: 4
    attribute: m_LocalEulerAngles.x
    path: Bell String 4 Front
    classID: 224
    script: {fileID: 0}
  - curve:
      serializedVersion: 2
      m_Curve: []
      m_PreInfinity: 2
      m_PostInfinity: 2
      m_RotationOrder: 4
    attribute: m_LocalEulerAngles.z
    path: Bell String 5 Side
    classID: 224
    script: {fileID: 0}
  - curve:
      serializedVersion: 2
      m_Curve: []
      m_PreInfinity: 2
      m_PostInfinity: 2
      m_RotationOrder: 4
    attribute: m_LocalEulerAngles.y
    path: Bell String 5 Side
    classID: 224
    script: {fileID: 0}
  - curve:
      serializedVersion: 2
      m_Curve: []
      m_PreInfinity: 2
      m_PostInfinity: 2
      m_RotationOrder: 4
    attribute: m_LocalEulerAngles.x
    path: Bell String 5 Side
    classID: 224
    script: {fileID: 0}
  - curve:
      serializedVersion: 2
      m_Curve: []
      m_PreInfinity: 2
      m_PostInfinity: 2
      m_RotationOrder: 4
    attribute: m_LocalEulerAngles.z
    path: Bell String Body Inside
    classID: 224
    script: {fileID: 0}
  - curve:
      serializedVersion: 2
      m_Curve: []
      m_PreInfinity: 2
      m_PostInfinity: 2
      m_RotationOrder: 4
    attribute: m_LocalEulerAngles.y
    path: Bell String Body Inside
    classID: 224
    script: {fileID: 0}
  - curve:
      serializedVersion: 2
      m_Curve: []
      m_PreInfinity: 2
      m_PostInfinity: 2
      m_RotationOrder: 4
    attribute: m_LocalEulerAngles.x
    path: Bell String Body Inside
    classID: 224
    script: {fileID: 0}
  - curve:
      serializedVersion: 2
      m_Curve: []
      m_PreInfinity: 2
      m_PostInfinity: 2
      m_RotationOrder: 4
    attribute: m_LocalEulerAngles.x
    path: Bell String Body Inside/Bell String Body Dinger
    classID: 224
    script: {fileID: 0}
  - curve:
      serializedVersion: 2
      m_Curve: []
      m_PreInfinity: 2
      m_PostInfinity: 2
      m_RotationOrder: 4
    attribute: m_LocalEulerAngles.y
    path: Bell String Body Inside/Bell String Body Dinger
    classID: 224
    script: {fileID: 0}
  - curve:
      serializedVersion: 2
      m_Curve: []
      m_PreInfinity: 2
      m_PostInfinity: 2
      m_RotationOrder: 4
    attribute: m_LocalEulerAngles.z
    path: Bell String Body Inside/Bell String Body Dinger
    classID: 224
    script: {fileID: 0}
  m_HasGenericRootTransform: 0
  m_HasMotionFloatCurves: 0
  m_GenerateMotionCurves: 0
  m_Events: []
