%YAML 1.1
%TAG !u! tag:unity3d.com,2011:
--- !u!74 &7400000
AnimationClip:
  m_ObjectHideFlags: 0
  m_PrefabParentObject: {fileID: 0}
  m_PrefabInternal: {fileID: 0}
  m_Name: HUD All DEATH Refill Anim 1 (Legacy)
  serializedVersion: 6
  m_Legacy: 1
  m_Compressed: 0
  m_UseHighQualityCurve: 1
  m_RotationCurves: []
  m_CompressedRotationCurves: []
  m_EulerCurves: []
  m_PositionCurves: []
  m_ScaleCurves: []
  m_FloatCurves:
  - curve:
      serializedVersion: 2
      m_Curve:
      - serializedVersion: 2
        time: 0
        value: -100
        inSlope: 0
        outSlope: 0
        tangentMode: 97
      - serializedVersion: 2
        time: 0.7333333
        value: -100
        inSlope: Infinity
        outSlope: 351.49942
        tangentMode: 71
      - serializedVersion: 2
        time: 0.95
        value: -23.841782
        inSlope: 0
        outSlope: 0
        tangentMode: 0
      - serializedVersion: 2
        time: 1.0999999
        value: -37.6
        inSlope: 0
        outSlope: 0
        tangentMode: 0
      m_PreInfinity: 2
      m_PostInfinity: 2
      m_RotationOrder: 4
    attribute: m_AnchoredPosition.y
    path: Power Up Stuff/Power Ups Parent/PU 1 Parent (1000 Fists)/PU 1 Stacks Parent/PU
      1 Stack Actual (1)
    classID: 224
    script: {fileID: 0}
  - curve:
      serializedVersion: 2
      m_Curve:
      - serializedVersion: 2
        time: 0
        value: -100
        inSlope: 0
        outSlope: 0
        tangentMode: 97
      - serializedVersion: 2
        time: 0.76666665
        value: -100
        inSlope: Infinity
        outSlope: 351.4995
        tangentMode: 71
      - serializedVersion: 2
        time: 0.9833333
        value: -23.841782
        inSlope: 0
        outSlope: 0
        tangentMode: 0
      - serializedVersion: 2
        time: 1.1333332
        value: -37.6
        inSlope: 0
        outSlope: 0
        tangentMode: 0
      m_PreInfinity: 2
      m_PostInfinity: 2
      m_RotationOrder: 4
    attribute: m_AnchoredPosition.y
    path: Power Up Stuff/Power Ups Parent/PU 1 Parent (1000 Fists)/PU 1 Stacks Parent/PU
      1 Stack Actual (2)
    classID: 224
    script: {fileID: 0}
  - curve:
      serializedVersion: 2
      m_Curve:
      - serializedVersion: 2
        time: 0
        value: -100
        inSlope: 0
        outSlope: 0
        tangentMode: 97
      - serializedVersion: 2
        time: 0.79999995
        value: -100
        inSlope: Infinity
        outSlope: 351.49942
        tangentMode: 71
      - serializedVersion: 2
        time: 1.0166667
        value: -23.841782
        inSlope: 0
        outSlope: 0
        tangentMode: 0
      - serializedVersion: 2
        time: 1.1666667
        value: -37.6
        inSlope: 0
        outSlope: 0
        tangentMode: 0
      m_PreInfinity: 2
      m_PostInfinity: 2
      m_RotationOrder: 4
    attribute: m_AnchoredPosition.y
    path: Power Up Stuff/Power Ups Parent/PU 1 Parent (1000 Fists)/PU 1 Stacks Parent/PU
      1 Stack Actual (3)
    classID: 224
    script: {fileID: 0}
  - curve:
      serializedVersion: 2
      m_Curve:
      - serializedVersion: 2
        time: 0
        value: -100
        inSlope: 0
        outSlope: 0
        tangentMode: 97
      - serializedVersion: 2
        time: 0.8333333
        value: -100
        inSlope: Infinity
        outSlope: 351.4995
        tangentMode: 71
      - serializedVersion: 2
        time: 1.05
        value: -23.841782
        inSlope: 0
        outSlope: 0
        tangentMode: 0
      - serializedVersion: 2
        time: 1.2
        value: -37.6
        inSlope: 0
        outSlope: 0
        tangentMode: 0
      m_PreInfinity: 2
      m_PostInfinity: 2
      m_RotationOrder: 4
    attribute: m_AnchoredPosition.y
    path: Power Up Stuff/Power Ups Parent/PU 1 Parent (1000 Fists)/PU 1 Stacks Parent/PU
      1 Stack Actual (4)
    classID: 224
    script: {fileID: 0}
  - curve:
      serializedVersion: 2
      m_Curve:
      - serializedVersion: 2
        time: 0
        value: -100
        inSlope: 0
        outSlope: 0
        tangentMode: 97
      - serializedVersion: 2
        time: 0.73333335
        value: -100
        inSlope: Infinity
        outSlope: 351.49942
        tangentMode: 71
      - serializedVersion: 2
        time: 0.95000005
        value: -23.841782
        inSlope: 0
        outSlope: 0
        tangentMode: 0
      - serializedVersion: 2
        time: 1.1
        value: -37.6
        inSlope: 0
        outSlope: 0
        tangentMode: 0
      m_PreInfinity: 2
      m_PostInfinity: 2
      m_RotationOrder: 4
    attribute: m_AnchoredPosition.y
    path: Power Up Stuff/Power Ups Parent/PU 2 Parent (Invulnerability)/PU 2 Stacks
      Parent/PU 2 Stack Actual (1)
    classID: 224
    script: {fileID: 0}
  - curve:
      serializedVersion: 2
      m_Curve:
      - serializedVersion: 2
        time: 0
        value: -100
        inSlope: 0
        outSlope: 0
        tangentMode: 97
      - serializedVersion: 2
        time: 0.7666667
        value: -100
        inSlope: Infinity
        outSlope: 351.4995
        tangentMode: 71
      - serializedVersion: 2
        time: 0.98333335
        value: -23.841782
        inSlope: 0
        outSlope: 0
        tangentMode: 0
      - serializedVersion: 2
        time: 1.1333333
        value: -37.6
        inSlope: 0
        outSlope: 0
        tangentMode: 0
      m_PreInfinity: 2
      m_PostInfinity: 2
      m_RotationOrder: 4
    attribute: m_AnchoredPosition.y
    path: Power Up Stuff/Power Ups Parent/PU 2 Parent (Invulnerability)/PU 2 Stacks
      Parent/PU 2 Stack Actual (2)
    classID: 224
    script: {fileID: 0}
  - curve:
      serializedVersion: 2
      m_Curve:
      - serializedVersion: 2
        time: 0
        value: -100
        inSlope: 0
        outSlope: 0
        tangentMode: 97
      - serializedVersion: 2
        time: 0.8
        value: -100
        inSlope: Infinity
        outSlope: 351.4995
        tangentMode: 71
      - serializedVersion: 2
        time: 1.0166667
        value: -23.841782
        inSlope: 0
        outSlope: 0
        tangentMode: 0
      - serializedVersion: 2
        time: 1.1666667
        value: -37.6
        inSlope: 0
        outSlope: 0
        tangentMode: 0
      m_PreInfinity: 2
      m_PostInfinity: 2
      m_RotationOrder: 4
    attribute: m_AnchoredPosition.y
    path: Power Up Stuff/Power Ups Parent/PU 2 Parent (Invulnerability)/PU 2 Stacks
      Parent/PU 2 Stack Actual (3)
    classID: 224
    script: {fileID: 0}
  - curve:
      serializedVersion: 2
      m_Curve:
      - serializedVersion: 2
        time: 0
        value: -100
        inSlope: 0
        outSlope: 0
        tangentMode: 97
      - serializedVersion: 2
        time: 0.8333334
        value: -100
        inSlope: Infinity
        outSlope: 351.4996
        tangentMode: 71
      - serializedVersion: 2
        time: 1.05
        value: -23.841782
        inSlope: 0
        outSlope: 0
        tangentMode: 0
      - serializedVersion: 2
        time: 1.2
        value: -37.6
        inSlope: 0
        outSlope: 0
        tangentMode: 0
      m_PreInfinity: 2
      m_PostInfinity: 2
      m_RotationOrder: 4
    attribute: m_AnchoredPosition.y
    path: Power Up Stuff/Power Ups Parent/PU 2 Parent (Invulnerability)/PU 2 Stacks
      Parent/PU 2 Stack Actual (4)
    classID: 224
    script: {fileID: 0}
  - curve:
      serializedVersion: 2
      m_Curve:
      - serializedVersion: 2
        time: 0
        value: -150
        inSlope: 0
        outSlope: -0
        tangentMode: 65
      - serializedVersion: 2
        time: 0.5833333
        value: -150
        inSlope: 0
        outSlope: 680.27673
        tangentMode: 69
      - serializedVersion: 2
        time: 0.8333333
        value: 20.069191
        inSlope: 0
        outSlope: 0
        tangentMode: 0
      - serializedVersion: 2
        time: 1
        value: 0
        inSlope: 0
        outSlope: 0
        tangentMode: 0
      - serializedVersion: 2
        time: 1.25
        value: 0
        inSlope: 0
        outSlope: 0
        tangentMode: 34
      m_PreInfinity: 2
      m_PostInfinity: 2
      m_RotationOrder: 4
    attribute: m_AnchoredPosition.y
    path: Power Up Stuff/Power Ups Parent/PU 1 Parent (1000 Fists)/PU 1 Hair Parent
    classID: 224
    script: {fileID: 0}
  - curve:
      serializedVersion: 2
      m_Curve:
      - serializedVersion: 2
        time: 0
        value: -150
        inSlope: 0
        outSlope: -0
        tangentMode: 65
      - serializedVersion: 2
        time: 0.5833333
        value: -150
        inSlope: 0
        outSlope: 680.27673
        tangentMode: 69
      - serializedVersion: 2
        time: 0.8333333
        value: 20.069191
        inSlope: 0
        outSlope: 0
        tangentMode: 0
      - serializedVersion: 2
        time: 1
        value: 0
        inSlope: 0
        outSlope: 0
        tangentMode: 0
      - serializedVersion: 2
        time: 1.25
        value: 0
        inSlope: 0
        outSlope: 0
        tangentMode: 34
      m_PreInfinity: 2
      m_PostInfinity: 2
      m_RotationOrder: 4
    attribute: m_AnchoredPosition.y
    path: Power Up Stuff/Power Ups Parent/PU 2 Parent (Invulnerability)/PU 2 Hair
      Parent
    classID: 224
    script: {fileID: 0}
  - curve:
      serializedVersion: 2
      m_Curve:
      - serializedVersion: 2
        time: 0
        value: -100
        inSlope: 0
        outSlope: 0
        tangentMode: 97
      - serializedVersion: 2
        time: 0.85
        value: -100
        inSlope: Infinity
        outSlope: 760.5877
        tangentMode: 71
      - serializedVersion: 2
        time: 1
        value: 14.088142
        inSlope: 0
        outSlope: 0
        tangentMode: 0
      - serializedVersion: 2
        time: 1.2333333
        value: 0
        inSlope: 0
        outSlope: 0
        tangentMode: 0
      m_PreInfinity: 2
      m_PostInfinity: 2
      m_RotationOrder: 4
    attribute: m_AnchoredPosition.y
    path: Pause Parent
    classID: 224
    script: {fileID: 0}
  - curve:
      serializedVersion: 2
      m_Curve:
      - serializedVersion: 2
        time: 0
        value: -150
        inSlope: 0
        outSlope: -0
        tangentMode: 65
      - serializedVersion: 2
        time: 0.6
        value: -150
        inSlope: 0
        outSlope: 784.9348
        tangentMode: 69
      - serializedVersion: 2
        time: 0.81666666
        value: 20.069191
        inSlope: 0
        outSlope: 0
        tangentMode: 0
      - serializedVersion: 2
        time: 0.96666664
        value: 0
        inSlope: 0
        outSlope: 0
        tangentMode: 0
      m_PreInfinity: 2
      m_PostInfinity: 2
      m_RotationOrder: 4
    attribute: m_AnchoredPosition.y
    path: Power Up Stuff/Power Ups Parent/PU 1 Parent (1000 Fists)/PU 1 Button Front
    classID: 224
    script: {fileID: 0}
  - curve:
      serializedVersion: 2
      m_Curve:
      - serializedVersion: 2
        time: 0
        value: -100
        inSlope: 0
        outSlope: 0
        tangentMode: 97
      - serializedVersion: 2
        time: 0.7
        value: -100
        inSlope: Infinity
        outSlope: 351.49942
        tangentMode: 71
      - serializedVersion: 2
        time: 0.9166667
        value: -23.841782
        inSlope: 0
        outSlope: 0
        tangentMode: 0
      - serializedVersion: 2
        time: 1.0666666
        value: -37.6
        inSlope: 0
        outSlope: 0
        tangentMode: 0
      m_PreInfinity: 2
      m_PostInfinity: 2
      m_RotationOrder: 4
    attribute: m_AnchoredPosition.y
    path: Power Up Stuff/Power Ups Parent/PU 1 Parent (1000 Fists)/PU 1 Stacks Parent/PU
      1 Stack Actual (0)
    classID: 224
    script: {fileID: 0}
  - curve:
      serializedVersion: 2
      m_Curve:
      - serializedVersion: 2
        time: 0
        value: -100
        inSlope: 0
        outSlope: 0
        tangentMode: 97
      - serializedVersion: 2
        time: 0.7
        value: -100
        inSlope: Infinity
        outSlope: 351.49942
        tangentMode: 71
      - serializedVersion: 2
        time: 0.9166667
        value: -23.841782
        inSlope: 0
        outSlope: 0
        tangentMode: 0
      - serializedVersion: 2
        time: 1.0666666
        value: -37.6
        inSlope: 0
        outSlope: 0
        tangentMode: 0
      m_PreInfinity: 2
      m_PostInfinity: 2
      m_RotationOrder: 4
    attribute: m_AnchoredPosition.y
    path: Power Up Stuff/Power Ups Parent/PU 2 Parent (Invulnerability)/PU 2 Stacks
      Parent/PU 2 Stack Actual (0)
    classID: 224
    script: {fileID: 0}
  - curve:
      serializedVersion: 2
      m_Curve:
      - serializedVersion: 2
        time: 0
        value: -150
        inSlope: 0
        outSlope: -0
        tangentMode: 65
      - serializedVersion: 2
        time: 0.6
        value: -150
        inSlope: 0
        outSlope: 784.9348
        tangentMode: 69
      - serializedVersion: 2
        time: 0.81666666
        value: 20.069191
        inSlope: 0
        outSlope: 0
        tangentMode: 0
      - serializedVersion: 2
        time: 0.96666664
        value: 0
        inSlope: 0
        outSlope: 0
        tangentMode: 0
      m_PreInfinity: 2
      m_PostInfinity: 2
      m_RotationOrder: 4
    attribute: m_AnchoredPosition.y
    path: Power Up Stuff/Power Ups Parent/PU 2 Parent (Invulnerability)/PU 2 Button
      Front
    classID: 224
    script: {fileID: 0}
  - curve:
      serializedVersion: 2
      m_Curve:
      - serializedVersion: 2
        time: 0
        value: -598
        inSlope: 0
        outSlope: 0
        tangentMode: 0
      - serializedVersion: 2
        time: 0.05
        value: -598
        inSlope: 0
        outSlope: 851.3366
        tangentMode: 1
      - serializedVersion: 2
        time: 0.26666668
        value: -428.3596
        inSlope: 0
        outSlope: 0
        tangentMode: 0
      - serializedVersion: 2
        time: 0.33333334
        value: -434.66537
        inSlope: 0
        outSlope: 0
        tangentMode: 0
      - serializedVersion: 2
        time: 0.4
        value: -430.4
        inSlope: 0
        outSlope: 0
        tangentMode: 0
      m_PreInfinity: 2
      m_PostInfinity: 2
      m_RotationOrder: 4
    attribute: m_AnchoredPosition.x
    path: HP Parent/HP Mover Parent
    classID: 224
    script: {fileID: 0}
  m_PPtrCurves: []
  m_SampleRate: 60
  m_WrapMode: 0
  m_Bounds:
    m_Center: {x: 0, y: 0, z: 0}
    m_Extent: {x: 0, y: 0, z: 0}
  m_ClipBindingConstant:
    genericBindings: []
    pptrCurveMapping: []
  m_AnimationClipSettings:
    serializedVersion: 2
    m_AdditiveReferencePoseClip: {fileID: 0}
    m_AdditiveReferencePoseTime: 0
    m_StartTime: 0
    m_StopTime: 1.25
    m_OrientationOffsetY: 0
    m_Level: 0
    m_CycleOffset: 0
    m_HasAdditiveReferencePose: 0
    m_LoopTime: 1
    m_LoopBlend: 0
    m_LoopBlendOrientation: 0
    m_LoopBlendPositionY: 0
    m_LoopBlendPositionXZ: 0
    m_KeepOriginalOrientation: 0
    m_KeepOriginalPositionY: 1
    m_KeepOriginalPositionXZ: 0
    m_HeightFromFeet: 0
    m_Mirror: 0
  m_EditorCurves:
  - curve:
      serializedVersion: 2
      m_Curve:
      - serializedVersion: 2
        time: 0
        value: -100
        inSlope: 0
        outSlope: 0
        tangentMode: 97
      - serializedVersion: 2
        time: 0.7333333
        value: -100
        inSlope: Infinity
        outSlope: 351.49942
        tangentMode: 71
      - serializedVersion: 2
        time: 0.95
        value: -23.841782
        inSlope: 0
        outSlope: 0
        tangentMode: 0
      - serializedVersion: 2
        time: 1.0999999
        value: -37.6
        inSlope: 0
        outSlope: 0
        tangentMode: 0
      m_PreInfinity: 2
      m_PostInfinity: 2
      m_RotationOrder: 4
    attribute: m_AnchoredPosition.y
    path: Power Up Stuff/Power Ups Parent/PU 1 Parent (1000 Fists)/PU 1 Stacks Parent/PU
      1 Stack Actual (1)
    classID: 224
    script: {fileID: 0}
  - curve:
      serializedVersion: 2
      m_Curve:
      - serializedVersion: 2
        time: 0
        value: -100
        inSlope: 0
        outSlope: 0
        tangentMode: 97
      - serializedVersion: 2
        time: 0.76666665
        value: -100
        inSlope: Infinity
        outSlope: 351.4995
        tangentMode: 71
      - serializedVersion: 2
        time: 0.9833333
        value: -23.841782
        inSlope: 0
        outSlope: 0
        tangentMode: 0
      - serializedVersion: 2
        time: 1.1333332
        value: -37.6
        inSlope: 0
        outSlope: 0
        tangentMode: 0
      m_PreInfinity: 2
      m_PostInfinity: 2
      m_RotationOrder: 4
    attribute: m_AnchoredPosition.y
    path: Power Up Stuff/Power Ups Parent/PU 1 Parent (1000 Fists)/PU 1 Stacks Parent/PU
      1 Stack Actual (2)
    classID: 224
    script: {fileID: 0}
  - curve:
      serializedVersion: 2
      m_Curve:
      - serializedVersion: 2
        time: 0
        value: -100
        inSlope: 0
        outSlope: 0
        tangentMode: 97
      - serializedVersion: 2
        time: 0.79999995
        value: -100
        inSlope: Infinity
        outSlope: 351.49942
        tangentMode: 71
      - serializedVersion: 2
        time: 1.0166667
        value: -23.841782
        inSlope: 0
        outSlope: 0
        tangentMode: 0
      - serializedVersion: 2
        time: 1.1666667
        value: -37.6
        inSlope: 0
        outSlope: 0
        tangentMode: 0
      m_PreInfinity: 2
      m_PostInfinity: 2
      m_RotationOrder: 4
    attribute: m_AnchoredPosition.y
    path: Power Up Stuff/Power Ups Parent/PU 1 Parent (1000 Fists)/PU 1 Stacks Parent/PU
      1 Stack Actual (3)
    classID: 224
    script: {fileID: 0}
  - curve:
      serializedVersion: 2
      m_Curve:
      - serializedVersion: 2
        time: 0
        value: -100
        inSlope: 0
        outSlope: 0
        tangentMode: 97
      - serializedVersion: 2
        time: 0.8333333
        value: -100
        inSlope: Infinity
        outSlope: 351.4995
        tangentMode: 71
      - serializedVersion: 2
        time: 1.05
        value: -23.841782
        inSlope: 0
        outSlope: 0
        tangentMode: 0
      - serializedVersion: 2
        time: 1.2
        value: -37.6
        inSlope: 0
        outSlope: 0
        tangentMode: 0
      m_PreInfinity: 2
      m_PostInfinity: 2
      m_RotationOrder: 4
    attribute: m_AnchoredPosition.y
    path: Power Up Stuff/Power Ups Parent/PU 1 Parent (1000 Fists)/PU 1 Stacks Parent/PU
      1 Stack Actual (4)
    classID: 224
    script: {fileID: 0}
  - curve:
      serializedVersion: 2
      m_Curve:
      - serializedVersion: 2
        time: 0
        value: -100
        inSlope: 0
        outSlope: 0
        tangentMode: 97
      - serializedVersion: 2
        time: 0.73333335
        value: -100
        inSlope: Infinity
        outSlope: 351.49942
        tangentMode: 71
      - serializedVersion: 2
        time: 0.95000005
        value: -23.841782
        inSlope: 0
        outSlope: 0
        tangentMode: 0
      - serializedVersion: 2
        time: 1.1
        value: -37.6
        inSlope: 0
        outSlope: 0
        tangentMode: 0
      m_PreInfinity: 2
      m_PostInfinity: 2
      m_RotationOrder: 4
    attribute: m_AnchoredPosition.y
    path: Power Up Stuff/Power Ups Parent/PU 2 Parent (Invulnerability)/PU 2 Stacks
      Parent/PU 2 Stack Actual (1)
    classID: 224
    script: {fileID: 0}
  - curve:
      serializedVersion: 2
      m_Curve:
      - serializedVersion: 2
        time: 0
        value: -100
        inSlope: 0
        outSlope: 0
        tangentMode: 97
      - serializedVersion: 2
        time: 0.7666667
        value: -100
        inSlope: Infinity
        outSlope: 351.4995
        tangentMode: 71
      - serializedVersion: 2
        time: 0.98333335
        value: -23.841782
        inSlope: 0
        outSlope: 0
        tangentMode: 0
      - serializedVersion: 2
        time: 1.1333333
        value: -37.6
        inSlope: 0
        outSlope: 0
        tangentMode: 0
      m_PreInfinity: 2
      m_PostInfinity: 2
      m_RotationOrder: 4
    attribute: m_AnchoredPosition.y
    path: Power Up Stuff/Power Ups Parent/PU 2 Parent (Invulnerability)/PU 2 Stacks
      Parent/PU 2 Stack Actual (2)
    classID: 224
    script: {fileID: 0}
  - curve:
      serializedVersion: 2
      m_Curve:
      - serializedVersion: 2
        time: 0
        value: -100
        inSlope: 0
        outSlope: 0
        tangentMode: 97
      - serializedVersion: 2
        time: 0.8
        value: -100
        inSlope: Infinity
        outSlope: 351.4995
        tangentMode: 71
      - serializedVersion: 2
        time: 1.0166667
        value: -23.841782
        inSlope: 0
        outSlope: 0
        tangentMode: 0
      - serializedVersion: 2
        time: 1.1666667
        value: -37.6
        inSlope: 0
        outSlope: 0
        tangentMode: 0
      m_PreInfinity: 2
      m_PostInfinity: 2
      m_RotationOrder: 4
    attribute: m_AnchoredPosition.y
    path: Power Up Stuff/Power Ups Parent/PU 2 Parent (Invulnerability)/PU 2 Stacks
      Parent/PU 2 Stack Actual (3)
    classID: 224
    script: {fileID: 0}
  - curve:
      serializedVersion: 2
      m_Curve:
      - serializedVersion: 2
        time: 0
        value: -100
        inSlope: 0
        outSlope: 0
        tangentMode: 97
      - serializedVersion: 2
        time: 0.8333334
        value: -100
        inSlope: Infinity
        outSlope: 351.4996
        tangentMode: 71
      - serializedVersion: 2
        time: 1.05
        value: -23.841782
        inSlope: 0
        outSlope: 0
        tangentMode: 0
      - serializedVersion: 2
        time: 1.2
        value: -37.6
        inSlope: 0
        outSlope: 0
        tangentMode: 0
      m_PreInfinity: 2
      m_PostInfinity: 2
      m_RotationOrder: 4
    attribute: m_AnchoredPosition.y
    path: Power Up Stuff/Power Ups Parent/PU 2 Parent (Invulnerability)/PU 2 Stacks
      Parent/PU 2 Stack Actual (4)
    classID: 224
    script: {fileID: 0}
  - curve:
      serializedVersion: 2
      m_Curve:
      - serializedVersion: 2
        time: 0
        value: -150
        inSlope: 0
        outSlope: -0
        tangentMode: 65
      - serializedVersion: 2
        time: 0.5833333
        value: -150
        inSlope: 0
        outSlope: 680.27673
        tangentMode: 69
      - serializedVersion: 2
        time: 0.8333333
        value: 20.069191
        inSlope: 0
        outSlope: 0
        tangentMode: 0
      - serializedVersion: 2
        time: 1
        value: 0
        inSlope: 0
        outSlope: 0
        tangentMode: 0
      - serializedVersion: 2
        time: 1.25
        value: 0
        inSlope: 0
        outSlope: 0
        tangentMode: 34
      m_PreInfinity: 2
      m_PostInfinity: 2
      m_RotationOrder: 4
    attribute: m_AnchoredPosition.y
    path: Power Up Stuff/Power Ups Parent/PU 1 Parent (1000 Fists)/PU 1 Hair Parent
    classID: 224
    script: {fileID: 0}
  - curve:
      serializedVersion: 2
      m_Curve:
      - serializedVersion: 2
        time: 0
        value: -150
        inSlope: 0
        outSlope: -0
        tangentMode: 65
      - serializedVersion: 2
        time: 0.5833333
        value: -150
        inSlope: 0
        outSlope: 680.27673
        tangentMode: 69
      - serializedVersion: 2
        time: 0.8333333
        value: 20.069191
        inSlope: 0
        outSlope: 0
        tangentMode: 0
      - serializedVersion: 2
        time: 1
        value: 0
        inSlope: 0
        outSlope: 0
        tangentMode: 0
      - serializedVersion: 2
        time: 1.25
        value: 0
        inSlope: 0
        outSlope: 0
        tangentMode: 34
      m_PreInfinity: 2
      m_PostInfinity: 2
      m_RotationOrder: 4
    attribute: m_AnchoredPosition.y
    path: Power Up Stuff/Power Ups Parent/PU 2 Parent (Invulnerability)/PU 2 Hair
      Parent
    classID: 224
    script: {fileID: 0}
  - curve:
      serializedVersion: 2
      m_Curve:
      - serializedVersion: 2
        time: 0
        value: -100
        inSlope: 0
        outSlope: 0
        tangentMode: 97
      - serializedVersion: 2
        time: 0.85
        value: -100
        inSlope: Infinity
        outSlope: 760.5877
        tangentMode: 71
      - serializedVersion: 2
        time: 1
        value: 14.088142
        inSlope: 0
        outSlope: 0
        tangentMode: 0
      - serializedVersion: 2
        time: 1.2333333
        value: 0
        inSlope: 0
        outSlope: 0
        tangentMode: 0
      m_PreInfinity: 2
      m_PostInfinity: 2
      m_RotationOrder: 4
    attribute: m_AnchoredPosition.y
    path: Pause Parent
    classID: 224
    script: {fileID: 0}
  - curve:
      serializedVersion: 2
      m_Curve:
      - serializedVersion: 2
        time: 0
        value: -150
        inSlope: 0
        outSlope: -0
        tangentMode: 65
      - serializedVersion: 2
        time: 0.6
        value: -150
        inSlope: 0
        outSlope: 784.9348
        tangentMode: 69
      - serializedVersion: 2
        time: 0.81666666
        value: 20.069191
        inSlope: 0
        outSlope: 0
        tangentMode: 0
      - serializedVersion: 2
        time: 0.96666664
        value: 0
        inSlope: 0
        outSlope: 0
        tangentMode: 0
      m_PreInfinity: 2
      m_PostInfinity: 2
      m_RotationOrder: 4
    attribute: m_AnchoredPosition.y
    path: Power Up Stuff/Power Ups Parent/PU 1 Parent (1000 Fists)/PU 1 Button Front
    classID: 224
    script: {fileID: 0}
  - curve:
      serializedVersion: 2
      m_Curve:
      - serializedVersion: 2
        time: 0
        value: -100
        inSlope: 0
        outSlope: 0
        tangentMode: 97
      - serializedVersion: 2
        time: 0.7
        value: -100
        inSlope: Infinity
        outSlope: 351.49942
        tangentMode: 71
      - serializedVersion: 2
        time: 0.9166667
        value: -23.841782
        inSlope: 0
        outSlope: 0
        tangentMode: 0
      - serializedVersion: 2
        time: 1.0666666
        value: -37.6
        inSlope: 0
        outSlope: 0
        tangentMode: 0
      m_PreInfinity: 2
      m_PostInfinity: 2
      m_RotationOrder: 4
    attribute: m_AnchoredPosition.y
    path: Power Up Stuff/Power Ups Parent/PU 1 Parent (1000 Fists)/PU 1 Stacks Parent/PU
      1 Stack Actual (0)
    classID: 224
    script: {fileID: 0}
  - curve:
      serializedVersion: 2
      m_Curve:
      - serializedVersion: 2
        time: 0
        value: -100
        inSlope: 0
        outSlope: 0
        tangentMode: 97
      - serializedVersion: 2
        time: 0.7
        value: -100
        inSlope: Infinity
        outSlope: 351.49942
        tangentMode: 71
      - serializedVersion: 2
        time: 0.9166667
        value: -23.841782
        inSlope: 0
        outSlope: 0
        tangentMode: 0
      - serializedVersion: 2
        time: 1.0666666
        value: -37.6
        inSlope: 0
        outSlope: 0
        tangentMode: 0
      m_PreInfinity: 2
      m_PostInfinity: 2
      m_RotationOrder: 4
    attribute: m_AnchoredPosition.y
    path: Power Up Stuff/Power Ups Parent/PU 2 Parent (Invulnerability)/PU 2 Stacks
      Parent/PU 2 Stack Actual (0)
    classID: 224
    script: {fileID: 0}
  - curve:
      serializedVersion: 2
      m_Curve:
      - serializedVersion: 2
        time: 0
        value: -150
        inSlope: 0
        outSlope: -0
        tangentMode: 65
      - serializedVersion: 2
        time: 0.6
        value: -150
        inSlope: 0
        outSlope: 784.9348
        tangentMode: 69
      - serializedVersion: 2
        time: 0.81666666
        value: 20.069191
        inSlope: 0
        outSlope: 0
        tangentMode: 0
      - serializedVersion: 2
        time: 0.96666664
        value: 0
        inSlope: 0
        outSlope: 0
        tangentMode: 0
      m_PreInfinity: 2
      m_PostInfinity: 2
      m_RotationOrder: 4
    attribute: m_AnchoredPosition.y
    path: Power Up Stuff/Power Ups Parent/PU 2 Parent (Invulnerability)/PU 2 Button
      Front
    classID: 224
    script: {fileID: 0}
  - curve:
      serializedVersion: 2
      m_Curve:
      - serializedVersion: 2
        time: 0
        value: -598
        inSlope: 0
        outSlope: 0
        tangentMode: 0
      - serializedVersion: 2
        time: 0.05
        value: -598
        inSlope: 0
        outSlope: 851.3366
        tangentMode: 1
      - serializedVersion: 2
        time: 0.26666668
        value: -428.3596
        inSlope: 0
        outSlope: 0
        tangentMode: 0
      - serializedVersion: 2
        time: 0.33333334
        value: -434.66537
        inSlope: 0
        outSlope: 0
        tangentMode: 0
      - serializedVersion: 2
        time: 0.4
        value: -430.4
        inSlope: 0
        outSlope: 0
        tangentMode: 0
      m_PreInfinity: 2
      m_PostInfinity: 2
      m_RotationOrder: 4
    attribute: m_AnchoredPosition.x
    path: HP Parent/HP Mover Parent
    classID: 224
    script: {fileID: 0}
  m_EulerEditorCurves: []
  m_HasGenericRootTransform: 0
  m_HasMotionFloatCurves: 0
  m_GenerateMotionCurves: 0
  m_Events: []
