%YAML 1.1
%TAG !u! tag:unity3d.com,2011:
--- !u!74 &7400000
AnimationClip:
  m_ObjectHideFlags: 0
  m_PrefabParentObject: {fileID: 0}
  m_PrefabInternal: {fileID: 0}
  m_Name: HUD Mustache PARENT TellGo Shop Anim 2 (Legacy)
  serializedVersion: 6
  m_Legacy: 1
  m_Compressed: 0
  m_UseHighQualityCurve: 1
  m_RotationCurves: []
  m_CompressedRotationCurves: []
  m_EulerCurves:
  - curve:
      serializedVersion: 2
      m_Curve:
      - serializedVersion: 2
        time: 0
        value: {x: 0, y: 0, z: 0}
        inSlope: {x: 0, y: 0, z: 65.78745}
        outSlope: {x: 0, y: 0, z: 65.78745}
        tangentMode: 0
      - serializedVersion: 2
        time: 0.05
        value: {x: 0, y: 0, z: 3.2893727}
        inSlope: {x: 0, y: 0, z: 65.78745}
        outSlope: {x: 0, y: 0, z: -68.27611}
        tangentMode: 0
      - serializedVersion: 2
        time: 0.13333334
        value: {x: 0, y: 0, z: -2.4003036}
        inSlope: {x: 0, y: 0, z: -68.27611}
        outSlope: {x: 0, y: 0, z: 59.035843}
        tangentMode: 0
      - serializedVersion: 2
        time: 0.21666667
        value: {x: 0, y: 0, z: 2.5193496}
        inSlope: {x: 0, y: 0, z: 59.035843}
        outSlope: {x: 0, y: 0, z: -44.16299}
        tangentMode: 0
      - serializedVersion: 2
        time: 0.31666666
        value: {x: 0, y: 0, z: -1.8969492}
        inSlope: {x: 0, y: 0, z: -44.16299}
        outSlope: {x: 0, y: 0, z: 27.626022}
        tangentMode: 0
      - serializedVersion: 2
        time: 0.43333334
        value: {x: 0, y: 0, z: 1.3260869}
        inSlope: {x: 0, y: 0, z: 27.626022}
        outSlope: {x: 0, y: 0, z: -18.212746}
        tangentMode: 0
      - serializedVersion: 2
        time: 0.56666666
        value: {x: 0, y: 0, z: -1.102279}
        inSlope: {x: 0, y: 0, z: -18.212746}
        outSlope: {x: 0, y: 0, z: 8.267089}
        tangentMode: 0
      - serializedVersion: 2
        time: 0.70000005
        value: {x: 0, y: 0, z: 0}
        inSlope: {x: 0, y: 0, z: 0}
        outSlope: {x: 0, y: 0, z: 0}
        tangentMode: 0
      m_PreInfinity: 2
      m_PostInfinity: 2
      m_RotationOrder: 4
    path: 
  m_PositionCurves: []
  m_ScaleCurves: []
  m_FloatCurves:
  - curve:
      serializedVersion: 2
      m_Curve:
      - serializedVersion: 2
        time: 0
        value: -415.3
        inSlope: -200
        outSlope: -87.057495
        tangentMode: 69
      - serializedVersion: 2
        time: 0.05
        value: -419.65286
        inSlope: -87.057495
        outSlope: 84.534294
        tangentMode: 69
      - serializedVersion: 2
        time: 0.13333334
        value: -412.60834
        inSlope: 84.534294
        outSlope: -76.137825
        tangentMode: 69
      - serializedVersion: 2
        time: 0.21666667
        value: -418.95316
        inSlope: -76.137825
        outSlope: 60.307926
        tangentMode: 69
      - serializedVersion: 2
        time: 0.31666666
        value: -412.92236
        inSlope: 60.307926
        outSlope: -39.546593
        tangentMode: 69
      - serializedVersion: 2
        time: 0.43333334
        value: -417.53613
        inSlope: -39.546593
        outSlope: 27.19321
        tangentMode: 69
      - serializedVersion: 2
        time: 0.5666667
        value: -413.91037
        inSlope: 27.19321
        outSlope: -10.422135
        tangentMode: 69
      - serializedVersion: 2
        time: 0.70000005
        value: -415.3
        inSlope: 0
        outSlope: 0
        tangentMode: 0
      - serializedVersion: 2
        time: 1.5
        value: -415.3
        inSlope: 0
        outSlope: 0
        tangentMode: 69
      m_PreInfinity: 2
      m_PostInfinity: 2
      m_RotationOrder: 4
    attribute: m_AnchoredPosition.x
    path: 
    classID: 224
    script: {fileID: 0}
  - curve:
      serializedVersion: 2
      m_Curve:
      - serializedVersion: 2
        time: 0
        value: -213.3
        inSlope: -200
        outSlope: -415.60638
        tangentMode: 69
      - serializedVersion: 2
        time: 0.05
        value: -234.08032
        inSlope: -415.60638
        outSlope: 454.17368
        tangentMode: 69
      - serializedVersion: 2
        time: 0.13333334
        value: -196.23251
        inSlope: 454.17368
        outSlope: -388.3973
        tangentMode: 69
      - serializedVersion: 2
        time: 0.21666667
        value: -228.59895
        inSlope: -388.3973
        outSlope: 280.66302
        tangentMode: 69
      - serializedVersion: 2
        time: 0.31666666
        value: -200.53265
        inSlope: 280.66302
        outSlope: -189.70143
        tangentMode: 69
      - serializedVersion: 2
        time: 0.43333334
        value: -222.66449
        inSlope: -189.70143
        outSlope: 117.81436
        tangentMode: 69
      - serializedVersion: 2
        time: 0.5666667
        value: -206.9559
        inSlope: 117.81436
        outSlope: -47.58076
        tangentMode: 69
      - serializedVersion: 2
        time: 0.70000005
        value: -213.3
        inSlope: 0
        outSlope: 0
        tangentMode: 0
      - serializedVersion: 2
        time: 1.5
        value: -213.3
        inSlope: 0
        outSlope: 0
        tangentMode: 69
      m_PreInfinity: 2
      m_PostInfinity: 2
      m_RotationOrder: 4
    attribute: m_AnchoredPosition.y
    path: 
    classID: 224
    script: {fileID: 0}
  - curve:
      serializedVersion: 2
      m_Curve:
      - serializedVersion: 2
        time: 0
        value: 0
        inSlope: Infinity
        outSlope: Infinity
        tangentMode: 103
      - serializedVersion: 2
        time: 0.11666667
        value: 1.0029851
        inSlope: Infinity
        outSlope: Infinity
        tangentMode: 103
      - serializedVersion: 2
        time: 0.21666667
        value: 0
        inSlope: Infinity
        outSlope: Infinity
        tangentMode: 103
      - serializedVersion: 2
        time: 0.33333334
        value: 1.0029851
        inSlope: Infinity
        outSlope: Infinity
        tangentMode: 103
      - serializedVersion: 2
        time: 0.43333334
        value: 0
        inSlope: Infinity
        outSlope: Infinity
        tangentMode: 103
      - serializedVersion: 2
        time: 0.55
        value: 1.0029851
        inSlope: Infinity
        outSlope: Infinity
        tangentMode: 103
      - serializedVersion: 2
        time: 0.65
        value: 0
        inSlope: Infinity
        outSlope: Infinity
        tangentMode: 103
      - serializedVersion: 2
        time: 0.76666665
        value: 1.0029851
        inSlope: Infinity
        outSlope: Infinity
        tangentMode: 103
      - serializedVersion: 2
        time: 0.8666667
        value: 0
        inSlope: Infinity
        outSlope: Infinity
        tangentMode: 103
      - serializedVersion: 2
        time: 1.5
        value: 0
        inSlope: Infinity
        outSlope: Infinity
        tangentMode: 103
      m_PreInfinity: 2
      m_PostInfinity: 2
      m_RotationOrder: 4
    attribute: m_IsActive
    path: Mustache Alarms Parent
    classID: 1
    script: {fileID: 0}
  m_PPtrCurves: []
  m_SampleRate: 60
  m_WrapMode: 0
  m_Bounds:
    m_Center: {x: 0, y: 0, z: 0}
    m_Extent: {x: 0, y: 0, z: 0}
  m_ClipBindingConstant:
    genericBindings: []
    pptrCurveMapping: []
  m_AnimationClipSettings:
    serializedVersion: 2
    m_AdditiveReferencePoseClip: {fileID: 0}
    m_AdditiveReferencePoseTime: 0
    m_StartTime: 0
    m_StopTime: 1.5
    m_OrientationOffsetY: 0
    m_Level: 0
    m_CycleOffset: 0
    m_HasAdditiveReferencePose: 0
    m_LoopTime: 1
    m_LoopBlend: 0
    m_LoopBlendOrientation: 0
    m_LoopBlendPositionY: 0
    m_LoopBlendPositionXZ: 0
    m_KeepOriginalOrientation: 0
    m_KeepOriginalPositionY: 1
    m_KeepOriginalPositionXZ: 0
    m_HeightFromFeet: 0
    m_Mirror: 0
  m_EditorCurves:
  - curve:
      serializedVersion: 2
      m_Curve:
      - serializedVersion: 2
        time: 0
        value: -415.3
        inSlope: -200
        outSlope: -87.057495
        tangentMode: 69
      - serializedVersion: 2
        time: 0.05
        value: -419.65286
        inSlope: -87.057495
        outSlope: 84.534294
        tangentMode: 69
      - serializedVersion: 2
        time: 0.13333334
        value: -412.60834
        inSlope: 84.534294
        outSlope: -76.137825
        tangentMode: 69
      - serializedVersion: 2
        time: 0.21666667
        value: -418.95316
        inSlope: -76.137825
        outSlope: 60.307926
        tangentMode: 69
      - serializedVersion: 2
        time: 0.31666666
        value: -412.92236
        inSlope: 60.307926
        outSlope: -39.546593
        tangentMode: 69
      - serializedVersion: 2
        time: 0.43333334
        value: -417.53613
        inSlope: -39.546593
        outSlope: 27.19321
        tangentMode: 69
      - serializedVersion: 2
        time: 0.5666667
        value: -413.91037
        inSlope: 27.19321
        outSlope: -10.422135
        tangentMode: 69
      - serializedVersion: 2
        time: 0.70000005
        value: -415.3
        inSlope: 0
        outSlope: 0
        tangentMode: 0
      - serializedVersion: 2
        time: 1.5
        value: -415.3
        inSlope: 0
        outSlope: 0
        tangentMode: 69
      m_PreInfinity: 2
      m_PostInfinity: 2
      m_RotationOrder: 4
    attribute: m_AnchoredPosition.x
    path: 
    classID: 224
    script: {fileID: 0}
  - curve:
      serializedVersion: 2
      m_Curve:
      - serializedVersion: 2
        time: 0
        value: -213.3
        inSlope: -200
        outSlope: -415.60638
        tangentMode: 69
      - serializedVersion: 2
        time: 0.05
        value: -234.08032
        inSlope: -415.60638
        outSlope: 454.17368
        tangentMode: 69
      - serializedVersion: 2
        time: 0.13333334
        value: -196.23251
        inSlope: 454.17368
        outSlope: -388.3973
        tangentMode: 69
      - serializedVersion: 2
        time: 0.21666667
        value: -228.59895
        inSlope: -388.3973
        outSlope: 280.66302
        tangentMode: 69
      - serializedVersion: 2
        time: 0.31666666
        value: -200.53265
        inSlope: 280.66302
        outSlope: -189.70143
        tangentMode: 69
      - serializedVersion: 2
        time: 0.43333334
        value: -222.66449
        inSlope: -189.70143
        outSlope: 117.81436
        tangentMode: 69
      - serializedVersion: 2
        time: 0.5666667
        value: -206.9559
        inSlope: 117.81436
        outSlope: -47.58076
        tangentMode: 69
      - serializedVersion: 2
        time: 0.70000005
        value: -213.3
        inSlope: 0
        outSlope: 0
        tangentMode: 0
      - serializedVersion: 2
        time: 1.5
        value: -213.3
        inSlope: 0
        outSlope: 0
        tangentMode: 69
      m_PreInfinity: 2
      m_PostInfinity: 2
      m_RotationOrder: 4
    attribute: m_AnchoredPosition.y
    path: 
    classID: 224
    script: {fileID: 0}
  - curve:
      serializedVersion: 2
      m_Curve:
      - serializedVersion: 2
        time: 0
        value: 0
        inSlope: Infinity
        outSlope: Infinity
        tangentMode: 103
      - serializedVersion: 2
        time: 0.11666667
        value: 1.0029851
        inSlope: Infinity
        outSlope: Infinity
        tangentMode: 103
      - serializedVersion: 2
        time: 0.21666667
        value: 0
        inSlope: Infinity
        outSlope: Infinity
        tangentMode: 103
      - serializedVersion: 2
        time: 0.33333334
        value: 1.0029851
        inSlope: Infinity
        outSlope: Infinity
        tangentMode: 103
      - serializedVersion: 2
        time: 0.43333334
        value: 0
        inSlope: Infinity
        outSlope: Infinity
        tangentMode: 103
      - serializedVersion: 2
        time: 0.55
        value: 1.0029851
        inSlope: Infinity
        outSlope: Infinity
        tangentMode: 103
      - serializedVersion: 2
        time: 0.65
        value: 0
        inSlope: Infinity
        outSlope: Infinity
        tangentMode: 103
      - serializedVersion: 2
        time: 0.76666665
        value: 1.0029851
        inSlope: Infinity
        outSlope: Infinity
        tangentMode: 103
      - serializedVersion: 2
        time: 0.8666667
        value: 0
        inSlope: Infinity
        outSlope: Infinity
        tangentMode: 103
      - serializedVersion: 2
        time: 1.5
        value: 0
        inSlope: Infinity
        outSlope: Infinity
        tangentMode: 103
      m_PreInfinity: 2
      m_PostInfinity: 2
      m_RotationOrder: 4
    attribute: m_IsActive
    path: Mustache Alarms Parent
    classID: 1
    script: {fileID: 0}
  - curve:
      serializedVersion: 2
      m_Curve:
      - serializedVersion: 2
        time: 0
        value: 0
        inSlope: 0
        outSlope: 0
        tangentMode: 34
      m_PreInfinity: 2
      m_PostInfinity: 2
      m_RotationOrder: 4
    attribute: localEulerAnglesRaw.x
    path: 
    classID: 224
    script: {fileID: 0}
  - curve:
      serializedVersion: 2
      m_Curve:
      - serializedVersion: 2
        time: 0
        value: 0
        inSlope: 0
        outSlope: 0
        tangentMode: 34
      m_PreInfinity: 2
      m_PostInfinity: 2
      m_RotationOrder: 4
    attribute: localEulerAnglesRaw.y
    path: 
    classID: 224
    script: {fileID: 0}
  - curve:
      serializedVersion: 2
      m_Curve:
      - serializedVersion: 2
        time: 0
        value: 0
        inSlope: 65.78745
        outSlope: 65.78745
        tangentMode: 34
      - serializedVersion: 2
        time: 0.05
        value: 3.2893727
        inSlope: 65.78745
        outSlope: -68.27611
        tangentMode: 69
      - serializedVersion: 2
        time: 0.13333334
        value: -2.4003036
        inSlope: -68.27611
        outSlope: 59.035843
        tangentMode: 69
      - serializedVersion: 2
        time: 0.21666667
        value: 2.5193496
        inSlope: 59.035843
        outSlope: -44.16299
        tangentMode: 69
      - serializedVersion: 2
        time: 0.31666666
        value: -1.8969492
        inSlope: -44.16299
        outSlope: 27.626022
        tangentMode: 69
      - serializedVersion: 2
        time: 0.43333334
        value: 1.3260869
        inSlope: 27.626022
        outSlope: -18.212746
        tangentMode: 69
      - serializedVersion: 2
        time: 0.56666666
        value: -1.102279
        inSlope: -18.212746
        outSlope: 8.267089
        tangentMode: 69
      - serializedVersion: 2
        time: 0.70000005
        value: 0
        inSlope: 0
        outSlope: 0
        tangentMode: 0
      m_PreInfinity: 2
      m_PostInfinity: 2
      m_RotationOrder: 4
    attribute: localEulerAnglesRaw.z
    path: 
    classID: 224
    script: {fileID: 0}
  m_EulerEditorCurves:
  - curve:
      serializedVersion: 2
      m_Curve: []
      m_PreInfinity: 2
      m_PostInfinity: 2
      m_RotationOrder: 4
    attribute: m_LocalEulerAngles.x
    path: 
    classID: 224
    script: {fileID: 0}
  - curve:
      serializedVersion: 2
      m_Curve: []
      m_PreInfinity: 2
      m_PostInfinity: 2
      m_RotationOrder: 4
    attribute: m_LocalEulerAngles.y
    path: 
    classID: 224
    script: {fileID: 0}
  - curve:
      serializedVersion: 2
      m_Curve: []
      m_PreInfinity: 2
      m_PostInfinity: 2
      m_RotationOrder: 4
    attribute: m_LocalEulerAngles.z
    path: 
    classID: 224
    script: {fileID: 0}
  m_HasGenericRootTransform: 0
  m_HasMotionFloatCurves: 0
  m_GenerateMotionCurves: 0
  m_Events: []
