%YAML 1.1
%TAG !u! tag:unity3d.com,2011:
--- !u!74 &7400000
AnimationClip:
  m_ObjectHideFlags: 0
  m_PrefabParentObject: {fileID: 0}
  m_PrefabInternal: {fileID: 0}
  m_Name: Endless Potion - Purchase Leave Anim 1 (Legacy)
  serializedVersion: 6
  m_Legacy: 1
  m_Compressed: 0
  m_UseHighQualityCurve: 1
  m_RotationCurves: []
  m_CompressedRotationCurves: []
  m_EulerCurves: []
  m_PositionCurves: []
  m_ScaleCurves:
  - curve:
      serializedVersion: 2
      m_Curve:
      - serializedVersion: 2
        time: 0
        value: {x: 1, y: 1, z: 1}
        inSlope: {x: 0, y: 0, z: 0}
        outSlope: {x: -0, y: -0, z: -0}
        tangentMode: 0
      - serializedVersion: 2
        time: 0.01666668
        value: {x: 1, y: 1, z: 1}
        inSlope: {x: 0, y: 0, z: 0}
        outSlope: {x: 0, y: 0, z: 0}
        tangentMode: 0
      - serializedVersion: 2
        time: 0.05
        value: {x: 0.9620992, y: 1, z: 0.9620992}
        inSlope: {x: -2.1865878, y: 0, z: -2.1865878}
        outSlope: {x: -2.1865878, y: 0, z: -2.1865878}
        tangentMode: 0
      - serializedVersion: 2
        time: 0.25000003
        value: {x: 0, y: 0.35517985, z: 0}
        inSlope: {x: -4.285714, y: -4.689598, z: -4.285714}
        outSlope: {x: -0, y: -4.689598, z: -0}
        tangentMode: 0
      - serializedVersion: 2
        time: 0.33333334
        value: {x: 0, y: 0, z: 0}
        inSlope: {x: 0, y: -3.5294116, z: 0}
        outSlope: {x: 0, y: -0, z: 0}
        tangentMode: 0
      - serializedVersion: 2
        time: 0.38333333
        value: {x: 0, y: 0, z: 0}
        inSlope: {x: 0, y: 0, z: 0}
        outSlope: {x: 8.210733, y: 8.210733, z: 8.210733}
        tangentMode: 0
      - serializedVersion: 2
        time: 0.51666665
        value: {x: 1.0947644, y: 1.0947644, z: 1.0947644}
        inSlope: {x: 8.210733, y: 8.210733, z: 8.210733}
        outSlope: {x: -3.3725626, y: -3.3725626, z: -3.3725626}
        tangentMode: 0
      - serializedVersion: 2
        time: 0.5666666
        value: {x: 0.9261364, y: 0.9261364, z: 0.9261364}
        inSlope: {x: -3.3725626, y: -3.3725626, z: -3.3725626}
        outSlope: {x: 1.1079545, y: 1.1079545, z: 1.1079545}
        tangentMode: 0
      - serializedVersion: 2
        time: 0.63333327
        value: {x: 1, y: 1, z: 1}
        inSlope: {x: 0, y: 0, z: 0}
        outSlope: {x: 0, y: 0, z: 0}
        tangentMode: 0
      m_PreInfinity: 2
      m_PostInfinity: 2
      m_RotationOrder: 4
    path: Potion Package Mover
  m_FloatCurves:
  - curve:
      serializedVersion: 2
      m_Curve:
      - serializedVersion: 2
        time: 0.033333335
        value: 0
        inSlope: 0
        outSlope: 0
        tangentMode: 0
      - serializedVersion: 2
        time: 0.21666667
        value: 70.25454
        inSlope: 947.9993
        outSlope: 947.9993
        tangentMode: 34
      - serializedVersion: 2
        time: 0.33333334
        value: 246.74698
        inSlope: 1512.7922
        outSlope: -14804.833
        tangentMode: 69
      - serializedVersion: 2
        time: 0.35
        value: 0
        inSlope: Infinity
        outSlope: -0
        tangentMode: 71
      - serializedVersion: 2
        time: 0.43333337
        value: 0
        inSlope: Infinity
        outSlope: -1644.9797
        tangentMode: 7
      m_PreInfinity: 2
      m_PostInfinity: 2
      m_RotationOrder: 4
    attribute: m_AnchoredPosition.y
    path: Potion Package Mover
    classID: 224
    script: {fileID: 0}
  - curve:
      serializedVersion: 2
      m_Curve:
      - serializedVersion: 2
        time: 0
        value: 0
        inSlope: Infinity
        outSlope: Infinity
        tangentMode: 103
      - serializedVersion: 2
        time: 0.5833333
        value: 1
        inSlope: Infinity
        outSlope: Infinity
        tangentMode: 103
      m_PreInfinity: 2
      m_PostInfinity: 2
      m_RotationOrder: 4
    attribute: m_Enabled
    path: Potion Package Mover/Potion Package Actual/Potion Button Actual
    classID: 114
    script: {fileID: 1392445389, guid: f5f67c52d1564df4a8936ccd202a3bd8, type: 3}
  m_PPtrCurves: []
  m_SampleRate: 60
  m_WrapMode: 0
  m_Bounds:
    m_Center: {x: 0, y: 0, z: 0}
    m_Extent: {x: 0, y: 0, z: 0}
  m_ClipBindingConstant:
    genericBindings: []
    pptrCurveMapping: []
  m_AnimationClipSettings:
    serializedVersion: 2
    m_AdditiveReferencePoseClip: {fileID: 0}
    m_AdditiveReferencePoseTime: 0
    m_StartTime: 0
    m_StopTime: 0.63333327
    m_OrientationOffsetY: 0
    m_Level: 0
    m_CycleOffset: 0
    m_HasAdditiveReferencePose: 0
    m_LoopTime: 1
    m_LoopBlend: 0
    m_LoopBlendOrientation: 0
    m_LoopBlendPositionY: 0
    m_LoopBlendPositionXZ: 0
    m_KeepOriginalOrientation: 0
    m_KeepOriginalPositionY: 1
    m_KeepOriginalPositionXZ: 0
    m_HeightFromFeet: 0
    m_Mirror: 0
  m_EditorCurves:
  - curve:
      serializedVersion: 2
      m_Curve:
      - serializedVersion: 2
        time: 0
        value: 1
        inSlope: 0
        outSlope: -0
        tangentMode: 69
      - serializedVersion: 2
        time: 0.01666668
        value: 1
        inSlope: 0
        outSlope: 0
        tangentMode: 0
      - serializedVersion: 2
        time: 0.25000003
        value: 0
        inSlope: -4.285714
        outSlope: -0
        tangentMode: 69
      - serializedVersion: 2
        time: 0.38333333
        value: 0
        inSlope: 0
        outSlope: 8.210733
        tangentMode: 69
      - serializedVersion: 2
        time: 0.51666665
        value: 1.0947644
        inSlope: 8.210733
        outSlope: -3.3725626
        tangentMode: 69
      - serializedVersion: 2
        time: 0.5666666
        value: 0.9261364
        inSlope: -3.3725626
        outSlope: 1.1079545
        tangentMode: 69
      - serializedVersion: 2
        time: 0.63333327
        value: 1
        inSlope: 0
        outSlope: 0
        tangentMode: 0
      m_PreInfinity: 2
      m_PostInfinity: 2
      m_RotationOrder: 4
    attribute: m_LocalScale.x
    path: Potion Package Mover
    classID: 224
    script: {fileID: 0}
  - curve:
      serializedVersion: 2
      m_Curve:
      - serializedVersion: 2
        time: 0
        value: 1
        inSlope: 0
        outSlope: -0
        tangentMode: 69
      - serializedVersion: 2
        time: 0.01666668
        value: 1
        inSlope: 0
        outSlope: 0
        tangentMode: 0
      - serializedVersion: 2
        time: 0.05
        value: 1
        inSlope: 0
        outSlope: 0
        tangentMode: 0
      - serializedVersion: 2
        time: 0.33333334
        value: 0
        inSlope: -3.5294116
        outSlope: -0
        tangentMode: 69
      - serializedVersion: 2
        time: 0.38333333
        value: 0
        inSlope: 0
        outSlope: 8.210733
        tangentMode: 69
      - serializedVersion: 2
        time: 0.51666665
        value: 1.0947644
        inSlope: 8.210733
        outSlope: -3.3725626
        tangentMode: 69
      - serializedVersion: 2
        time: 0.5666666
        value: 0.9261364
        inSlope: -3.3725626
        outSlope: 1.1079545
        tangentMode: 69
      - serializedVersion: 2
        time: 0.63333327
        value: 1
        inSlope: 0
        outSlope: 0
        tangentMode: 0
      m_PreInfinity: 2
      m_PostInfinity: 2
      m_RotationOrder: 4
    attribute: m_LocalScale.y
    path: Potion Package Mover
    classID: 224
    script: {fileID: 0}
  - curve:
      serializedVersion: 2
      m_Curve:
      - serializedVersion: 2
        time: 0
        value: 1
        inSlope: 0
        outSlope: -0
        tangentMode: 69
      - serializedVersion: 2
        time: 0.01666668
        value: 1
        inSlope: 0
        outSlope: 0
        tangentMode: 0
      - serializedVersion: 2
        time: 0.25000003
        value: 0
        inSlope: -4.285714
        outSlope: -0
        tangentMode: 69
      - serializedVersion: 2
        time: 0.38333333
        value: 0
        inSlope: 0
        outSlope: 8.210733
        tangentMode: 69
      - serializedVersion: 2
        time: 0.51666665
        value: 1.0947644
        inSlope: 8.210733
        outSlope: -3.3725626
        tangentMode: 69
      - serializedVersion: 2
        time: 0.5666666
        value: 0.9261364
        inSlope: -3.3725626
        outSlope: 1.1079545
        tangentMode: 69
      - serializedVersion: 2
        time: 0.63333327
        value: 1
        inSlope: 0
        outSlope: 0
        tangentMode: 0
      m_PreInfinity: 2
      m_PostInfinity: 2
      m_RotationOrder: 4
    attribute: m_LocalScale.z
    path: Potion Package Mover
    classID: 224
    script: {fileID: 0}
  - curve:
      serializedVersion: 2
      m_Curve:
      - serializedVersion: 2
        time: 0.033333335
        value: 0
        inSlope: 0
        outSlope: 0
        tangentMode: 0
      - serializedVersion: 2
        time: 0.21666667
        value: 70.25454
        inSlope: 947.9993
        outSlope: 947.9993
        tangentMode: 34
      - serializedVersion: 2
        time: 0.33333334
        value: 246.74698
        inSlope: 1512.7922
        outSlope: -14804.833
        tangentMode: 69
      - serializedVersion: 2
        time: 0.35
        value: 0
        inSlope: Infinity
        outSlope: -0
        tangentMode: 71
      - serializedVersion: 2
        time: 0.43333337
        value: 0
        inSlope: Infinity
        outSlope: -1644.9797
        tangentMode: 7
      m_PreInfinity: 2
      m_PostInfinity: 2
      m_RotationOrder: 4
    attribute: m_AnchoredPosition.y
    path: Potion Package Mover
    classID: 224
    script: {fileID: 0}
  - curve:
      serializedVersion: 2
      m_Curve:
      - serializedVersion: 2
        time: 0
        value: 0
        inSlope: Infinity
        outSlope: Infinity
        tangentMode: 103
      - serializedVersion: 2
        time: 0.5833333
        value: 1
        inSlope: Infinity
        outSlope: Infinity
        tangentMode: 103
      m_PreInfinity: 2
      m_PostInfinity: 2
      m_RotationOrder: 4
    attribute: m_Enabled
    path: Potion Package Mover/Potion Package Actual/Potion Button Actual
    classID: 114
    script: {fileID: 1392445389, guid: f5f67c52d1564df4a8936ccd202a3bd8, type: 3}
  m_EulerEditorCurves: []
  m_HasGenericRootTransform: 0
  m_HasMotionFloatCurves: 0
  m_GenerateMotionCurves: 0
  m_Events:
  - time: 0.35
    functionName: AnimEvent_UpdatedPackage
    data: 
    objectReferenceParameter: {fileID: 0}
    floatParameter: 0
    intParameter: 0
    messageOptions: 0
