%YAML 1.1
%TAG !u! tag:unity3d.com,2011:
--- !u!74 &7400000
AnimationClip:
  m_ObjectHideFlags: 0
  m_PrefabParentObject: {fileID: 0}
  m_PrefabInternal: {fileID: 0}
  m_Name: Event Popup - ALL Enter New Year Anim 1 (Legacy)
  serializedVersion: 6
  m_Legacy: 1
  m_Compressed: 0
  m_UseHighQualityCurve: 1
  m_RotationCurves: []
  m_CompressedRotationCurves: []
  m_EulerCurves: []
  m_PositionCurves: []
  m_ScaleCurves:
  - curve:
      serializedVersion: 2
      m_Curve:
      - serializedVersion: 2
        time: 0
        value: {x: 0, y: 1, z: 1}
        inSlope: {x: 0, y: 0, z: 0}
        outSlope: {x: 0, y: 0, z: 0}
        tangentMode: 0
      - serializedVersion: 2
        time: 0.41666666
        value: {x: 1, y: 1, z: 1}
        inSlope: {x: 0, y: 0, z: 0}
        outSlope: {x: 0, y: 0, z: 0}
        tangentMode: 0
      m_PreInfinity: 2
      m_PostInfinity: 2
      m_RotationOrder: 4
    path: Pop Up Mover/Pop Up Back Parent
  - curve:
      serializedVersion: 2
      m_Curve:
      - serializedVersion: 2
        time: 0
        value: {x: 0, y: 1, z: 1}
        inSlope: {x: 6, y: 0, z: 0}
        outSlope: {x: 4, y: -0, z: -0}
        tangentMode: 0
      - serializedVersion: 2
        time: 0.25
        value: {x: 1, y: 1, z: 1}
        inSlope: {x: 4, y: 0, z: 0}
        outSlope: {x: -0, y: 0, z: 0}
        tangentMode: 0
      - serializedVersion: 2
        time: 0.41666666
        value: {x: 1, y: 1, z: 1}
        inSlope: {x: 0, y: 0, z: 0}
        outSlope: {x: 0, y: 0, z: 0}
        tangentMode: 0
      m_PreInfinity: 2
      m_PostInfinity: 2
      m_RotationOrder: 4
    path: Pop Up Mover/Page Name Parent
  - curve:
      serializedVersion: 2
      m_Curve:
      - serializedVersion: 2
        time: 0
        value: {x: 0, y: 0, z: 0}
        inSlope: {x: 0, y: 0, z: 0}
        outSlope: {x: -0, y: -0, z: -0}
        tangentMode: 0
      - serializedVersion: 2
        time: 0.083333336
        value: {x: 0, y: 0, z: 0}
        inSlope: {x: 0, y: 0, z: 0}
        outSlope: {x: 3.3182795, y: 3.3182795, z: 3.3182795}
        tangentMode: 0
      - serializedVersion: 2
        time: 0.45
        value: {x: 1.2167025, y: 1.2167025, z: 1.2167025}
        inSlope: {x: 3.3182795, y: 3.3182795, z: 3.3182795}
        outSlope: {x: -1.8866272, y: -1.8866272, z: -1.8866272}
        tangentMode: 0
      - serializedVersion: 2
        time: 0.6
        value: {x: 0.9337083, y: 0.9337083, z: 0.9337083}
        inSlope: {x: -1.8866272, y: -1.8866272, z: -1.8866272}
        outSlope: {x: 0.44194466, y: 0.44194466, z: 0.44194466}
        tangentMode: 0
      - serializedVersion: 2
        time: 0.75
        value: {x: 1, y: 1, z: 1}
        inSlope: {x: 0, y: 0, z: 0}
        outSlope: {x: 0, y: 0, z: 0}
        tangentMode: 0
      m_PreInfinity: 2
      m_PostInfinity: 2
      m_RotationOrder: 4
    path: Pop Up Mover/Pop Up Contents Arts Parent/Moshtan Arts
  - curve:
      serializedVersion: 2
      m_Curve:
      - serializedVersion: 2
        time: 0
        value: {x: 0, y: 1, z: 1}
        inSlope: {x: 0, y: 0, z: 0}
        outSlope: {x: -0, y: 0, z: 0}
        tangentMode: 0
      - serializedVersion: 2
        time: 0.33333334
        value: {x: 0, y: 1, z: 1}
        inSlope: {x: 0, y: 0, z: 0}
        outSlope: {x: 4.285163, y: 0, z: 0}
        tangentMode: 0
      - serializedVersion: 2
        time: 0.6
        value: {x: 1.1427102, y: 1, z: 1}
        inSlope: {x: 4.285163, y: 0, z: 0}
        outSlope: {x: -0.95140153, y: 0, z: 0}
        tangentMode: 0
      - serializedVersion: 2
        time: 0.75
        value: {x: 1, y: 1, z: 1}
        inSlope: {x: 0, y: 0, z: 0}
        outSlope: {x: 0, y: 0, z: 0}
        tangentMode: 0
      m_PreInfinity: 2
      m_PostInfinity: 2
      m_RotationOrder: 4
    path: Pop Up Mover/Pop Up Contents Arts Parent/Moshtan Big Papers Left
  - curve:
      serializedVersion: 2
      m_Curve:
      - serializedVersion: 2
        time: 0
        value: {x: 0, y: 1, z: 1}
        inSlope: {x: 0, y: 0, z: 0}
        outSlope: {x: -0, y: 0, z: 0}
        tangentMode: 0
      - serializedVersion: 2
        time: 0.33333334
        value: {x: 0, y: 1, z: 1}
        inSlope: {x: 0, y: 0, z: 0}
        outSlope: {x: 4.285163, y: 0, z: 0}
        tangentMode: 0
      - serializedVersion: 2
        time: 0.6
        value: {x: 1.1427102, y: 1, z: 1}
        inSlope: {x: 4.285163, y: 0, z: 0}
        outSlope: {x: -0.95140153, y: 0, z: 0}
        tangentMode: 0
      - serializedVersion: 2
        time: 0.75
        value: {x: 1, y: 1, z: 1}
        inSlope: {x: 0, y: 0, z: 0}
        outSlope: {x: 0, y: 0, z: 0}
        tangentMode: 0
      m_PreInfinity: 2
      m_PostInfinity: 2
      m_RotationOrder: 4
    path: Pop Up Mover/Pop Up Contents Arts Parent/Moshtan Big Papers Right
  - curve:
      serializedVersion: 2
      m_Curve:
      - serializedVersion: 2
        time: 0
        value: {x: 0, y: 0, z: 0}
        inSlope: {x: 0, y: 0, z: 0}
        outSlope: {x: -0, y: -0, z: -0}
        tangentMode: 0
      - serializedVersion: 2
        time: 0.08333334
        value: {x: 0, y: 0, z: 0}
        inSlope: {x: 0, y: 0, z: 0}
        outSlope: {x: 2.952391, y: 2.952391, z: 2.952391}
        tangentMode: 0
      - serializedVersion: 2
        time: 0.45
        value: {x: 1.0825433, y: 1.0825433, z: 1.0825433}
        inSlope: {x: 2.952391, y: 2.952391, z: 2.952391}
        outSlope: {x: -0.61907446, y: -0.61907446, z: -0.61907446}
        tangentMode: 0
      - serializedVersion: 2
        time: 0.5833333
        value: {x: 1, y: 1, z: 1}
        inSlope: {x: 0, y: 0, z: 0}
        outSlope: {x: 0, y: 0, z: 0}
        tangentMode: 0
      m_PreInfinity: 2
      m_PostInfinity: 2
      m_RotationOrder: 4
    path: Pop Up Mover/Pop Up Contents Arts Parent/Mosthan Leaves Parent
  - curve:
      serializedVersion: 2
      m_Curve:
      - serializedVersion: 2
        time: 0
        value: {x: 0, y: 0, z: 0}
        inSlope: {x: 0, y: 0, z: 0}
        outSlope: {x: -0, y: -0, z: -0}
        tangentMode: 0
      - serializedVersion: 2
        time: 0.41666666
        value: {x: 0, y: 0, z: 0}
        inSlope: {x: 0, y: 0, z: 0}
        outSlope: {x: 4.983982, y: 4.983982, z: 4.983982}
        tangentMode: 0
      - serializedVersion: 2
        time: 0.65
        value: {x: 1.162929, y: 1.162929, z: 1.162929}
        inSlope: {x: 4.983982, y: 4.983982, z: 4.983982}
        outSlope: {x: -1.9551477, y: -1.9551477, z: -1.9551477}
        tangentMode: 0
      - serializedVersion: 2
        time: 0.73333335
        value: {x: 1, y: 1, z: 1}
        inSlope: {x: -1.9551477, y: -1.9551477, z: -1.9551477}
        outSlope: {x: 10.000001, y: 10.000001, z: 10.000001}
        tangentMode: 0
      m_PreInfinity: 2
      m_PostInfinity: 2
      m_RotationOrder: 4
    path: Pop Up Mover/Pop Up Contents Arts Parent/Mosthan Gifts Parent/Moshtan Gift
      (3)
  - curve:
      serializedVersion: 2
      m_Curve:
      - serializedVersion: 2
        time: 0
        value: {x: 0, y: 0, z: 0}
        inSlope: {x: 0, y: 0, z: 0}
        outSlope: {x: -0, y: -0, z: -0}
        tangentMode: 0
      - serializedVersion: 2
        time: 0.53333336
        value: {x: 0, y: 0, z: 0}
        inSlope: {x: 0, y: 0, z: 0}
        outSlope: {x: 4.9839826, y: 4.9839826, z: 4.9839826}
        tangentMode: 0
      - serializedVersion: 2
        time: 0.76666665
        value: {x: 1.162929, y: 1.162929, z: 1.162929}
        inSlope: {x: 4.9839826, y: 4.9839826, z: 4.9839826}
        outSlope: {x: -1.9551477, y: -1.9551477, z: -1.9551477}
        tangentMode: 0
      - serializedVersion: 2
        time: 0.85
        value: {x: 1, y: 1, z: 1}
        inSlope: {x: -1.9551477, y: -1.9551477, z: -1.9551477}
        outSlope: {x: 10.000001, y: 10.000001, z: 10.000001}
        tangentMode: 0
      m_PreInfinity: 2
      m_PostInfinity: 2
      m_RotationOrder: 4
    path: Pop Up Mover/Pop Up Contents Arts Parent/Mosthan Gifts Parent/Moshtan Gift
      (2)
  - curve:
      serializedVersion: 2
      m_Curve:
      - serializedVersion: 2
        time: 0
        value: {x: 0, y: 0, z: 0}
        inSlope: {x: 0, y: 0, z: 0}
        outSlope: {x: -0, y: -0, z: -0}
        tangentMode: 0
      - serializedVersion: 2
        time: 0.65
        value: {x: 0, y: 0, z: 0}
        inSlope: {x: 0, y: 0, z: 0}
        outSlope: {x: 4.983981, y: 4.983981, z: 4.983981}
        tangentMode: 0
      - serializedVersion: 2
        time: 0.8833333
        value: {x: 1.162929, y: 1.162929, z: 1.162929}
        inSlope: {x: 4.983981, y: 4.983981, z: 4.983981}
        outSlope: {x: -1.9551492, y: -1.9551492, z: -1.9551492}
        tangentMode: 0
      - serializedVersion: 2
        time: 0.96666664
        value: {x: 1, y: 1, z: 1}
        inSlope: {x: -1.9551492, y: -1.9551492, z: -1.9551492}
        outSlope: {x: 10.000001, y: 10.000001, z: 10.000001}
        tangentMode: 0
      m_PreInfinity: 2
      m_PostInfinity: 2
      m_RotationOrder: 4
    path: Pop Up Mover/Pop Up Contents Arts Parent/Mosthan Gifts Parent/Moshtan Gift
      (1)
  m_FloatCurves:
  - curve:
      serializedVersion: 2
      m_Curve:
      - serializedVersion: 2
        time: 0
        value: 1
        inSlope: Infinity
        outSlope: Infinity
        tangentMode: 103
      - serializedVersion: 2
        time: 1
        value: 0
        inSlope: Infinity
        outSlope: Infinity
        tangentMode: 103
      m_PreInfinity: 2
      m_PostInfinity: 2
      m_RotationOrder: 4
    attribute: m_IsActive
    path: Pop Up Front Blocker
    classID: 1
    script: {fileID: 0}
  - curve:
      serializedVersion: 2
      m_Curve:
      - serializedVersion: 2
        time: 0
        value: 1
        inSlope: Infinity
        outSlope: Infinity
        tangentMode: 103
      m_PreInfinity: 2
      m_PostInfinity: 2
      m_RotationOrder: 4
    attribute: m_IsActive
    path: Pop Up Back Click Behind
    classID: 1
    script: {fileID: 0}
  - curve:
      serializedVersion: 2
      m_Curve:
      - serializedVersion: 2
        time: 0
        value: 40
        inSlope: 0
        outSlope: -0
        tangentMode: 69
      - serializedVersion: 2
        time: 0.083333336
        value: 40
        inSlope: 0
        outSlope: 1022.4393
        tangentMode: 69
      - serializedVersion: 2
        time: 0.3333333
        value: 295.6098
        inSlope: 1022.4393
        outSlope: -158.43918
        tangentMode: 69
      - serializedVersion: 2
        time: 0.5833334
        value: 256
        inSlope: 0
        outSlope: 0
        tangentMode: 0
      m_PreInfinity: 2
      m_PostInfinity: 2
      m_RotationOrder: 4
    attribute: m_SizeDelta.x
    path: Pop Up Mover/Page Name Parent/Page Name Mover/Page Black Line (Ends)
    classID: 224
    script: {fileID: 0}
  m_PPtrCurves: []
  m_SampleRate: 60
  m_WrapMode: 0
  m_Bounds:
    m_Center: {x: 0, y: 0, z: 0}
    m_Extent: {x: 0, y: 0, z: 0}
  m_ClipBindingConstant:
    genericBindings: []
    pptrCurveMapping: []
  m_AnimationClipSettings:
    serializedVersion: 2
    m_AdditiveReferencePoseClip: {fileID: 0}
    m_AdditiveReferencePoseTime: 0
    m_StartTime: 0
    m_StopTime: 1
    m_OrientationOffsetY: 0
    m_Level: 0
    m_CycleOffset: 0
    m_HasAdditiveReferencePose: 0
    m_LoopTime: 1
    m_LoopBlend: 0
    m_LoopBlendOrientation: 0
    m_LoopBlendPositionY: 0
    m_LoopBlendPositionXZ: 0
    m_KeepOriginalOrientation: 0
    m_KeepOriginalPositionY: 1
    m_KeepOriginalPositionXZ: 0
    m_HeightFromFeet: 0
    m_Mirror: 0
  m_EditorCurves:
  - curve:
      serializedVersion: 2
      m_Curve:
      - serializedVersion: 2
        time: 0
        value: 1
        inSlope: Infinity
        outSlope: Infinity
        tangentMode: 103
      - serializedVersion: 2
        time: 1
        value: 0
        inSlope: Infinity
        outSlope: Infinity
        tangentMode: 103
      m_PreInfinity: 2
      m_PostInfinity: 2
      m_RotationOrder: 4
    attribute: m_IsActive
    path: Pop Up Front Blocker
    classID: 1
    script: {fileID: 0}
  - curve:
      serializedVersion: 2
      m_Curve:
      - serializedVersion: 2
        time: 0
        value: 1
        inSlope: Infinity
        outSlope: Infinity
        tangentMode: 103
      m_PreInfinity: 2
      m_PostInfinity: 2
      m_RotationOrder: 4
    attribute: m_IsActive
    path: Pop Up Back Click Behind
    classID: 1
    script: {fileID: 0}
  - curve:
      serializedVersion: 2
      m_Curve:
      - serializedVersion: 2
        time: 0
        value: 0
        inSlope: 0
        outSlope: 0
        tangentMode: 0
      - serializedVersion: 2
        time: 0.41666666
        value: 1
        inSlope: 0
        outSlope: 0
        tangentMode: 0
      m_PreInfinity: 2
      m_PostInfinity: 2
      m_RotationOrder: 4
    attribute: m_LocalScale.x
    path: Pop Up Mover/Pop Up Back Parent
    classID: 224
    script: {fileID: 0}
  - curve:
      serializedVersion: 2
      m_Curve:
      - serializedVersion: 2
        time: 0
        value: 1
        inSlope: 0
        outSlope: 0
        tangentMode: 34
      - serializedVersion: 2
        time: 0.41666666
        value: 1
        inSlope: 0
        outSlope: 0
        tangentMode: 34
      m_PreInfinity: 2
      m_PostInfinity: 2
      m_RotationOrder: 4
    attribute: m_LocalScale.y
    path: Pop Up Mover/Pop Up Back Parent
    classID: 224
    script: {fileID: 0}
  - curve:
      serializedVersion: 2
      m_Curve:
      - serializedVersion: 2
        time: 0
        value: 1
        inSlope: 0
        outSlope: 0
        tangentMode: 34
      - serializedVersion: 2
        time: 0.41666666
        value: 1
        inSlope: 0
        outSlope: 0
        tangentMode: 34
      m_PreInfinity: 2
      m_PostInfinity: 2
      m_RotationOrder: 4
    attribute: m_LocalScale.z
    path: Pop Up Mover/Pop Up Back Parent
    classID: 224
    script: {fileID: 0}
  - curve:
      serializedVersion: 2
      m_Curve:
      - serializedVersion: 2
        time: 0
        value: 40
        inSlope: 0
        outSlope: -0
        tangentMode: 69
      - serializedVersion: 2
        time: 0.083333336
        value: 40
        inSlope: 0
        outSlope: 1022.4393
        tangentMode: 69
      - serializedVersion: 2
        time: 0.3333333
        value: 295.6098
        inSlope: 1022.4393
        outSlope: -158.43918
        tangentMode: 69
      - serializedVersion: 2
        time: 0.5833334
        value: 256
        inSlope: 0
        outSlope: 0
        tangentMode: 0
      m_PreInfinity: 2
      m_PostInfinity: 2
      m_RotationOrder: 4
    attribute: m_SizeDelta.x
    path: Pop Up Mover/Page Name Parent/Page Name Mover/Page Black Line (Ends)
    classID: 224
    script: {fileID: 0}
  - curve:
      serializedVersion: 2
      m_Curve:
      - serializedVersion: 2
        time: 0
        value: 0
        inSlope: 6
        outSlope: 4
        tangentMode: 69
      - serializedVersion: 2
        time: 0.25
        value: 1
        inSlope: 4
        outSlope: -0
        tangentMode: 69
      - serializedVersion: 2
        time: 0.41666666
        value: 1
        inSlope: 0
        outSlope: 0
        tangentMode: 69
      m_PreInfinity: 2
      m_PostInfinity: 2
      m_RotationOrder: 4
    attribute: m_LocalScale.x
    path: Pop Up Mover/Page Name Parent
    classID: 224
    script: {fileID: 0}
  - curve:
      serializedVersion: 2
      m_Curve:
      - serializedVersion: 2
        time: 0
        value: 1
        inSlope: 0
        outSlope: -0
        tangentMode: 69
      - serializedVersion: 2
        time: 0.41666666
        value: 1
        inSlope: 0
        outSlope: 0
        tangentMode: 69
      m_PreInfinity: 2
      m_PostInfinity: 2
      m_RotationOrder: 4
    attribute: m_LocalScale.y
    path: Pop Up Mover/Page Name Parent
    classID: 224
    script: {fileID: 0}
  - curve:
      serializedVersion: 2
      m_Curve:
      - serializedVersion: 2
        time: 0
        value: 1
        inSlope: 0
        outSlope: -0
        tangentMode: 69
      - serializedVersion: 2
        time: 0.41666666
        value: 1
        inSlope: 0
        outSlope: 0
        tangentMode: 69
      m_PreInfinity: 2
      m_PostInfinity: 2
      m_RotationOrder: 4
    attribute: m_LocalScale.z
    path: Pop Up Mover/Page Name Parent
    classID: 224
    script: {fileID: 0}
  - curve:
      serializedVersion: 2
      m_Curve:
      - serializedVersion: 2
        time: 0
        value: 0
        inSlope: 0
        outSlope: -0
        tangentMode: 65
      - serializedVersion: 2
        time: 0.083333336
        value: 0
        inSlope: 0
        outSlope: 3.3182795
        tangentMode: 69
      - serializedVersion: 2
        time: 0.45
        value: 1.2167025
        inSlope: 3.3182795
        outSlope: -1.8866272
        tangentMode: 69
      - serializedVersion: 2
        time: 0.6
        value: 0.9337083
        inSlope: -1.8866272
        outSlope: 0.44194466
        tangentMode: 69
      - serializedVersion: 2
        time: 0.75
        value: 1
        inSlope: 0
        outSlope: 0
        tangentMode: 0
      m_PreInfinity: 2
      m_PostInfinity: 2
      m_RotationOrder: 4
    attribute: m_LocalScale.x
    path: Pop Up Mover/Pop Up Contents Arts Parent/Moshtan Arts
    classID: 224
    script: {fileID: 0}
  - curve:
      serializedVersion: 2
      m_Curve:
      - serializedVersion: 2
        time: 0
        value: 0
        inSlope: 0
        outSlope: -0
        tangentMode: 65
      - serializedVersion: 2
        time: 0.083333336
        value: 0
        inSlope: 0
        outSlope: 3.3182795
        tangentMode: 69
      - serializedVersion: 2
        time: 0.45
        value: 1.2167025
        inSlope: 3.3182795
        outSlope: -1.8866272
        tangentMode: 69
      - serializedVersion: 2
        time: 0.6
        value: 0.9337083
        inSlope: -1.8866272
        outSlope: 0.44194466
        tangentMode: 69
      - serializedVersion: 2
        time: 0.75
        value: 1
        inSlope: 0
        outSlope: 0
        tangentMode: 0
      m_PreInfinity: 2
      m_PostInfinity: 2
      m_RotationOrder: 4
    attribute: m_LocalScale.y
    path: Pop Up Mover/Pop Up Contents Arts Parent/Moshtan Arts
    classID: 224
    script: {fileID: 0}
  - curve:
      serializedVersion: 2
      m_Curve:
      - serializedVersion: 2
        time: 0
        value: 0
        inSlope: 0
        outSlope: -0
        tangentMode: 65
      - serializedVersion: 2
        time: 0.083333336
        value: 0
        inSlope: 0
        outSlope: 3.3182795
        tangentMode: 69
      - serializedVersion: 2
        time: 0.45
        value: 1.2167025
        inSlope: 3.3182795
        outSlope: -1.8866272
        tangentMode: 69
      - serializedVersion: 2
        time: 0.6
        value: 0.9337083
        inSlope: -1.8866272
        outSlope: 0.44194466
        tangentMode: 69
      - serializedVersion: 2
        time: 0.75
        value: 1
        inSlope: 0
        outSlope: 0
        tangentMode: 0
      m_PreInfinity: 2
      m_PostInfinity: 2
      m_RotationOrder: 4
    attribute: m_LocalScale.z
    path: Pop Up Mover/Pop Up Contents Arts Parent/Moshtan Arts
    classID: 224
    script: {fileID: 0}
  - curve:
      serializedVersion: 2
      m_Curve:
      - serializedVersion: 2
        time: 0
        value: 0
        inSlope: 0
        outSlope: -0
        tangentMode: 69
      - serializedVersion: 2
        time: 0.33333334
        value: 0
        inSlope: 0
        outSlope: 4.285163
        tangentMode: 69
      - serializedVersion: 2
        time: 0.6
        value: 1.1427102
        inSlope: 4.285163
        outSlope: -0.95140153
        tangentMode: 69
      - serializedVersion: 2
        time: 0.75
        value: 1
        inSlope: 0
        outSlope: 0
        tangentMode: 0
      m_PreInfinity: 2
      m_PostInfinity: 2
      m_RotationOrder: 4
    attribute: m_LocalScale.x
    path: Pop Up Mover/Pop Up Contents Arts Parent/Moshtan Big Papers Left
    classID: 224
    script: {fileID: 0}
  - curve:
      serializedVersion: 2
      m_Curve:
      - serializedVersion: 2
        time: 0
        value: 1
        inSlope: 0
        outSlope: 0
        tangentMode: 34
      m_PreInfinity: 2
      m_PostInfinity: 2
      m_RotationOrder: 4
    attribute: m_LocalScale.y
    path: Pop Up Mover/Pop Up Contents Arts Parent/Moshtan Big Papers Left
    classID: 224
    script: {fileID: 0}
  - curve:
      serializedVersion: 2
      m_Curve:
      - serializedVersion: 2
        time: 0
        value: 1
        inSlope: 0
        outSlope: 0
        tangentMode: 34
      m_PreInfinity: 2
      m_PostInfinity: 2
      m_RotationOrder: 4
    attribute: m_LocalScale.z
    path: Pop Up Mover/Pop Up Contents Arts Parent/Moshtan Big Papers Left
    classID: 224
    script: {fileID: 0}
  - curve:
      serializedVersion: 2
      m_Curve:
      - serializedVersion: 2
        time: 0
        value: 0
        inSlope: 0
        outSlope: -0
        tangentMode: 69
      - serializedVersion: 2
        time: 0.33333334
        value: 0
        inSlope: 0
        outSlope: 4.285163
        tangentMode: 69
      - serializedVersion: 2
        time: 0.6
        value: 1.1427102
        inSlope: 4.285163
        outSlope: -0.95140153
        tangentMode: 69
      - serializedVersion: 2
        time: 0.75
        value: 1
        inSlope: 0
        outSlope: 0
        tangentMode: 0
      m_PreInfinity: 2
      m_PostInfinity: 2
      m_RotationOrder: 4
    attribute: m_LocalScale.x
    path: Pop Up Mover/Pop Up Contents Arts Parent/Moshtan Big Papers Right
    classID: 224
    script: {fileID: 0}
  - curve:
      serializedVersion: 2
      m_Curve:
      - serializedVersion: 2
        time: 0
        value: 1
        inSlope: 0
        outSlope: 0
        tangentMode: 34
      m_PreInfinity: 2
      m_PostInfinity: 2
      m_RotationOrder: 4
    attribute: m_LocalScale.y
    path: Pop Up Mover/Pop Up Contents Arts Parent/Moshtan Big Papers Right
    classID: 224
    script: {fileID: 0}
  - curve:
      serializedVersion: 2
      m_Curve:
      - serializedVersion: 2
        time: 0
        value: 1
        inSlope: 0
        outSlope: 0
        tangentMode: 34
      m_PreInfinity: 2
      m_PostInfinity: 2
      m_RotationOrder: 4
    attribute: m_LocalScale.z
    path: Pop Up Mover/Pop Up Contents Arts Parent/Moshtan Big Papers Right
    classID: 224
    script: {fileID: 0}
  - curve:
      serializedVersion: 2
      m_Curve:
      - serializedVersion: 2
        time: 0
        value: 0
        inSlope: 0
        outSlope: -0
        tangentMode: 69
      - serializedVersion: 2
        time: 0.08333334
        value: 0
        inSlope: 0
        outSlope: 2.952391
        tangentMode: 69
      - serializedVersion: 2
        time: 0.45
        value: 1.0825433
        inSlope: 2.952391
        outSlope: -0.61907446
        tangentMode: 69
      - serializedVersion: 2
        time: 0.5833333
        value: 1
        inSlope: 0
        outSlope: 0
        tangentMode: 0
      m_PreInfinity: 2
      m_PostInfinity: 2
      m_RotationOrder: 4
    attribute: m_LocalScale.x
    path: Pop Up Mover/Pop Up Contents Arts Parent/Mosthan Leaves Parent
    classID: 224
    script: {fileID: 0}
  - curve:
      serializedVersion: 2
      m_Curve:
      - serializedVersion: 2
        time: 0
        value: 0
        inSlope: 0
        outSlope: -0
        tangentMode: 69
      - serializedVersion: 2
        time: 0.08333334
        value: 0
        inSlope: 0
        outSlope: 2.952391
        tangentMode: 69
      - serializedVersion: 2
        time: 0.45
        value: 1.0825433
        inSlope: 2.952391
        outSlope: -0.61907446
        tangentMode: 69
      - serializedVersion: 2
        time: 0.5833333
        value: 1
        inSlope: 0
        outSlope: 0
        tangentMode: 0
      m_PreInfinity: 2
      m_PostInfinity: 2
      m_RotationOrder: 4
    attribute: m_LocalScale.y
    path: Pop Up Mover/Pop Up Contents Arts Parent/Mosthan Leaves Parent
    classID: 224
    script: {fileID: 0}
  - curve:
      serializedVersion: 2
      m_Curve:
      - serializedVersion: 2
        time: 0
        value: 0
        inSlope: 0
        outSlope: -0
        tangentMode: 69
      - serializedVersion: 2
        time: 0.08333334
        value: 0
        inSlope: 0
        outSlope: 2.952391
        tangentMode: 69
      - serializedVersion: 2
        time: 0.45
        value: 1.0825433
        inSlope: 2.952391
        outSlope: -0.61907446
        tangentMode: 69
      - serializedVersion: 2
        time: 0.5833333
        value: 1
        inSlope: 0
        outSlope: 0
        tangentMode: 0
      m_PreInfinity: 2
      m_PostInfinity: 2
      m_RotationOrder: 4
    attribute: m_LocalScale.z
    path: Pop Up Mover/Pop Up Contents Arts Parent/Mosthan Leaves Parent
    classID: 224
    script: {fileID: 0}
  - curve:
      serializedVersion: 2
      m_Curve:
      - serializedVersion: 2
        time: 0
        value: 0
        inSlope: 0
        outSlope: -0
        tangentMode: 69
      - serializedVersion: 2
        time: 0.41666666
        value: 0
        inSlope: 0
        outSlope: 4.983982
        tangentMode: 69
      - serializedVersion: 2
        time: 0.65
        value: 1.162929
        inSlope: 4.983982
        outSlope: -1.9551477
        tangentMode: 69
      - serializedVersion: 2
        time: 0.73333335
        value: 1
        inSlope: -1.9551477
        outSlope: 10.000001
        tangentMode: 69
      m_PreInfinity: 2
      m_PostInfinity: 2
      m_RotationOrder: 4
    attribute: m_LocalScale.x
    path: Pop Up Mover/Pop Up Contents Arts Parent/Mosthan Gifts Parent/Moshtan Gift
      (3)
    classID: 224
    script: {fileID: 0}
  - curve:
      serializedVersion: 2
      m_Curve:
      - serializedVersion: 2
        time: 0
        value: 0
        inSlope: 0
        outSlope: -0
        tangentMode: 69
      - serializedVersion: 2
        time: 0.41666666
        value: 0
        inSlope: 0
        outSlope: 4.983982
        tangentMode: 69
      - serializedVersion: 2
        time: 0.65
        value: 1.162929
        inSlope: 4.983982
        outSlope: -1.9551477
        tangentMode: 69
      - serializedVersion: 2
        time: 0.73333335
        value: 1
        inSlope: -1.9551477
        outSlope: 10.000001
        tangentMode: 69
      m_PreInfinity: 2
      m_PostInfinity: 2
      m_RotationOrder: 4
    attribute: m_LocalScale.y
    path: Pop Up Mover/Pop Up Contents Arts Parent/Mosthan Gifts Parent/Moshtan Gift
      (3)
    classID: 224
    script: {fileID: 0}
  - curve:
      serializedVersion: 2
      m_Curve:
      - serializedVersion: 2
        time: 0
        value: 0
        inSlope: 0
        outSlope: -0
        tangentMode: 69
      - serializedVersion: 2
        time: 0.41666666
        value: 0
        inSlope: 0
        outSlope: 4.983982
        tangentMode: 69
      - serializedVersion: 2
        time: 0.65
        value: 1.162929
        inSlope: 4.983982
        outSlope: -1.9551477
        tangentMode: 69
      - serializedVersion: 2
        time: 0.73333335
        value: 1
        inSlope: -1.9551477
        outSlope: 10.000001
        tangentMode: 69
      m_PreInfinity: 2
      m_PostInfinity: 2
      m_RotationOrder: 4
    attribute: m_LocalScale.z
    path: Pop Up Mover/Pop Up Contents Arts Parent/Mosthan Gifts Parent/Moshtan Gift
      (3)
    classID: 224
    script: {fileID: 0}
  - curve:
      serializedVersion: 2
      m_Curve:
      - serializedVersion: 2
        time: 0
        value: 0
        inSlope: 0
        outSlope: -0
        tangentMode: 69
      - serializedVersion: 2
        time: 0.53333336
        value: 0
        inSlope: 0
        outSlope: 4.9839826
        tangentMode: 69
      - serializedVersion: 2
        time: 0.76666665
        value: 1.162929
        inSlope: 4.9839826
        outSlope: -1.9551477
        tangentMode: 69
      - serializedVersion: 2
        time: 0.85
        value: 1
        inSlope: -1.9551477
        outSlope: 10.000001
        tangentMode: 69
      m_PreInfinity: 2
      m_PostInfinity: 2
      m_RotationOrder: 4
    attribute: m_LocalScale.x
    path: Pop Up Mover/Pop Up Contents Arts Parent/Mosthan Gifts Parent/Moshtan Gift
      (2)
    classID: 224
    script: {fileID: 0}
  - curve:
      serializedVersion: 2
      m_Curve:
      - serializedVersion: 2
        time: 0
        value: 0
        inSlope: 0
        outSlope: -0
        tangentMode: 69
      - serializedVersion: 2
        time: 0.53333336
        value: 0
        inSlope: 0
        outSlope: 4.9839826
        tangentMode: 69
      - serializedVersion: 2
        time: 0.76666665
        value: 1.162929
        inSlope: 4.9839826
        outSlope: -1.9551477
        tangentMode: 69
      - serializedVersion: 2
        time: 0.85
        value: 1
        inSlope: -1.9551477
        outSlope: 10.000001
        tangentMode: 69
      m_PreInfinity: 2
      m_PostInfinity: 2
      m_RotationOrder: 4
    attribute: m_LocalScale.y
    path: Pop Up Mover/Pop Up Contents Arts Parent/Mosthan Gifts Parent/Moshtan Gift
      (2)
    classID: 224
    script: {fileID: 0}
  - curve:
      serializedVersion: 2
      m_Curve:
      - serializedVersion: 2
        time: 0
        value: 0
        inSlope: 0
        outSlope: -0
        tangentMode: 69
      - serializedVersion: 2
        time: 0.53333336
        value: 0
        inSlope: 0
        outSlope: 4.9839826
        tangentMode: 69
      - serializedVersion: 2
        time: 0.76666665
        value: 1.162929
        inSlope: 4.9839826
        outSlope: -1.9551477
        tangentMode: 69
      - serializedVersion: 2
        time: 0.85
        value: 1
        inSlope: -1.9551477
        outSlope: 10.000001
        tangentMode: 69
      m_PreInfinity: 2
      m_PostInfinity: 2
      m_RotationOrder: 4
    attribute: m_LocalScale.z
    path: Pop Up Mover/Pop Up Contents Arts Parent/Mosthan Gifts Parent/Moshtan Gift
      (2)
    classID: 224
    script: {fileID: 0}
  - curve:
      serializedVersion: 2
      m_Curve:
      - serializedVersion: 2
        time: 0
        value: 0
        inSlope: 0
        outSlope: -0
        tangentMode: 69
      - serializedVersion: 2
        time: 0.65
        value: 0
        inSlope: 0
        outSlope: 4.983981
        tangentMode: 69
      - serializedVersion: 2
        time: 0.8833333
        value: 1.162929
        inSlope: 4.983981
        outSlope: -1.9551492
        tangentMode: 69
      - serializedVersion: 2
        time: 0.96666664
        value: 1
        inSlope: -1.9551492
        outSlope: 10.000001
        tangentMode: 69
      m_PreInfinity: 2
      m_PostInfinity: 2
      m_RotationOrder: 4
    attribute: m_LocalScale.x
    path: Pop Up Mover/Pop Up Contents Arts Parent/Mosthan Gifts Parent/Moshtan Gift
      (1)
    classID: 224
    script: {fileID: 0}
  - curve:
      serializedVersion: 2
      m_Curve:
      - serializedVersion: 2
        time: 0
        value: 0
        inSlope: 0
        outSlope: -0
        tangentMode: 69
      - serializedVersion: 2
        time: 0.65
        value: 0
        inSlope: 0
        outSlope: 4.983981
        tangentMode: 69
      - serializedVersion: 2
        time: 0.8833333
        value: 1.162929
        inSlope: 4.983981
        outSlope: -1.9551492
        tangentMode: 69
      - serializedVersion: 2
        time: 0.96666664
        value: 1
        inSlope: -1.9551492
        outSlope: 10.000001
        tangentMode: 69
      m_PreInfinity: 2
      m_PostInfinity: 2
      m_RotationOrder: 4
    attribute: m_LocalScale.y
    path: Pop Up Mover/Pop Up Contents Arts Parent/Mosthan Gifts Parent/Moshtan Gift
      (1)
    classID: 224
    script: {fileID: 0}
  - curve:
      serializedVersion: 2
      m_Curve:
      - serializedVersion: 2
        time: 0
        value: 0
        inSlope: 0
        outSlope: -0
        tangentMode: 69
      - serializedVersion: 2
        time: 0.65
        value: 0
        inSlope: 0
        outSlope: 4.983981
        tangentMode: 69
      - serializedVersion: 2
        time: 0.8833333
        value: 1.162929
        inSlope: 4.983981
        outSlope: -1.9551492
        tangentMode: 69
      - serializedVersion: 2
        time: 0.96666664
        value: 1
        inSlope: -1.9551492
        outSlope: 10.000001
        tangentMode: 69
      m_PreInfinity: 2
      m_PostInfinity: 2
      m_RotationOrder: 4
    attribute: m_LocalScale.z
    path: Pop Up Mover/Pop Up Contents Arts Parent/Mosthan Gifts Parent/Moshtan Gift
      (1)
    classID: 224
    script: {fileID: 0}
  m_EulerEditorCurves: []
  m_HasGenericRootTransform: 0
  m_HasMotionFloatCurves: 0
  m_GenerateMotionCurves: 0
  m_Events: []
