%YAML 1.1
%TAG !u! tag:unity3d.com,2011:
--- !u!74 &7400000
AnimationClip:
  m_ObjectHideFlags: 0
  m_PrefabParentObject: {fileID: 0}
  m_PrefabInternal: {fileID: 0}
  m_Name: Menu - Intro 1 Anim 3 SEQUEL (Legacy)
  serializedVersion: 6
  m_Legacy: 1
  m_Compressed: 0
  m_UseHighQualityCurve: 1
  m_RotationCurves: []
  m_CompressedRotationCurves: []
  m_EulerCurves:
  - curve:
      serializedVersion: 2
      m_Curve:
      - serializedVersion: 2
        time: 0
        value: {x: 0, y: 0, z: 0}
        inSlope: {x: 0, y: 0, z: 0}
        outSlope: {x: 0, y: 0, z: -0}
        tangentMode: 0
      - serializedVersion: 2
        time: 0.25
        value: {x: 0, y: 0, z: 0}
        inSlope: {x: 0, y: 0, z: 0}
        outSlope: {x: 0, y: 0, z: -52.625355}
        tangentMode: 0
      - serializedVersion: 2
        time: 0.28333333
        value: {x: 0, y: 0, z: -1.7541784}
        inSlope: {x: 0, y: 0, z: -52.625355}
        outSlope: {x: 0, y: 0, z: 7.517908}
        tangentMode: 0
      - serializedVersion: 2
        time: 0.51666665
        value: {x: 0, y: 0, z: 0}
        inSlope: {x: 0, y: 0, z: 0}
        outSlope: {x: 0, y: 0, z: 0}
        tangentMode: 0
      - serializedVersion: 2
        time: 0.75
        value: {x: 0, y: 0, z: 0}
        inSlope: {x: 0, y: 0, z: 0}
        outSlope: {x: 0, y: 0, z: 54.383865}
        tangentMode: 0
      - serializedVersion: 2
        time: 0.78333336
        value: {x: 0, y: 0, z: 1.8127971}
        inSlope: {x: 0, y: 0, z: 54.383865}
        outSlope: {x: 0, y: 0, z: -24.129976}
        tangentMode: 0
      - serializedVersion: 2
        time: 0.9
        value: {x: 0, y: 0, z: -1.0023656}
        inSlope: {x: 0, y: 0, z: -24.129976}
        outSlope: {x: 0, y: 0, z: 7.517742}
        tangentMode: 0
      - serializedVersion: 2
        time: 1.0333333
        value: {x: 0, y: 0, z: 0}
        inSlope: {x: 0, y: 0, z: 0}
        outSlope: {x: 0, y: 0, z: 0}
        tangentMode: 0
      - serializedVersion: 2
        time: 1.1666666
        value: {x: 0, y: 0, z: 0}
        inSlope: {x: 0, y: 0, z: 0}
        outSlope: {x: 0, y: 0, z: -36.000008}
        tangentMode: 0
      m_PreInfinity: 2
      m_PostInfinity: 2
      m_RotationOrder: 4
    path: Main Parent
  m_PositionCurves: []
  m_ScaleCurves:
  - curve:
      serializedVersion: 2
      m_Curve:
      - serializedVersion: 2
        time: 0
        value: {x: 0.188, y: 0.188, z: 0.188}
        inSlope: {x: 0, y: 0, z: 0}
        outSlope: {x: 0, y: 0, z: 0}
        tangentMode: 0
      m_PreInfinity: 2
      m_PostInfinity: 2
      m_RotationOrder: 4
    path: Main Parent/Main Menu & Body Mover/Body Art Elements
  - curve:
      serializedVersion: 2
      m_Curve:
      - serializedVersion: 2
        time: 0
        value: {x: 1, y: 1, z: 1}
        inSlope: {x: 0, y: 0, z: 0}
        outSlope: {x: -0, y: -0, z: -0}
        tangentMode: 0
      - serializedVersion: 2
        time: 0.25
        value: {x: 1, y: 1, z: 1}
        inSlope: {x: 0, y: 0, z: 0}
        outSlope: {x: -0.8710196, y: -0.8710196, z: -0.8710196}
        tangentMode: 0
      - serializedVersion: 2
        time: 0.2833333
        value: {x: 0.97096604, y: 0.97096604, z: 0.97096604}
        inSlope: {x: -0.8710196, y: -0.8710196, z: -0.8710196}
        outSlope: {x: 0.23853973, y: 0.23853973, z: 0.23853973}
        tangentMode: 0
      - serializedVersion: 2
        time: 0.43333334
        value: {x: 1.006747, y: 1.006747, z: 1.006747}
        inSlope: {x: 0.23853973, y: 0.23853973, z: 0.23853973}
        outSlope: {x: -0.110241525, y: -0.110241525, z: -0.110241525}
        tangentMode: 0
      - serializedVersion: 2
        time: 0.5666666
        value: {x: 0.99204814, y: 0.99204814, z: 0.99204814}
        inSlope: {x: -0.110241525, y: -0.110241525, z: -0.110241525}
        outSlope: {x: 0.079518534, y: 0.079518534, z: 0.079518534}
        tangentMode: 0
      - serializedVersion: 2
        time: 0.6666666
        value: {x: 1, y: 1, z: 1}
        inSlope: {x: 0, y: 0, z: 0}
        outSlope: {x: 0, y: 0, z: 0}
        tangentMode: 0
      - serializedVersion: 2
        time: 0.75
        value: {x: 1, y: 1, z: 1}
        inSlope: {x: 0, y: 0, z: 0}
        outSlope: {x: -1.7483048, y: -1.7483048, z: -1.7483048}
        tangentMode: 0
      - serializedVersion: 2
        time: 0.7833333
        value: {x: 0.9417232, y: 0.9417232, z: 0.9417232}
        inSlope: {x: -1.7483048, y: -1.7483048, z: -1.7483048}
        outSlope: {x: 0.45436683, y: 0.45436683, z: 0.45436683}
        tangentMode: 0
      - serializedVersion: 2
        time: 0.96666664
        value: {x: 1.0250238, y: 1.0250238, z: 1.0250238}
        inSlope: {x: 0.45436683, y: 0.45436683, z: 0.45436683}
        outSlope: {x: -0.24731767, y: -0.24731767, z: -0.24731767}
        tangentMode: 0
      - serializedVersion: 2
        time: 1.0999999
        value: {x: 0.99204814, y: 0.99204814, z: 0.99204814}
        inSlope: {x: -0.24731767, y: -0.24731767, z: -0.24731767}
        outSlope: {x: 0.079518445, y: 0.079518445, z: 0.079518445}
        tangentMode: 0
      - serializedVersion: 2
        time: 1.2
        value: {x: 1, y: 1, z: 1}
        inSlope: {x: 0, y: 0, z: 0}
        outSlope: {x: 0, y: 0, z: 0}
        tangentMode: 0
      - serializedVersion: 2
        time: 1.3333334
        value: {x: 1, y: 1, z: 1}
        inSlope: {x: 0, y: 0, z: 0}
        outSlope: {x: 0, y: 0, z: 0}
        tangentMode: 0
      m_PreInfinity: 2
      m_PostInfinity: 2
      m_RotationOrder: 4
    path: Main Parent
  - curve:
      serializedVersion: 2
      m_Curve:
      - serializedVersion: 2
        time: 0
        value: {x: 2, y: 2, z: 2}
        inSlope: {x: 0, y: 0, z: 0}
        outSlope: {x: 0, y: 0, z: 0}
        tangentMode: 0
      - serializedVersion: 2
        time: 0.083333336
        value: {x: 2, y: 2, z: 2}
        inSlope: {x: 0, y: 0, z: 0}
        outSlope: {x: -6.6004376, y: -7.49263, z: -6}
        tangentMode: 0
      - serializedVersion: 2
        time: 0.23333333
        value: {x: 1.0099342, y: 0.8761055, z: 1.0999999}
        inSlope: {x: -6.600438, y: -7.49263, z: -6.0000005}
        outSlope: {x: -6.600438, y: 0.6757883, z: -6.0000005}
        tangentMode: 0
      - serializedVersion: 2
        time: 0.25
        value: {x: 0.899927, y: 0.88829947, z: 1}
        inSlope: {x: -6.6004276, y: 0.78190297, z: -6}
        outSlope: {x: -6.6004276, y: 0.78190297, z: -0}
        tangentMode: 0
      - serializedVersion: 2
        time: 0.26666668
        value: {x: 0.7899197, y: 0.9019828, z: 1}
        inSlope: {x: -6.6004376, y: 0.85450923, z: 0}
        outSlope: {x: 1.4005357, y: 0.85450923, z: 0}
        tangentMode: 0
      - serializedVersion: 2
        time: 0.41666666
        value: {x: 1, y: 1, z: 1}
        inSlope: {x: 0, y: 0, z: 0}
        outSlope: {x: 0, y: 0, z: 0}
        tangentMode: 0
      - serializedVersion: 2
        time: 0.75
        value: {x: 1, y: 1, z: 1}
        inSlope: {x: 0, y: 0, z: 0}
        outSlope: {x: -12.208161, y: 15.903626, z: -0}
        tangentMode: 0
      - serializedVersion: 2
        time: 0.76666665
        value: {x: 0.79653084, y: 1.2650602, z: 1}
        inSlope: {x: -12.208161, y: 15.903626, z: 0}
        outSlope: {x: 1.3564607, y: -1.7670674, z: -0}
        tangentMode: 0
      - serializedVersion: 2
        time: 0.78333336
        value: {x: 0.8213715, y: 1.2327001, z: 1}
        inSlope: {x: 1.6076577, y: -2.094303, z: 0}
        outSlope: {x: 1.6076577, y: -2.094303, z: -0}
        tangentMode: 0
      - serializedVersion: 2
        time: 0.8833333
        value: {x: 0.98213714, y: 1.02327, z: 1}
        inSlope: {x: 1.004786, y: -1.3089386, z: 0}
        outSlope: {x: 1.004786, y: -1.3089386, z: -0}
        tangentMode: 0
      - serializedVersion: 2
        time: 0.9166667
        value: {x: 1, y: 1, z: 1}
        inSlope: {x: 0, y: 0, z: 0}
        outSlope: {x: 0, y: 0, z: -0}
        tangentMode: 0
      - serializedVersion: 2
        time: 1.5
        value: {x: 1, y: 1, z: 1}
        inSlope: {x: 0, y: 0, z: 0}
        outSlope: {x: 0, y: 0, z: 0}
        tangentMode: 0
      m_PreInfinity: 2
      m_PostInfinity: 2
      m_RotationOrder: 4
    path: Main Parent/Main Menu & Body Mover/Main Buttons Parent/Items Button Parent
  - curve:
      serializedVersion: 2
      m_Curve:
      - serializedVersion: 2
        time: 0
        value: {x: 2, y: 2, z: 2}
        inSlope: {x: 0, y: 0, z: 0}
        outSlope: {x: 0, y: 0, z: 0}
        tangentMode: 0
      - serializedVersion: 2
        time: 0.08333335
        value: {x: 2, y: 2, z: 2}
        inSlope: {x: 0, y: 0, z: 0}
        outSlope: {x: -6.600438, y: -7.492631, z: -6.0000005}
        tangentMode: 0
      - serializedVersion: 2
        time: 0.23333333
        value: {x: 1.0099344, y: 0.8761055, z: 1.1000001}
        inSlope: {x: -6.600437, y: -7.492631, z: -6.000001}
        outSlope: {x: -6.600437, y: 0.6757883, z: -6.000001}
        tangentMode: 0
      - serializedVersion: 2
        time: 0.25
        value: {x: 0.89992714, y: 0.88829947, z: 1}
        inSlope: {x: -6.600438, y: 0.78190297, z: -6.0000005}
        outSlope: {x: -6.600438, y: 0.78190297, z: -0}
        tangentMode: 0
      - serializedVersion: 2
        time: 0.26666668
        value: {x: 0.7899197, y: 0.9019828, z: 1}
        inSlope: {x: -6.600438, y: 0.85450923, z: 0}
        outSlope: {x: 1.4005357, y: 0.85450923, z: 0}
        tangentMode: 0
      - serializedVersion: 2
        time: 0.41666666
        value: {x: 1, y: 1, z: 1}
        inSlope: {x: 0, y: 0, z: 0}
        outSlope: {x: 0, y: 0, z: 0}
        tangentMode: 0
      - serializedVersion: 2
        time: 0.75
        value: {x: 1, y: 1, z: 1}
        inSlope: {x: 0, y: 0, z: 0}
        outSlope: {x: -12.208161, y: 15.903626, z: -0}
        tangentMode: 0
      - serializedVersion: 2
        time: 0.76666665
        value: {x: 0.79653084, y: 1.2650602, z: 1}
        inSlope: {x: -12.208161, y: 15.903626, z: 0}
        outSlope: {x: 1.3564607, y: -1.7670674, z: -0}
        tangentMode: 0
      - serializedVersion: 2
        time: 0.78333336
        value: {x: 0.8213715, y: 1.2327001, z: 1}
        inSlope: {x: 1.6076577, y: -2.094303, z: 0}
        outSlope: {x: 1.6076577, y: -2.094303, z: -0}
        tangentMode: 0
      - serializedVersion: 2
        time: 0.8833333
        value: {x: 0.98213714, y: 1.02327, z: 1}
        inSlope: {x: 1.004786, y: -1.3089386, z: 0}
        outSlope: {x: 1.004786, y: -1.3089386, z: -0}
        tangentMode: 0
      - serializedVersion: 2
        time: 0.9166667
        value: {x: 1, y: 1, z: 1}
        inSlope: {x: 0, y: 0, z: 0}
        outSlope: {x: 0, y: 0, z: -0}
        tangentMode: 0
      - serializedVersion: 2
        time: 1.5
        value: {x: 1, y: 1, z: 1}
        inSlope: {x: 0, y: 0, z: 0}
        outSlope: {x: 0, y: 0, z: 0}
        tangentMode: 0
      m_PreInfinity: 2
      m_PostInfinity: 2
      m_RotationOrder: 4
    path: Main Parent/Main Menu & Body Mover/Main Buttons Parent/Shop Button Parent
  - curve:
      serializedVersion: 2
      m_Curve:
      - serializedVersion: 2
        time: 0
        value: {x: 2, y: 2, z: 2}
        inSlope: {x: 0, y: 0, z: 0}
        outSlope: {x: -0, y: -0, z: -0}
        tangentMode: 0
      - serializedVersion: 2
        time: 0.6
        value: {x: 2, y: 2, z: 2}
        inSlope: {x: 0, y: 0, z: 0}
        outSlope: {x: -7.2449813, y: -7.2449813, z: -6.666668}
        tangentMode: 0
      - serializedVersion: 2
        time: 0.75
        value: {x: 0.913253, y: 0.913253, z: 1}
        inSlope: {x: -7.2449813, y: -7.2449813, z: -6.666668}
        outSlope: {x: 1.0409641, y: 1.0409641, z: -0}
        tangentMode: 0
      - serializedVersion: 2
        time: 0.8333333
        value: {x: 1, y: 1, z: 1}
        inSlope: {x: 0, y: 0, z: 0}
        outSlope: {x: 0, y: 0, z: 0}
        tangentMode: 0
      - serializedVersion: 2
        time: 1
        value: {x: 1, y: 1, z: 1}
        inSlope: {x: 0, y: 0, z: 0}
        outSlope: {x: 0, y: 0, z: 0}
        tangentMode: 0
      m_PreInfinity: 2
      m_PostInfinity: 2
      m_RotationOrder: 4
    path: Main Parent/Main Menu & Body Mover/Main Buttons Parent/Play Button Parent
  - curve:
      serializedVersion: 2
      m_Curve:
      - serializedVersion: 2
        time: 0
        value: {x: 2, y: 2, z: 2}
        inSlope: {x: 0, y: 0, z: 0}
        outSlope: {x: -0, y: -0, z: -0}
        tangentMode: 0
      - serializedVersion: 2
        time: 0.6
        value: {x: 2, y: 2, z: 2}
        inSlope: {x: 0, y: 0, z: 0}
        outSlope: {x: -7.2449813, y: -7.2449813, z: -6.666668}
        tangentMode: 0
      - serializedVersion: 2
        time: 0.75
        value: {x: 0.913253, y: 0.913253, z: 1}
        inSlope: {x: -7.2449813, y: -7.2449813, z: -6.666668}
        outSlope: {x: 1.0409641, y: 1.0409641, z: -0}
        tangentMode: 0
      - serializedVersion: 2
        time: 0.8333333
        value: {x: 1, y: 1, z: 1}
        inSlope: {x: 0, y: 0, z: 0}
        outSlope: {x: 0, y: 0, z: 0}
        tangentMode: 0
      - serializedVersion: 2
        time: 1
        value: {x: 1, y: 1, z: 1}
        inSlope: {x: 0, y: 0, z: 0}
        outSlope: {x: 0, y: 0, z: 0}
        tangentMode: 0
      m_PreInfinity: 2
      m_PostInfinity: 2
      m_RotationOrder: 4
    path: Main Parent/Main Menu & Body Mover/Main Buttons Parent/Endless Button Parent
  m_FloatCurves:
  - curve:
      serializedVersion: 2
      m_Curve:
      - serializedVersion: 2
        time: 0
        value: 47
        inSlope: 0
        outSlope: 0
        tangentMode: 0
      m_PreInfinity: 2
      m_PostInfinity: 2
      m_RotationOrder: 4
    attribute: m_AnchoredPosition.y
    path: Main Parent/Main Menu & Body Mover/Body Art Elements
    classID: 224
    script: {fileID: 0}
  - curve:
      serializedVersion: 2
      m_Curve:
      - serializedVersion: 2
        time: 0
        value: -419
        inSlope: 0
        outSlope: -0
        tangentMode: 69
      - serializedVersion: 2
        time: 0.6
        value: -419
        inSlope: 0
        outSlope: 1524.0002
        tangentMode: 69
      - serializedVersion: 2
        time: 0.75
        value: -190.4
        inSlope: 1524.0002
        outSlope: -0
        tangentMode: 69
      m_PreInfinity: 2
      m_PostInfinity: 2
      m_RotationOrder: 4
    attribute: m_AnchoredPosition.y
    path: Main Parent/Main Menu & Body Mover/Main Buttons Parent/Play Button Parent
    classID: 224
    script: {fileID: 0}
  - curve:
      serializedVersion: 2
      m_Curve:
      - serializedVersion: 2
        time: 0
        value: -419
        inSlope: 0
        outSlope: -0
        tangentMode: 69
      - serializedVersion: 2
        time: 0.083333336
        value: -419
        inSlope: 0
        outSlope: 1371.6001
        tangentMode: 69
      - serializedVersion: 2
        time: 0.25
        value: -190.4
        inSlope: 1371.6001
        outSlope: -0
        tangentMode: 69
      m_PreInfinity: 2
      m_PostInfinity: 2
      m_RotationOrder: 4
    attribute: m_AnchoredPosition.y
    path: Main Parent/Main Menu & Body Mover/Main Buttons Parent/Items Button Parent
    classID: 224
    script: {fileID: 0}
  - curve:
      serializedVersion: 2
      m_Curve:
      - serializedVersion: 2
        time: 0
        value: -419
        inSlope: 0
        outSlope: -0
        tangentMode: 69
      - serializedVersion: 2
        time: 0.08333335
        value: -419
        inSlope: 0
        outSlope: 1372.8002
        tangentMode: 69
      - serializedVersion: 2
        time: 0.25
        value: -190.2
        inSlope: 1372.8002
        outSlope: -0
        tangentMode: 69
      m_PreInfinity: 2
      m_PostInfinity: 2
      m_RotationOrder: 4
    attribute: m_AnchoredPosition.y
    path: Main Parent/Main Menu & Body Mover/Main Buttons Parent/Shop Button Parent
    classID: 224
    script: {fileID: 0}
  - curve:
      serializedVersion: 2
      m_Curve:
      - serializedVersion: 2
        time: 0
        value: -479.69128
        inSlope: 0
        outSlope: -0
        tangentMode: 69
      - serializedVersion: 2
        time: 0.083333336
        value: -479.69128
        inSlope: 0
        outSlope: 1798.1477
        tangentMode: 69
      - serializedVersion: 2
        time: 0.25
        value: -180
        inSlope: 1798.1477
        outSlope: -0
        tangentMode: 69
      - serializedVersion: 2
        time: 0.6666667
        value: -180
        inSlope: 0
        outSlope: -1352.8877
        tangentMode: 69
      - serializedVersion: 2
        time: 0.78333336
        value: -337.8369
        inSlope: -1352.8877
        outSlope: 349.79892
        tangentMode: 69
      - serializedVersion: 2
        time: 0.8666667
        value: -308.687
        inSlope: 0
        outSlope: 0
        tangentMode: 0
      m_PreInfinity: 2
      m_PostInfinity: 2
      m_RotationOrder: 4
    attribute: m_AnchoredPosition.x
    path: Main Parent/Main Menu & Body Mover/Main Buttons Parent/Items Button Parent
    classID: 224
    script: {fileID: 0}
  - curve:
      serializedVersion: 2
      m_Curve:
      - serializedVersion: 2
        time: 0
        value: 563.86957
        inSlope: 0
        outSlope: -0
        tangentMode: 69
      - serializedVersion: 2
        time: 0.08333335
        value: 563.86957
        inSlope: 0
        outSlope: -2303.2175
        tangentMode: 69
      - serializedVersion: 2
        time: 0.25
        value: 180
        inSlope: -2303.2175
        outSlope: -0
        tangentMode: 69
      - serializedVersion: 2
        time: 0.6666667
        value: 180
        inSlope: 0
        outSlope: 1390.2135
        tangentMode: 69
      - serializedVersion: 2
        time: 0.78333336
        value: 342.1916
        inSlope: 1390.2135
        outSlope: -464.2992
        tangentMode: 69
      - serializedVersion: 2
        time: 0.8666667
        value: 303.5
        inSlope: 0
        outSlope: 0
        tangentMode: 0
      m_PreInfinity: 2
      m_PostInfinity: 2
      m_RotationOrder: 4
    attribute: m_AnchoredPosition.x
    path: Main Parent/Main Menu & Body Mover/Main Buttons Parent/Shop Button Parent
    classID: 224
    script: {fileID: 0}
  - curve:
      serializedVersion: 2
      m_Curve:
      - serializedVersion: 2
        time: 0
        value: 0
        inSlope: Infinity
        outSlope: Infinity
        tangentMode: 103
      - serializedVersion: 2
        time: 0.083333336
        value: 1
        inSlope: Infinity
        outSlope: Infinity
        tangentMode: 103
      m_PreInfinity: 2
      m_PostInfinity: 2
      m_RotationOrder: 4
    attribute: m_IsActive
    path: Main Parent/Main Menu & Body Mover/Main Buttons Parent/Items Button Parent
    classID: 1
    script: {fileID: 0}
  - curve:
      serializedVersion: 2
      m_Curve:
      - serializedVersion: 2
        time: 0
        value: 0
        inSlope: Infinity
        outSlope: Infinity
        tangentMode: 103
      - serializedVersion: 2
        time: 0.08333335
        value: 1
        inSlope: Infinity
        outSlope: Infinity
        tangentMode: 103
      m_PreInfinity: 2
      m_PostInfinity: 2
      m_RotationOrder: 4
    attribute: m_IsActive
    path: Main Parent/Main Menu & Body Mover/Main Buttons Parent/Shop Button Parent
    classID: 1
    script: {fileID: 0}
  - curve:
      serializedVersion: 2
      m_Curve:
      - serializedVersion: 2
        time: 0
        value: 0
        inSlope: Infinity
        outSlope: Infinity
        tangentMode: 103
      - serializedVersion: 2
        time: 0.59999996
        value: 1
        inSlope: Infinity
        outSlope: Infinity
        tangentMode: 103
      m_PreInfinity: 2
      m_PostInfinity: 2
      m_RotationOrder: 4
    attribute: m_IsActive
    path: Main Parent/Main Menu & Body Mover/Main Buttons Parent/Play Button Parent
    classID: 1
    script: {fileID: 0}
  - curve:
      serializedVersion: 2
      m_Curve:
      - serializedVersion: 2
        time: 0
        value: 0
        inSlope: Infinity
        outSlope: Infinity
        tangentMode: 103
      - serializedVersion: 2
        time: 0.33333334
        value: 1
        inSlope: Infinity
        outSlope: Infinity
        tangentMode: 103
      m_PreInfinity: 2
      m_PostInfinity: 2
      m_RotationOrder: 4
    attribute: m_IsActive
    path: Main Parent/Main Menu & Body Mover/Main Buttons Parent/Settings Button Parent
    classID: 1
    script: {fileID: 0}
  - curve:
      serializedVersion: 2
      m_Curve:
      - serializedVersion: 2
        time: 0
        value: -590
        inSlope: 0
        outSlope: -0
        tangentMode: 69
      - serializedVersion: 2
        time: 0.75
        value: -590
        inSlope: 0
        outSlope: 667.05505
        tangentMode: 69
      - serializedVersion: 2
        time: 1
        value: -423.23624
        inSlope: 0
        outSlope: 0
        tangentMode: 0
      - serializedVersion: 2
        time: 1.25
        value: -435.4
        inSlope: 0
        outSlope: 0
        tangentMode: 0
      - serializedVersion: 2
        time: 1.4999998
        value: -435.4
        inSlope: 0
        outSlope: 0
        tangentMode: 0
      m_PreInfinity: 2
      m_PostInfinity: 2
      m_RotationOrder: 4
    attribute: m_AnchoredPosition.x
    path: Main Parent/Main Menu & Body Mover/Main Buttons Parent/Settings Button Parent
    classID: 224
    script: {fileID: 0}
  - curve:
      serializedVersion: 2
      m_Curve:
      - serializedVersion: 2
        time: 0
        value: -590
        inSlope: 0
        outSlope: 0
        tangentMode: 34
      - serializedVersion: 2
        time: 0.9166666
        value: -590
        inSlope: 0
        outSlope: 667.0549
        tangentMode: 69
      - serializedVersion: 2
        time: 1.1666667
        value: -423.2362
        inSlope: 0
        outSlope: 0
        tangentMode: 0
      - serializedVersion: 2
        time: 1.4166665
        value: -435.4
        inSlope: 0
        outSlope: 0
        tangentMode: 0
      - serializedVersion: 2
        time: 1.4999998
        value: -435.4
        inSlope: 0
        outSlope: 0
        tangentMode: 0
      m_PreInfinity: 2
      m_PostInfinity: 2
      m_RotationOrder: 4
    attribute: m_AnchoredPosition.x
    path: Main Parent/Main Menu & Body Mover/Main Buttons Parent/LeaderB Button Parent
    classID: 224
    script: {fileID: 0}
  - curve:
      serializedVersion: 2
      m_Curve:
      - serializedVersion: 2
        time: 0
        value: -590
        inSlope: 0
        outSlope: 0
        tangentMode: 34
      - serializedVersion: 2
        time: 0.99999994
        value: -590
        inSlope: 0
        outSlope: 667.055
        tangentMode: 69
      - serializedVersion: 2
        time: 1.25
        value: -423.2362
        inSlope: 0
        outSlope: 0
        tangentMode: 0
      - serializedVersion: 2
        time: 1.4999998
        value: -435.4
        inSlope: 0
        outSlope: 0
        tangentMode: 0
      m_PreInfinity: 2
      m_PostInfinity: 2
      m_RotationOrder: 4
    attribute: m_AnchoredPosition.x
    path: Main Parent/Main Menu & Body Mover/Main Buttons Parent/VidGift Button Parent
    classID: 224
    script: {fileID: 0}
  - curve:
      serializedVersion: 2
      m_Curve:
      - serializedVersion: 2
        time: 0
        value: -590
        inSlope: 0
        outSlope: 0
        tangentMode: 34
      - serializedVersion: 2
        time: 0.83333325
        value: -590
        inSlope: 0
        outSlope: 667.05457
        tangentMode: 69
      - serializedVersion: 2
        time: 1.0833335
        value: -423.2362
        inSlope: 0
        outSlope: 0
        tangentMode: 0
      - serializedVersion: 2
        time: 1.333333
        value: -435.4
        inSlope: 0
        outSlope: 0
        tangentMode: 0
      - serializedVersion: 2
        time: 1.4999998
        value: -435.4
        inSlope: 0
        outSlope: 0
        tangentMode: 0
      m_PreInfinity: 2
      m_PostInfinity: 2
      m_RotationOrder: 4
    attribute: m_AnchoredPosition.x
    path: Main Parent/Main Menu & Body Mover/Main Buttons Parent/Achievement Button
      Parent
    classID: 224
    script: {fileID: 0}
  - curve:
      serializedVersion: 2
      m_Curve:
      - serializedVersion: 2
        time: 0
        value: 0
        inSlope: Infinity
        outSlope: Infinity
        tangentMode: 103
      - serializedVersion: 2
        time: 0.33333334
        value: 1
        inSlope: Infinity
        outSlope: Infinity
        tangentMode: 103
      m_PreInfinity: 2
      m_PostInfinity: 2
      m_RotationOrder: 4
    attribute: m_IsActive
    path: Main Parent/Main Menu & Body Mover/Main Buttons Parent/Achievement Button
      Parent
    classID: 1
    script: {fileID: 0}
  - curve:
      serializedVersion: 2
      m_Curve:
      - serializedVersion: 2
        time: 0
        value: 0
        inSlope: Infinity
        outSlope: Infinity
        tangentMode: 103
      - serializedVersion: 2
        time: 0.33333334
        value: 1
        inSlope: Infinity
        outSlope: Infinity
        tangentMode: 103
      m_PreInfinity: 2
      m_PostInfinity: 2
      m_RotationOrder: 4
    attribute: m_IsActive
    path: Main Parent/Main Menu & Body Mover/Main Buttons Parent/LeaderB Button Parent
    classID: 1
    script: {fileID: 0}
  - curve:
      serializedVersion: 2
      m_Curve:
      - serializedVersion: 2
        time: 0
        value: 0
        inSlope: Infinity
        outSlope: Infinity
        tangentMode: 103
      - serializedVersion: 2
        time: 0.33333334
        value: 1
        inSlope: Infinity
        outSlope: Infinity
        tangentMode: 103
      m_PreInfinity: 2
      m_PostInfinity: 2
      m_RotationOrder: 4
    attribute: m_IsActive
    path: Main Parent/Main Menu & Body Mover/Main Buttons Parent/VidGift Button Parent
    classID: 1
    script: {fileID: 0}
  - curve:
      serializedVersion: 2
      m_Curve:
      - serializedVersion: 2
        time: 0
        value: -419
        inSlope: 0
        outSlope: -0
        tangentMode: 69
      - serializedVersion: 2
        time: 0.6
        value: -419
        inSlope: 0
        outSlope: 1524.0002
        tangentMode: 69
      - serializedVersion: 2
        time: 0.75
        value: -190.4
        inSlope: 1524.0002
        outSlope: -0
        tangentMode: 69
      m_PreInfinity: 2
      m_PostInfinity: 2
      m_RotationOrder: 4
    attribute: m_AnchoredPosition.y
    path: Main Parent/Main Menu & Body Mover/Main Buttons Parent/Endless Button Parent
    classID: 224
    script: {fileID: 0}
  - curve:
      serializedVersion: 2
      m_Curve:
      - serializedVersion: 2
        time: 0
        value: 0
        inSlope: Infinity
        outSlope: Infinity
        tangentMode: 103
      - serializedVersion: 2
        time: 0.59999996
        value: 1
        inSlope: Infinity
        outSlope: Infinity
        tangentMode: 103
      m_PreInfinity: 2
      m_PostInfinity: 2
      m_RotationOrder: 4
    attribute: m_IsActive
    path: Main Parent/Main Menu & Body Mover/Main Buttons Parent/Endless Button Parent
    classID: 1
    script: {fileID: 0}
  - curve:
      serializedVersion: 2
      m_Curve:
      - serializedVersion: 2
        time: 0
        value: 0
        inSlope: 0
        outSlope: 0
        tangentMode: 136
      m_PreInfinity: 2
      m_PostInfinity: 2
      m_RotationOrder: 4
    attribute: m_AnchoredPosition.x
    path: Main Parent/Main Menu & Body Mover/Body Art Elements
    classID: 224
    script: {fileID: 0}
  m_PPtrCurves: []
  m_SampleRate: 60
  m_WrapMode: 0
  m_Bounds:
    m_Center: {x: 0, y: 0, z: 0}
    m_Extent: {x: 0, y: 0, z: 0}
  m_ClipBindingConstant:
    genericBindings: []
    pptrCurveMapping: []
  m_AnimationClipSettings:
    serializedVersion: 2
    m_AdditiveReferencePoseClip: {fileID: 0}
    m_AdditiveReferencePoseTime: 0
    m_StartTime: 0
    m_StopTime: 1.5
    m_OrientationOffsetY: 0
    m_Level: 0
    m_CycleOffset: 0
    m_HasAdditiveReferencePose: 0
    m_LoopTime: 1
    m_LoopBlend: 0
    m_LoopBlendOrientation: 0
    m_LoopBlendPositionY: 0
    m_LoopBlendPositionXZ: 0
    m_KeepOriginalOrientation: 0
    m_KeepOriginalPositionY: 1
    m_KeepOriginalPositionXZ: 0
    m_HeightFromFeet: 0
    m_Mirror: 0
  m_EditorCurves:
  - curve:
      serializedVersion: 2
      m_Curve:
      - serializedVersion: 2
        time: 0
        value: 47
        inSlope: 0
        outSlope: 0
        tangentMode: 0
      m_PreInfinity: 2
      m_PostInfinity: 2
      m_RotationOrder: 4
    attribute: m_AnchoredPosition.y
    path: Main Parent/Main Menu & Body Mover/Body Art Elements
    classID: 224
    script: {fileID: 0}
  - curve:
      serializedVersion: 2
      m_Curve:
      - serializedVersion: 2
        time: 0
        value: 0.188
        inSlope: 0
        outSlope: 0
        tangentMode: 0
      m_PreInfinity: 2
      m_PostInfinity: 2
      m_RotationOrder: 4
    attribute: m_LocalScale.x
    path: Main Parent/Main Menu & Body Mover/Body Art Elements
    classID: 224
    script: {fileID: 0}
  - curve:
      serializedVersion: 2
      m_Curve:
      - serializedVersion: 2
        time: 0
        value: 0.188
        inSlope: 0
        outSlope: 0
        tangentMode: 0
      m_PreInfinity: 2
      m_PostInfinity: 2
      m_RotationOrder: 4
    attribute: m_LocalScale.y
    path: Main Parent/Main Menu & Body Mover/Body Art Elements
    classID: 224
    script: {fileID: 0}
  - curve:
      serializedVersion: 2
      m_Curve:
      - serializedVersion: 2
        time: 0
        value: 0.188
        inSlope: 0
        outSlope: 0
        tangentMode: 0
      m_PreInfinity: 2
      m_PostInfinity: 2
      m_RotationOrder: 4
    attribute: m_LocalScale.z
    path: Main Parent/Main Menu & Body Mover/Body Art Elements
    classID: 224
    script: {fileID: 0}
  - curve:
      serializedVersion: 2
      m_Curve:
      - serializedVersion: 2
        time: 0
        value: 0
        inSlope: 0
        outSlope: 0
        tangentMode: 34
      m_PreInfinity: 2
      m_PostInfinity: 2
      m_RotationOrder: 4
    attribute: localEulerAnglesRaw.x
    path: Main Parent
    classID: 224
    script: {fileID: 0}
  - curve:
      serializedVersion: 2
      m_Curve:
      - serializedVersion: 2
        time: 0
        value: 0
        inSlope: 0
        outSlope: 0
        tangentMode: 34
      m_PreInfinity: 2
      m_PostInfinity: 2
      m_RotationOrder: 4
    attribute: localEulerAnglesRaw.y
    path: Main Parent
    classID: 224
    script: {fileID: 0}
  - curve:
      serializedVersion: 2
      m_Curve:
      - serializedVersion: 2
        time: 0
        value: 0
        inSlope: 0
        outSlope: -0
        tangentMode: 69
      - serializedVersion: 2
        time: 0.25
        value: 0
        inSlope: 0
        outSlope: -52.625355
        tangentMode: 69
      - serializedVersion: 2
        time: 0.28333333
        value: -1.7541784
        inSlope: -52.625355
        outSlope: 7.517908
        tangentMode: 69
      - serializedVersion: 2
        time: 0.51666665
        value: 0
        inSlope: 0
        outSlope: 0
        tangentMode: 0
      - serializedVersion: 2
        time: 0.75
        value: 0
        inSlope: 0
        outSlope: 54.383865
        tangentMode: 69
      - serializedVersion: 2
        time: 0.78333336
        value: 1.8127971
        inSlope: 54.383865
        outSlope: -24.129976
        tangentMode: 69
      - serializedVersion: 2
        time: 0.9
        value: -1.0023656
        inSlope: -24.129976
        outSlope: 7.517742
        tangentMode: 69
      - serializedVersion: 2
        time: 1.0333333
        value: 0
        inSlope: 0
        outSlope: 0
        tangentMode: 0
      - serializedVersion: 2
        time: 1.1666666
        value: 0
        inSlope: 0
        outSlope: -36.000008
        tangentMode: 69
      m_PreInfinity: 2
      m_PostInfinity: 2
      m_RotationOrder: 4
    attribute: localEulerAnglesRaw.z
    path: Main Parent
    classID: 224
    script: {fileID: 0}
  - curve:
      serializedVersion: 2
      m_Curve:
      - serializedVersion: 2
        time: 0
        value: -419
        inSlope: 0
        outSlope: -0
        tangentMode: 69
      - serializedVersion: 2
        time: 0.6
        value: -419
        inSlope: 0
        outSlope: 1524.0002
        tangentMode: 69
      - serializedVersion: 2
        time: 0.75
        value: -190.4
        inSlope: 1524.0002
        outSlope: -0
        tangentMode: 69
      m_PreInfinity: 2
      m_PostInfinity: 2
      m_RotationOrder: 4
    attribute: m_AnchoredPosition.y
    path: Main Parent/Main Menu & Body Mover/Main Buttons Parent/Play Button Parent
    classID: 224
    script: {fileID: 0}
  - curve:
      serializedVersion: 2
      m_Curve:
      - serializedVersion: 2
        time: 0
        value: -419
        inSlope: 0
        outSlope: -0
        tangentMode: 69
      - serializedVersion: 2
        time: 0.083333336
        value: -419
        inSlope: 0
        outSlope: 1371.6001
        tangentMode: 69
      - serializedVersion: 2
        time: 0.25
        value: -190.4
        inSlope: 1371.6001
        outSlope: -0
        tangentMode: 69
      m_PreInfinity: 2
      m_PostInfinity: 2
      m_RotationOrder: 4
    attribute: m_AnchoredPosition.y
    path: Main Parent/Main Menu & Body Mover/Main Buttons Parent/Items Button Parent
    classID: 224
    script: {fileID: 0}
  - curve:
      serializedVersion: 2
      m_Curve:
      - serializedVersion: 2
        time: 0
        value: -419
        inSlope: 0
        outSlope: -0
        tangentMode: 69
      - serializedVersion: 2
        time: 0.08333335
        value: -419
        inSlope: 0
        outSlope: 1372.8002
        tangentMode: 69
      - serializedVersion: 2
        time: 0.25
        value: -190.2
        inSlope: 1372.8002
        outSlope: -0
        tangentMode: 69
      m_PreInfinity: 2
      m_PostInfinity: 2
      m_RotationOrder: 4
    attribute: m_AnchoredPosition.y
    path: Main Parent/Main Menu & Body Mover/Main Buttons Parent/Shop Button Parent
    classID: 224
    script: {fileID: 0}
  - curve:
      serializedVersion: 2
      m_Curve:
      - serializedVersion: 2
        time: 0
        value: -479.69128
        inSlope: 0
        outSlope: -0
        tangentMode: 69
      - serializedVersion: 2
        time: 0.083333336
        value: -479.69128
        inSlope: 0
        outSlope: 1798.1477
        tangentMode: 69
      - serializedVersion: 2
        time: 0.25
        value: -180
        inSlope: 1798.1477
        outSlope: -0
        tangentMode: 69
      - serializedVersion: 2
        time: 0.6666667
        value: -180
        inSlope: 0
        outSlope: -1352.8877
        tangentMode: 69
      - serializedVersion: 2
        time: 0.78333336
        value: -337.8369
        inSlope: -1352.8877
        outSlope: 349.79892
        tangentMode: 69
      - serializedVersion: 2
        time: 0.8666667
        value: -308.687
        inSlope: 0
        outSlope: 0
        tangentMode: 0
      m_PreInfinity: 2
      m_PostInfinity: 2
      m_RotationOrder: 4
    attribute: m_AnchoredPosition.x
    path: Main Parent/Main Menu & Body Mover/Main Buttons Parent/Items Button Parent
    classID: 224
    script: {fileID: 0}
  - curve:
      serializedVersion: 2
      m_Curve:
      - serializedVersion: 2
        time: 0
        value: 563.86957
        inSlope: 0
        outSlope: -0
        tangentMode: 69
      - serializedVersion: 2
        time: 0.08333335
        value: 563.86957
        inSlope: 0
        outSlope: -2303.2175
        tangentMode: 69
      - serializedVersion: 2
        time: 0.25
        value: 180
        inSlope: -2303.2175
        outSlope: -0
        tangentMode: 69
      - serializedVersion: 2
        time: 0.6666667
        value: 180
        inSlope: 0
        outSlope: 1390.2135
        tangentMode: 69
      - serializedVersion: 2
        time: 0.78333336
        value: 342.1916
        inSlope: 1390.2135
        outSlope: -464.2992
        tangentMode: 69
      - serializedVersion: 2
        time: 0.8666667
        value: 303.5
        inSlope: 0
        outSlope: 0
        tangentMode: 0
      m_PreInfinity: 2
      m_PostInfinity: 2
      m_RotationOrder: 4
    attribute: m_AnchoredPosition.x
    path: Main Parent/Main Menu & Body Mover/Main Buttons Parent/Shop Button Parent
    classID: 224
    script: {fileID: 0}
  - curve:
      serializedVersion: 2
      m_Curve:
      - serializedVersion: 2
        time: 0
        value: 1
        inSlope: 0
        outSlope: -0
        tangentMode: 69
      - serializedVersion: 2
        time: 0.25
        value: 1
        inSlope: 0
        outSlope: -0.8710196
        tangentMode: 69
      - serializedVersion: 2
        time: 0.2833333
        value: 0.97096604
        inSlope: -0.8710196
        outSlope: 0.23853973
        tangentMode: 69
      - serializedVersion: 2
        time: 0.43333334
        value: 1.006747
        inSlope: 0.23853973
        outSlope: -0.110241525
        tangentMode: 69
      - serializedVersion: 2
        time: 0.5666666
        value: 0.99204814
        inSlope: -0.110241525
        outSlope: 0.079518534
        tangentMode: 69
      - serializedVersion: 2
        time: 0.6666666
        value: 1
        inSlope: 0
        outSlope: 0
        tangentMode: 0
      - serializedVersion: 2
        time: 0.75
        value: 1
        inSlope: 0
        outSlope: -1.7483048
        tangentMode: 69
      - serializedVersion: 2
        time: 0.7833333
        value: 0.9417232
        inSlope: -1.7483048
        outSlope: 0.45436683
        tangentMode: 69
      - serializedVersion: 2
        time: 0.96666664
        value: 1.0250238
        inSlope: 0.45436683
        outSlope: -0.24731767
        tangentMode: 69
      - serializedVersion: 2
        time: 1.0999999
        value: 0.99204814
        inSlope: -0.24731767
        outSlope: 0.079518445
        tangentMode: 69
      - serializedVersion: 2
        time: 1.2
        value: 1
        inSlope: 0
        outSlope: 0
        tangentMode: 0
      - serializedVersion: 2
        time: 1.3333334
        value: 1
        inSlope: 0
        outSlope: 0
        tangentMode: 69
      m_PreInfinity: 2
      m_PostInfinity: 2
      m_RotationOrder: 4
    attribute: m_LocalScale.x
    path: Main Parent
    classID: 224
    script: {fileID: 0}
  - curve:
      serializedVersion: 2
      m_Curve:
      - serializedVersion: 2
        time: 0
        value: 1
        inSlope: 0
        outSlope: -0
        tangentMode: 69
      - serializedVersion: 2
        time: 0.25
        value: 1
        inSlope: 0
        outSlope: -0.8710196
        tangentMode: 69
      - serializedVersion: 2
        time: 0.2833333
        value: 0.97096604
        inSlope: -0.8710196
        outSlope: 0.23853973
        tangentMode: 69
      - serializedVersion: 2
        time: 0.43333334
        value: 1.006747
        inSlope: 0.23853973
        outSlope: -0.110241525
        tangentMode: 69
      - serializedVersion: 2
        time: 0.5666666
        value: 0.99204814
        inSlope: -0.110241525
        outSlope: 0.079518534
        tangentMode: 69
      - serializedVersion: 2
        time: 0.6666666
        value: 1
        inSlope: 0
        outSlope: 0
        tangentMode: 0
      - serializedVersion: 2
        time: 0.75
        value: 1
        inSlope: 0
        outSlope: -1.7483048
        tangentMode: 69
      - serializedVersion: 2
        time: 0.7833333
        value: 0.9417232
        inSlope: -1.7483048
        outSlope: 0.45436683
        tangentMode: 69
      - serializedVersion: 2
        time: 0.96666664
        value: 1.0250238
        inSlope: 0.45436683
        outSlope: -0.24731767
        tangentMode: 69
      - serializedVersion: 2
        time: 1.0999999
        value: 0.99204814
        inSlope: -0.24731767
        outSlope: 0.079518445
        tangentMode: 69
      - serializedVersion: 2
        time: 1.2
        value: 1
        inSlope: 0
        outSlope: 0
        tangentMode: 0
      - serializedVersion: 2
        time: 1.3333334
        value: 1
        inSlope: 0
        outSlope: 0
        tangentMode: 69
      m_PreInfinity: 2
      m_PostInfinity: 2
      m_RotationOrder: 4
    attribute: m_LocalScale.y
    path: Main Parent
    classID: 224
    script: {fileID: 0}
  - curve:
      serializedVersion: 2
      m_Curve:
      - serializedVersion: 2
        time: 0
        value: 1
        inSlope: 0
        outSlope: -0
        tangentMode: 69
      - serializedVersion: 2
        time: 0.25
        value: 1
        inSlope: 0
        outSlope: -0.8710196
        tangentMode: 69
      - serializedVersion: 2
        time: 0.2833333
        value: 0.97096604
        inSlope: -0.8710196
        outSlope: 0.23853973
        tangentMode: 69
      - serializedVersion: 2
        time: 0.43333334
        value: 1.006747
        inSlope: 0.23853973
        outSlope: -0.110241525
        tangentMode: 69
      - serializedVersion: 2
        time: 0.5666666
        value: 0.99204814
        inSlope: -0.110241525
        outSlope: 0.079518534
        tangentMode: 69
      - serializedVersion: 2
        time: 0.6666666
        value: 1
        inSlope: 0
        outSlope: 0
        tangentMode: 0
      - serializedVersion: 2
        time: 0.75
        value: 1
        inSlope: 0
        outSlope: -1.7483048
        tangentMode: 69
      - serializedVersion: 2
        time: 0.7833333
        value: 0.9417232
        inSlope: -1.7483048
        outSlope: 0.45436683
        tangentMode: 69
      - serializedVersion: 2
        time: 0.96666664
        value: 1.0250238
        inSlope: 0.45436683
        outSlope: -0.24731767
        tangentMode: 69
      - serializedVersion: 2
        time: 1.0999999
        value: 0.99204814
        inSlope: -0.24731767
        outSlope: 0.079518445
        tangentMode: 69
      - serializedVersion: 2
        time: 1.2
        value: 1
        inSlope: 0
        outSlope: 0
        tangentMode: 0
      - serializedVersion: 2
        time: 1.3333334
        value: 1
        inSlope: 0
        outSlope: 0
        tangentMode: 69
      m_PreInfinity: 2
      m_PostInfinity: 2
      m_RotationOrder: 4
    attribute: m_LocalScale.z
    path: Main Parent
    classID: 224
    script: {fileID: 0}
  - curve:
      serializedVersion: 2
      m_Curve:
      - serializedVersion: 2
        time: 0
        value: 2
        inSlope: 0
        outSlope: 0
        tangentMode: 34
      - serializedVersion: 2
        time: 0.083333336
        value: 2
        inSlope: 0
        outSlope: -6.6004376
        tangentMode: 69
      - serializedVersion: 2
        time: 0.26666668
        value: 0.7899197
        inSlope: -6.6004376
        outSlope: 1.4005357
        tangentMode: 69
      - serializedVersion: 2
        time: 0.41666666
        value: 1
        inSlope: 0
        outSlope: 0
        tangentMode: 0
      - serializedVersion: 2
        time: 0.75
        value: 1
        inSlope: 0
        outSlope: -12.208161
        tangentMode: 69
      - serializedVersion: 2
        time: 0.76666665
        value: 0.79653084
        inSlope: -12.208161
        outSlope: 1.3564607
        tangentMode: 69
      - serializedVersion: 2
        time: 0.9166667
        value: 1
        inSlope: 0
        outSlope: 0
        tangentMode: 0
      - serializedVersion: 2
        time: 1.5
        value: 1
        inSlope: 0
        outSlope: 0
        tangentMode: 5
      m_PreInfinity: 2
      m_PostInfinity: 2
      m_RotationOrder: 4
    attribute: m_LocalScale.x
    path: Main Parent/Main Menu & Body Mover/Main Buttons Parent/Items Button Parent
    classID: 224
    script: {fileID: 0}
  - curve:
      serializedVersion: 2
      m_Curve:
      - serializedVersion: 2
        time: 0
        value: 2
        inSlope: 0
        outSlope: 0
        tangentMode: 34
      - serializedVersion: 2
        time: 0.083333336
        value: 2
        inSlope: 0
        outSlope: -7.49263
        tangentMode: 69
      - serializedVersion: 2
        time: 0.23333333
        value: 0.8761055
        inSlope: -7.49263
        outSlope: 0.6757883
        tangentMode: 69
      - serializedVersion: 2
        time: 0.41666666
        value: 1
        inSlope: 0
        outSlope: 0
        tangentMode: 0
      - serializedVersion: 2
        time: 0.75
        value: 1
        inSlope: 0
        outSlope: 15.903626
        tangentMode: 69
      - serializedVersion: 2
        time: 0.76666665
        value: 1.2650602
        inSlope: 15.903626
        outSlope: -1.7670674
        tangentMode: 69
      - serializedVersion: 2
        time: 0.9166667
        value: 1
        inSlope: 0
        outSlope: 0
        tangentMode: 0
      - serializedVersion: 2
        time: 1.5
        value: 1
        inSlope: 0
        outSlope: 0
        tangentMode: 5
      m_PreInfinity: 2
      m_PostInfinity: 2
      m_RotationOrder: 4
    attribute: m_LocalScale.y
    path: Main Parent/Main Menu & Body Mover/Main Buttons Parent/Items Button Parent
    classID: 224
    script: {fileID: 0}
  - curve:
      serializedVersion: 2
      m_Curve:
      - serializedVersion: 2
        time: 0
        value: 2
        inSlope: 0
        outSlope: 0
        tangentMode: 34
      - serializedVersion: 2
        time: 0.083333336
        value: 2
        inSlope: 0
        outSlope: -6
        tangentMode: 69
      - serializedVersion: 2
        time: 0.25
        value: 1
        inSlope: -6
        outSlope: -0
        tangentMode: 69
      - serializedVersion: 2
        time: 0.75
        value: 1
        inSlope: 0
        outSlope: -0
        tangentMode: 69
      - serializedVersion: 2
        time: 0.78333336
        value: 1
        inSlope: 0
        outSlope: -0
        tangentMode: 69
      - serializedVersion: 2
        time: 0.8833333
        value: 1
        inSlope: 0
        outSlope: -0
        tangentMode: 69
      - serializedVersion: 2
        time: 1.5
        value: 1
        inSlope: 0
        outSlope: 0
        tangentMode: 5
      m_PreInfinity: 2
      m_PostInfinity: 2
      m_RotationOrder: 4
    attribute: m_LocalScale.z
    path: Main Parent/Main Menu & Body Mover/Main Buttons Parent/Items Button Parent
    classID: 224
    script: {fileID: 0}
  - curve:
      serializedVersion: 2
      m_Curve:
      - serializedVersion: 2
        time: 0
        value: 2
        inSlope: 0
        outSlope: 0
        tangentMode: 34
      - serializedVersion: 2
        time: 0.08333335
        value: 2
        inSlope: 0
        outSlope: -6.600438
        tangentMode: 69
      - serializedVersion: 2
        time: 0.26666668
        value: 0.7899197
        inSlope: -6.600438
        outSlope: 1.4005357
        tangentMode: 69
      - serializedVersion: 2
        time: 0.41666666
        value: 1
        inSlope: 0
        outSlope: 0
        tangentMode: 0
      - serializedVersion: 2
        time: 0.75
        value: 1
        inSlope: 0
        outSlope: -12.208161
        tangentMode: 69
      - serializedVersion: 2
        time: 0.76666665
        value: 0.79653084
        inSlope: -12.208161
        outSlope: 1.3564607
        tangentMode: 69
      - serializedVersion: 2
        time: 0.9166667
        value: 1
        inSlope: 0
        outSlope: 0
        tangentMode: 0
      - serializedVersion: 2
        time: 1.5
        value: 1
        inSlope: 0
        outSlope: 0
        tangentMode: 5
      m_PreInfinity: 2
      m_PostInfinity: 2
      m_RotationOrder: 4
    attribute: m_LocalScale.x
    path: Main Parent/Main Menu & Body Mover/Main Buttons Parent/Shop Button Parent
    classID: 224
    script: {fileID: 0}
  - curve:
      serializedVersion: 2
      m_Curve:
      - serializedVersion: 2
        time: 0
        value: 2
        inSlope: 0
        outSlope: 0
        tangentMode: 34
      - serializedVersion: 2
        time: 0.08333335
        value: 2
        inSlope: 0
        outSlope: -7.492631
        tangentMode: 69
      - serializedVersion: 2
        time: 0.23333333
        value: 0.8761055
        inSlope: -7.492631
        outSlope: 0.6757883
        tangentMode: 69
      - serializedVersion: 2
        time: 0.41666666
        value: 1
        inSlope: 0
        outSlope: 0
        tangentMode: 0
      - serializedVersion: 2
        time: 0.75
        value: 1
        inSlope: 0
        outSlope: 15.903626
        tangentMode: 69
      - serializedVersion: 2
        time: 0.76666665
        value: 1.2650602
        inSlope: 15.903626
        outSlope: -1.7670674
        tangentMode: 69
      - serializedVersion: 2
        time: 0.9166667
        value: 1
        inSlope: 0
        outSlope: 0
        tangentMode: 0
      - serializedVersion: 2
        time: 1.5
        value: 1
        inSlope: 0
        outSlope: 0
        tangentMode: 5
      m_PreInfinity: 2
      m_PostInfinity: 2
      m_RotationOrder: 4
    attribute: m_LocalScale.y
    path: Main Parent/Main Menu & Body Mover/Main Buttons Parent/Shop Button Parent
    classID: 224
    script: {fileID: 0}
  - curve:
      serializedVersion: 2
      m_Curve:
      - serializedVersion: 2
        time: 0
        value: 2
        inSlope: 0
        outSlope: 0
        tangentMode: 34
      - serializedVersion: 2
        time: 0.08333335
        value: 2
        inSlope: 0
        outSlope: -6.0000005
        tangentMode: 69
      - serializedVersion: 2
        time: 0.25
        value: 1
        inSlope: -6.0000005
        outSlope: -0
        tangentMode: 69
      - serializedVersion: 2
        time: 0.75
        value: 1
        inSlope: 0
        outSlope: -0
        tangentMode: 69
      - serializedVersion: 2
        time: 0.78333336
        value: 1
        inSlope: 0
        outSlope: -0
        tangentMode: 69
      - serializedVersion: 2
        time: 0.8833333
        value: 1
        inSlope: 0
        outSlope: -0
        tangentMode: 69
      - serializedVersion: 2
        time: 1.5
        value: 1
        inSlope: 0
        outSlope: 0
        tangentMode: 5
      m_PreInfinity: 2
      m_PostInfinity: 2
      m_RotationOrder: 4
    attribute: m_LocalScale.z
    path: Main Parent/Main Menu & Body Mover/Main Buttons Parent/Shop Button Parent
    classID: 224
    script: {fileID: 0}
  - curve:
      serializedVersion: 2
      m_Curve:
      - serializedVersion: 2
        time: 0
        value: 2
        inSlope: 0
        outSlope: -0
        tangentMode: 69
      - serializedVersion: 2
        time: 0.6
        value: 2
        inSlope: 0
        outSlope: -7.2449813
        tangentMode: 69
      - serializedVersion: 2
        time: 0.75
        value: 0.913253
        inSlope: -7.2449813
        outSlope: 1.0409641
        tangentMode: 69
      - serializedVersion: 2
        time: 0.8333333
        value: 1
        inSlope: 0
        outSlope: 0
        tangentMode: 0
      - serializedVersion: 2
        time: 1
        value: 1
        inSlope: 0
        outSlope: 0
        tangentMode: 5
      m_PreInfinity: 2
      m_PostInfinity: 2
      m_RotationOrder: 4
    attribute: m_LocalScale.x
    path: Main Parent/Main Menu & Body Mover/Main Buttons Parent/Play Button Parent
    classID: 224
    script: {fileID: 0}
  - curve:
      serializedVersion: 2
      m_Curve:
      - serializedVersion: 2
        time: 0
        value: 2
        inSlope: 0
        outSlope: -0
        tangentMode: 69
      - serializedVersion: 2
        time: 0.6
        value: 2
        inSlope: 0
        outSlope: -7.2449813
        tangentMode: 69
      - serializedVersion: 2
        time: 0.75
        value: 0.913253
        inSlope: -7.2449813
        outSlope: 1.0409641
        tangentMode: 69
      - serializedVersion: 2
        time: 0.8333333
        value: 1
        inSlope: 0
        outSlope: 0
        tangentMode: 0
      - serializedVersion: 2
        time: 1
        value: 1
        inSlope: 0
        outSlope: 0
        tangentMode: 5
      m_PreInfinity: 2
      m_PostInfinity: 2
      m_RotationOrder: 4
    attribute: m_LocalScale.y
    path: Main Parent/Main Menu & Body Mover/Main Buttons Parent/Play Button Parent
    classID: 224
    script: {fileID: 0}
  - curve:
      serializedVersion: 2
      m_Curve:
      - serializedVersion: 2
        time: 0
        value: 2
        inSlope: 0
        outSlope: -0
        tangentMode: 69
      - serializedVersion: 2
        time: 0.6
        value: 2
        inSlope: 0
        outSlope: -6.666668
        tangentMode: 69
      - serializedVersion: 2
        time: 0.75
        value: 1
        inSlope: -6.666668
        outSlope: -0
        tangentMode: 69
      - serializedVersion: 2
        time: 1
        value: 1
        inSlope: 0
        outSlope: 0
        tangentMode: 5
      m_PreInfinity: 2
      m_PostInfinity: 2
      m_RotationOrder: 4
    attribute: m_LocalScale.z
    path: Main Parent/Main Menu & Body Mover/Main Buttons Parent/Play Button Parent
    classID: 224
    script: {fileID: 0}
  - curve:
      serializedVersion: 2
      m_Curve:
      - serializedVersion: 2
        time: 0
        value: 0
        inSlope: Infinity
        outSlope: Infinity
        tangentMode: 103
      - serializedVersion: 2
        time: 0.083333336
        value: 1
        inSlope: Infinity
        outSlope: Infinity
        tangentMode: 103
      m_PreInfinity: 2
      m_PostInfinity: 2
      m_RotationOrder: 4
    attribute: m_IsActive
    path: Main Parent/Main Menu & Body Mover/Main Buttons Parent/Items Button Parent
    classID: 1
    script: {fileID: 0}
  - curve:
      serializedVersion: 2
      m_Curve:
      - serializedVersion: 2
        time: 0
        value: 0
        inSlope: Infinity
        outSlope: Infinity
        tangentMode: 103
      - serializedVersion: 2
        time: 0.08333335
        value: 1
        inSlope: Infinity
        outSlope: Infinity
        tangentMode: 103
      m_PreInfinity: 2
      m_PostInfinity: 2
      m_RotationOrder: 4
    attribute: m_IsActive
    path: Main Parent/Main Menu & Body Mover/Main Buttons Parent/Shop Button Parent
    classID: 1
    script: {fileID: 0}
  - curve:
      serializedVersion: 2
      m_Curve:
      - serializedVersion: 2
        time: 0
        value: 0
        inSlope: Infinity
        outSlope: Infinity
        tangentMode: 103
      - serializedVersion: 2
        time: 0.59999996
        value: 1
        inSlope: Infinity
        outSlope: Infinity
        tangentMode: 103
      m_PreInfinity: 2
      m_PostInfinity: 2
      m_RotationOrder: 4
    attribute: m_IsActive
    path: Main Parent/Main Menu & Body Mover/Main Buttons Parent/Play Button Parent
    classID: 1
    script: {fileID: 0}
  - curve:
      serializedVersion: 2
      m_Curve:
      - serializedVersion: 2
        time: 0
        value: 0
        inSlope: Infinity
        outSlope: Infinity
        tangentMode: 103
      - serializedVersion: 2
        time: 0.33333334
        value: 1
        inSlope: Infinity
        outSlope: Infinity
        tangentMode: 103
      m_PreInfinity: 2
      m_PostInfinity: 2
      m_RotationOrder: 4
    attribute: m_IsActive
    path: Main Parent/Main Menu & Body Mover/Main Buttons Parent/Settings Button Parent
    classID: 1
    script: {fileID: 0}
  - curve:
      serializedVersion: 2
      m_Curve:
      - serializedVersion: 2
        time: 0
        value: -590
        inSlope: 0
        outSlope: -0
        tangentMode: 69
      - serializedVersion: 2
        time: 0.75
        value: -590
        inSlope: 0
        outSlope: 667.05505
        tangentMode: 69
      - serializedVersion: 2
        time: 1
        value: -423.23624
        inSlope: 0
        outSlope: 0
        tangentMode: 0
      - serializedVersion: 2
        time: 1.25
        value: -435.4
        inSlope: 0
        outSlope: 0
        tangentMode: 0
      - serializedVersion: 2
        time: 1.4999998
        value: -435.4
        inSlope: 0
        outSlope: 0
        tangentMode: 0
      m_PreInfinity: 2
      m_PostInfinity: 2
      m_RotationOrder: 4
    attribute: m_AnchoredPosition.x
    path: Main Parent/Main Menu & Body Mover/Main Buttons Parent/Settings Button Parent
    classID: 224
    script: {fileID: 0}
  - curve:
      serializedVersion: 2
      m_Curve:
      - serializedVersion: 2
        time: 0
        value: -590
        inSlope: 0
        outSlope: 0
        tangentMode: 34
      - serializedVersion: 2
        time: 0.9166666
        value: -590
        inSlope: 0
        outSlope: 667.0549
        tangentMode: 69
      - serializedVersion: 2
        time: 1.1666667
        value: -423.2362
        inSlope: 0
        outSlope: 0
        tangentMode: 0
      - serializedVersion: 2
        time: 1.4166665
        value: -435.4
        inSlope: 0
        outSlope: 0
        tangentMode: 0
      - serializedVersion: 2
        time: 1.4999998
        value: -435.4
        inSlope: 0
        outSlope: 0
        tangentMode: 0
      m_PreInfinity: 2
      m_PostInfinity: 2
      m_RotationOrder: 4
    attribute: m_AnchoredPosition.x
    path: Main Parent/Main Menu & Body Mover/Main Buttons Parent/LeaderB Button Parent
    classID: 224
    script: {fileID: 0}
  - curve:
      serializedVersion: 2
      m_Curve:
      - serializedVersion: 2
        time: 0
        value: -590
        inSlope: 0
        outSlope: 0
        tangentMode: 34
      - serializedVersion: 2
        time: 0.99999994
        value: -590
        inSlope: 0
        outSlope: 667.055
        tangentMode: 69
      - serializedVersion: 2
        time: 1.25
        value: -423.2362
        inSlope: 0
        outSlope: 0
        tangentMode: 0
      - serializedVersion: 2
        time: 1.4999998
        value: -435.4
        inSlope: 0
        outSlope: 0
        tangentMode: 0
      m_PreInfinity: 2
      m_PostInfinity: 2
      m_RotationOrder: 4
    attribute: m_AnchoredPosition.x
    path: Main Parent/Main Menu & Body Mover/Main Buttons Parent/VidGift Button Parent
    classID: 224
    script: {fileID: 0}
  - curve:
      serializedVersion: 2
      m_Curve:
      - serializedVersion: 2
        time: 0
        value: -590
        inSlope: 0
        outSlope: 0
        tangentMode: 34
      - serializedVersion: 2
        time: 0.83333325
        value: -590
        inSlope: 0
        outSlope: 667.05457
        tangentMode: 69
      - serializedVersion: 2
        time: 1.0833335
        value: -423.2362
        inSlope: 0
        outSlope: 0
        tangentMode: 0
      - serializedVersion: 2
        time: 1.333333
        value: -435.4
        inSlope: 0
        outSlope: 0
        tangentMode: 0
      - serializedVersion: 2
        time: 1.4999998
        value: -435.4
        inSlope: 0
        outSlope: 0
        tangentMode: 0
      m_PreInfinity: 2
      m_PostInfinity: 2
      m_RotationOrder: 4
    attribute: m_AnchoredPosition.x
    path: Main Parent/Main Menu & Body Mover/Main Buttons Parent/Achievement Button
      Parent
    classID: 224
    script: {fileID: 0}
  - curve:
      serializedVersion: 2
      m_Curve:
      - serializedVersion: 2
        time: 0
        value: 0
        inSlope: Infinity
        outSlope: Infinity
        tangentMode: 103
      - serializedVersion: 2
        time: 0.33333334
        value: 1
        inSlope: Infinity
        outSlope: Infinity
        tangentMode: 103
      m_PreInfinity: 2
      m_PostInfinity: 2
      m_RotationOrder: 4
    attribute: m_IsActive
    path: Main Parent/Main Menu & Body Mover/Main Buttons Parent/Achievement Button
      Parent
    classID: 1
    script: {fileID: 0}
  - curve:
      serializedVersion: 2
      m_Curve:
      - serializedVersion: 2
        time: 0
        value: 0
        inSlope: Infinity
        outSlope: Infinity
        tangentMode: 103
      - serializedVersion: 2
        time: 0.33333334
        value: 1
        inSlope: Infinity
        outSlope: Infinity
        tangentMode: 103
      m_PreInfinity: 2
      m_PostInfinity: 2
      m_RotationOrder: 4
    attribute: m_IsActive
    path: Main Parent/Main Menu & Body Mover/Main Buttons Parent/LeaderB Button Parent
    classID: 1
    script: {fileID: 0}
  - curve:
      serializedVersion: 2
      m_Curve:
      - serializedVersion: 2
        time: 0
        value: 0
        inSlope: Infinity
        outSlope: Infinity
        tangentMode: 103
      - serializedVersion: 2
        time: 0.33333334
        value: 1
        inSlope: Infinity
        outSlope: Infinity
        tangentMode: 103
      m_PreInfinity: 2
      m_PostInfinity: 2
      m_RotationOrder: 4
    attribute: m_IsActive
    path: Main Parent/Main Menu & Body Mover/Main Buttons Parent/VidGift Button Parent
    classID: 1
    script: {fileID: 0}
  - curve:
      serializedVersion: 2
      m_Curve:
      - serializedVersion: 2
        time: 0
        value: -419
        inSlope: 0
        outSlope: -0
        tangentMode: 69
      - serializedVersion: 2
        time: 0.6
        value: -419
        inSlope: 0
        outSlope: 1524.0002
        tangentMode: 69
      - serializedVersion: 2
        time: 0.75
        value: -190.4
        inSlope: 1524.0002
        outSlope: -0
        tangentMode: 69
      m_PreInfinity: 2
      m_PostInfinity: 2
      m_RotationOrder: 4
    attribute: m_AnchoredPosition.y
    path: Main Parent/Main Menu & Body Mover/Main Buttons Parent/Endless Button Parent
    classID: 224
    script: {fileID: 0}
  - curve:
      serializedVersion: 2
      m_Curve:
      - serializedVersion: 2
        time: 0
        value: 2
        inSlope: 0
        outSlope: -0
        tangentMode: 69
      - serializedVersion: 2
        time: 0.6
        value: 2
        inSlope: 0
        outSlope: -7.2449813
        tangentMode: 69
      - serializedVersion: 2
        time: 0.75
        value: 0.913253
        inSlope: -7.2449813
        outSlope: 1.0409641
        tangentMode: 69
      - serializedVersion: 2
        time: 0.8333333
        value: 1
        inSlope: 0
        outSlope: 0
        tangentMode: 0
      - serializedVersion: 2
        time: 1
        value: 1
        inSlope: 0
        outSlope: 0
        tangentMode: 5
      m_PreInfinity: 2
      m_PostInfinity: 2
      m_RotationOrder: 4
    attribute: m_LocalScale.x
    path: Main Parent/Main Menu & Body Mover/Main Buttons Parent/Endless Button Parent
    classID: 224
    script: {fileID: 0}
  - curve:
      serializedVersion: 2
      m_Curve:
      - serializedVersion: 2
        time: 0
        value: 2
        inSlope: 0
        outSlope: -0
        tangentMode: 69
      - serializedVersion: 2
        time: 0.6
        value: 2
        inSlope: 0
        outSlope: -7.2449813
        tangentMode: 69
      - serializedVersion: 2
        time: 0.75
        value: 0.913253
        inSlope: -7.2449813
        outSlope: 1.0409641
        tangentMode: 69
      - serializedVersion: 2
        time: 0.8333333
        value: 1
        inSlope: 0
        outSlope: 0
        tangentMode: 0
      - serializedVersion: 2
        time: 1
        value: 1
        inSlope: 0
        outSlope: 0
        tangentMode: 5
      m_PreInfinity: 2
      m_PostInfinity: 2
      m_RotationOrder: 4
    attribute: m_LocalScale.y
    path: Main Parent/Main Menu & Body Mover/Main Buttons Parent/Endless Button Parent
    classID: 224
    script: {fileID: 0}
  - curve:
      serializedVersion: 2
      m_Curve:
      - serializedVersion: 2
        time: 0
        value: 2
        inSlope: 0
        outSlope: -0
        tangentMode: 69
      - serializedVersion: 2
        time: 0.6
        value: 2
        inSlope: 0
        outSlope: -6.666668
        tangentMode: 69
      - serializedVersion: 2
        time: 0.75
        value: 1
        inSlope: -6.666668
        outSlope: -0
        tangentMode: 69
      - serializedVersion: 2
        time: 1
        value: 1
        inSlope: 0
        outSlope: 0
        tangentMode: 5
      m_PreInfinity: 2
      m_PostInfinity: 2
      m_RotationOrder: 4
    attribute: m_LocalScale.z
    path: Main Parent/Main Menu & Body Mover/Main Buttons Parent/Endless Button Parent
    classID: 224
    script: {fileID: 0}
  - curve:
      serializedVersion: 2
      m_Curve:
      - serializedVersion: 2
        time: 0
        value: 0
        inSlope: Infinity
        outSlope: Infinity
        tangentMode: 103
      - serializedVersion: 2
        time: 0.59999996
        value: 1
        inSlope: Infinity
        outSlope: Infinity
        tangentMode: 103
      m_PreInfinity: 2
      m_PostInfinity: 2
      m_RotationOrder: 4
    attribute: m_IsActive
    path: Main Parent/Main Menu & Body Mover/Main Buttons Parent/Endless Button Parent
    classID: 1
    script: {fileID: 0}
  - curve:
      serializedVersion: 2
      m_Curve:
      - serializedVersion: 2
        time: 0
        value: 0
        inSlope: 0
        outSlope: 0
        tangentMode: 136
      m_PreInfinity: 2
      m_PostInfinity: 2
      m_RotationOrder: 4
    attribute: m_AnchoredPosition.x
    path: Main Parent/Main Menu & Body Mover/Body Art Elements
    classID: 224
    script: {fileID: 0}
  m_EulerEditorCurves:
  - curve:
      serializedVersion: 2
      m_Curve: []
      m_PreInfinity: 2
      m_PostInfinity: 2
      m_RotationOrder: 4
    attribute: m_LocalEulerAngles.x
    path: Main Parent
    classID: 224
    script: {fileID: 0}
  - curve:
      serializedVersion: 2
      m_Curve: []
      m_PreInfinity: 2
      m_PostInfinity: 2
      m_RotationOrder: 4
    attribute: m_LocalEulerAngles.y
    path: Main Parent
    classID: 224
    script: {fileID: 0}
  - curve:
      serializedVersion: 2
      m_Curve: []
      m_PreInfinity: 2
      m_PostInfinity: 2
      m_RotationOrder: 4
    attribute: m_LocalEulerAngles.z
    path: Main Parent
    classID: 224
    script: {fileID: 0}
  m_HasGenericRootTransform: 0
  m_HasMotionFloatCurves: 0
  m_GenerateMotionCurves: 0
  m_Events:
  - time: 0.28333333
    functionName: PlayCameraChromatic_ButtonsPart1
    data: 
    objectReferenceParameter: {fileID: 0}
    floatParameter: 0
    intParameter: 0
    messageOptions: 0
  - time: 0.78333336
    functionName: PlayCameraChromatic_ButtonsPart2
    data: 
    objectReferenceParameter: {fileID: 0}
    floatParameter: 0
    intParameter: 0
    messageOptions: 0
  - time: 0.9166667
    functionName: IntroEnd_StartNotifs
    data: 
    objectReferenceParameter: {fileID: 0}
    floatParameter: 0
    intParameter: 0
    messageOptions: 0
  - time: 1.0833334
    functionName: IntroClickBlocker_End
    data: 
    objectReferenceParameter: {fileID: 0}
    floatParameter: 0
    intParameter: 0
    messageOptions: 0
