%YAML 1.1
%TAG !u! tag:unity3d.com,2011:
--- !u!74 &7400000
AnimationClip:
  m_ObjectHideFlags: 0
  m_PrefabParentObject: {fileID: 0}
  m_PrefabInternal: {fileID: 0}
  m_Name: Menu - Level CARD Newest Idle Anim 1 (Legacy)
  serializedVersion: 6
  m_Legacy: 1
  m_Compressed: 0
  m_UseHighQualityCurve: 1
  m_RotationCurves: []
  m_CompressedRotationCurves: []
  m_EulerCurves: []
  m_PositionCurves: []
  m_ScaleCurves:
  - curve:
      serializedVersion: 2
      m_Curve:
      - serializedVersion: 2
        time: 0
        value: {x: 0.95, y: 0.95, z: 0.95}
        inSlope: {x: 0, y: 0, z: 0}
        outSlope: {x: -0.16363633, y: -0.16363633, z: -0.16363633}
        tangentMode: 0
      - serializedVersion: 2
        time: 0.9166667
        value: {x: 0.8, y: 0.8, z: 0.8}
        inSlope: {x: 0, y: 0, z: 0}
        outSlope: {x: 0.22499996, y: 0.22499996, z: 0.22499996}
        tangentMode: 0
      - serializedVersion: 2
        time: 1.5833334
        value: {x: 0.95, y: 0.95, z: 0.95}
        inSlope: {x: 0.22499996, y: 0.22499996, z: 0.22499996}
        outSlope: {x: 0, y: 0, z: 0}
        tangentMode: 0
      m_PreInfinity: 2
      m_PostInfinity: 2
      m_RotationOrder: 4
    path: Level Front Parent/Level Front Actuals Parent/Level Back Glow
  m_FloatCurves:
  - curve:
      serializedVersion: 2
      m_Curve:
      - serializedVersion: 2
        time: 0
        value: 0.95
        inSlope: Infinity
        outSlope: Infinity
        tangentMode: 103
      m_PreInfinity: 2
      m_PostInfinity: 2
      m_RotationOrder: 4
    attribute: m_IsActive
    path: Level Front Parent/Level Front Actuals Parent/Level Back Glow
    classID: 1
    script: {fileID: 0}
  m_PPtrCurves: []
  m_SampleRate: 60
  m_WrapMode: 2
  m_Bounds:
    m_Center: {x: 0, y: 0, z: 0}
    m_Extent: {x: 0, y: 0, z: 0}
  m_ClipBindingConstant:
    genericBindings: []
    pptrCurveMapping: []
  m_AnimationClipSettings:
    serializedVersion: 2
    m_AdditiveReferencePoseClip: {fileID: 0}
    m_AdditiveReferencePoseTime: 0
    m_StartTime: 0
    m_StopTime: 1.5833334
    m_OrientationOffsetY: 0
    m_Level: 0
    m_CycleOffset: 0
    m_HasAdditiveReferencePose: 0
    m_LoopTime: 1
    m_LoopBlend: 0
    m_LoopBlendOrientation: 0
    m_LoopBlendPositionY: 0
    m_LoopBlendPositionXZ: 0
    m_KeepOriginalOrientation: 0
    m_KeepOriginalPositionY: 1
    m_KeepOriginalPositionXZ: 0
    m_HeightFromFeet: 0
    m_Mirror: 0
  m_EditorCurves:
  - curve:
      serializedVersion: 2
      m_Curve:
      - serializedVersion: 2
        time: 0
        value: 0.95
        inSlope: Infinity
        outSlope: Infinity
        tangentMode: 103
      m_PreInfinity: 2
      m_PostInfinity: 2
      m_RotationOrder: 4
    attribute: m_IsActive
    path: Level Front Parent/Level Front Actuals Parent/Level Back Glow
    classID: 1
    script: {fileID: 0}
  - curve:
      serializedVersion: 2
      m_Curve:
      - serializedVersion: 2
        time: 0
        value: 0.95
        inSlope: 0
        outSlope: -0.16363633
        tangentMode: 69
      - serializedVersion: 2
        time: 0.9166667
        value: 0.8
        inSlope: 0
        outSlope: 0.22499996
        tangentMode: 65
      - serializedVersion: 2
        time: 1.5833334
        value: 0.95
        inSlope: 0.22499996
        outSlope: 0
        tangentMode: 69
      m_PreInfinity: 2
      m_PostInfinity: 2
      m_RotationOrder: 4
    attribute: m_LocalScale.x
    path: Level Front Parent/Level Front Actuals Parent/Level Back Glow
    classID: 224
    script: {fileID: 0}
  - curve:
      serializedVersion: 2
      m_Curve:
      - serializedVersion: 2
        time: 0
        value: 0.95
        inSlope: 0
        outSlope: -0.16363633
        tangentMode: 69
      - serializedVersion: 2
        time: 0.9166667
        value: 0.8
        inSlope: 0
        outSlope: 0.22499996
        tangentMode: 65
      - serializedVersion: 2
        time: 1.5833334
        value: 0.95
        inSlope: 0.22499996
        outSlope: 0
        tangentMode: 69
      m_PreInfinity: 2
      m_PostInfinity: 2
      m_RotationOrder: 4
    attribute: m_LocalScale.y
    path: Level Front Parent/Level Front Actuals Parent/Level Back Glow
    classID: 224
    script: {fileID: 0}
  - curve:
      serializedVersion: 2
      m_Curve:
      - serializedVersion: 2
        time: 0
        value: 0.95
        inSlope: 0
        outSlope: -0.16363633
        tangentMode: 69
      - serializedVersion: 2
        time: 0.9166667
        value: 0.8
        inSlope: 0
        outSlope: 0.22499996
        tangentMode: 65
      - serializedVersion: 2
        time: 1.5833334
        value: 0.95
        inSlope: 0.22499996
        outSlope: 0
        tangentMode: 69
      m_PreInfinity: 2
      m_PostInfinity: 2
      m_RotationOrder: 4
    attribute: m_LocalScale.z
    path: Level Front Parent/Level Front Actuals Parent/Level Back Glow
    classID: 224
    script: {fileID: 0}
  m_EulerEditorCurves: []
  m_HasGenericRootTransform: 0
  m_HasMotionFloatCurves: 0
  m_GenerateMotionCurves: 0
  m_Events: []
