%YAML 1.1
%TAG !u! tag:unity3d.com,2011:
--- !u!74 &7400000
AnimationClip:
  m_ObjectHideFlags: 0
  m_PrefabParentObject: {fileID: 0}
  m_PrefabInternal: {fileID: 0}
  m_Name: Menu - BackButton Change GO Anim 1 (Legacy)
  serializedVersion: 6
  m_Legacy: 1
  m_Compressed: 0
  m_UseHighQualityCurve: 1
  m_RotationCurves: []
  m_CompressedRotationCurves: []
  m_EulerCurves: []
  m_PositionCurves: []
  m_ScaleCurves:
  - curve:
      serializedVersion: 2
      m_Curve:
      - serializedVersion: 2
        time: 0
        value: {x: 1, y: 1, z: 1}
        inSlope: {x: -4, y: -4, z: -4}
        outSlope: {x: -4, y: -4, z: -4}
        tangentMode: 0
      - serializedVersion: 2
        time: 0.25
        value: {x: 0, y: 0, z: 0}
        inSlope: {x: -4, y: -4, z: -4}
        outSlope: {x: 4, y: 4, z: 4}
        tangentMode: 0
      - serializedVersion: 2
        time: 0.5
        value: {x: 1, y: 1, z: 1}
        inSlope: {x: 0, y: 0, z: 0}
        outSlope: {x: 0, y: 0, z: 0}
        tangentMode: 0
      m_PreInfinity: 2
      m_PostInfinity: 2
      m_RotationOrder: 4
    path: Settings Back Icon Mover
  m_FloatCurves:
  - curve:
      serializedVersion: 2
      m_Curve:
      - serializedVersion: 2
        time: 0
        value: -0.6
        inSlope: -161.4
        outSlope: -115.28571
        tangentMode: 69
      - serializedVersion: 2
        time: 0.23333333
        value: -27.5
        inSlope: -115.28571
        outSlope: Infinity
        tangentMode: 101
      - serializedVersion: 2
        time: 0.26666668
        value: 27.5
        inSlope: 1649.9994
        outSlope: -120.42858
        tangentMode: 69
      - serializedVersion: 2
        time: 0.5
        value: -0.6
        inSlope: -120.42858
        outSlope: -161.4
        tangentMode: 69
      m_PreInfinity: 2
      m_PostInfinity: 2
      m_RotationOrder: 4
    attribute: m_AnchoredPosition.x
    path: Settings Back Icon Mover
    classID: 224
    script: {fileID: 0}
  m_PPtrCurves: []
  m_SampleRate: 60
  m_WrapMode: 0
  m_Bounds:
    m_Center: {x: 0, y: 0, z: 0}
    m_Extent: {x: 0, y: 0, z: 0}
  m_ClipBindingConstant:
    genericBindings: []
    pptrCurveMapping: []
  m_AnimationClipSettings:
    serializedVersion: 2
    m_AdditiveReferencePoseClip: {fileID: 0}
    m_AdditiveReferencePoseTime: 0
    m_StartTime: 0
    m_StopTime: 0.5
    m_OrientationOffsetY: 0
    m_Level: 0
    m_CycleOffset: 0
    m_HasAdditiveReferencePose: 0
    m_LoopTime: 1
    m_LoopBlend: 0
    m_LoopBlendOrientation: 0
    m_LoopBlendPositionY: 0
    m_LoopBlendPositionXZ: 0
    m_KeepOriginalOrientation: 0
    m_KeepOriginalPositionY: 1
    m_KeepOriginalPositionXZ: 0
    m_HeightFromFeet: 0
    m_Mirror: 0
  m_EditorCurves:
  - curve:
      serializedVersion: 2
      m_Curve:
      - serializedVersion: 2
        time: 0
        value: -0.6
        inSlope: -161.4
        outSlope: -115.28571
        tangentMode: 69
      - serializedVersion: 2
        time: 0.23333333
        value: -27.5
        inSlope: -115.28571
        outSlope: Infinity
        tangentMode: 101
      - serializedVersion: 2
        time: 0.26666668
        value: 27.5
        inSlope: 1649.9994
        outSlope: -120.42858
        tangentMode: 69
      - serializedVersion: 2
        time: 0.5
        value: -0.6
        inSlope: -120.42858
        outSlope: -161.4
        tangentMode: 69
      m_PreInfinity: 2
      m_PostInfinity: 2
      m_RotationOrder: 4
    attribute: m_AnchoredPosition.x
    path: Settings Back Icon Mover
    classID: 224
    script: {fileID: 0}
  - curve:
      serializedVersion: 2
      m_Curve:
      - serializedVersion: 2
        time: 0
        value: 1
        inSlope: -4
        outSlope: -4
        tangentMode: 34
      - serializedVersion: 2
        time: 0.25
        value: 0
        inSlope: -4
        outSlope: 4
        tangentMode: 69
      - serializedVersion: 2
        time: 0.5
        value: 1
        inSlope: 0
        outSlope: 0
        tangentMode: 0
      m_PreInfinity: 2
      m_PostInfinity: 2
      m_RotationOrder: 4
    attribute: m_LocalScale.x
    path: Settings Back Icon Mover
    classID: 224
    script: {fileID: 0}
  - curve:
      serializedVersion: 2
      m_Curve:
      - serializedVersion: 2
        time: 0
        value: 1
        inSlope: -4
        outSlope: -4
        tangentMode: 34
      - serializedVersion: 2
        time: 0.25
        value: 0
        inSlope: -4
        outSlope: 4
        tangentMode: 69
      - serializedVersion: 2
        time: 0.5
        value: 1
        inSlope: 0
        outSlope: 0
        tangentMode: 0
      m_PreInfinity: 2
      m_PostInfinity: 2
      m_RotationOrder: 4
    attribute: m_LocalScale.y
    path: Settings Back Icon Mover
    classID: 224
    script: {fileID: 0}
  - curve:
      serializedVersion: 2
      m_Curve:
      - serializedVersion: 2
        time: 0
        value: 1
        inSlope: -4
        outSlope: -4
        tangentMode: 34
      - serializedVersion: 2
        time: 0.25
        value: 0
        inSlope: -4
        outSlope: 4
        tangentMode: 69
      - serializedVersion: 2
        time: 0.5
        value: 1
        inSlope: 0
        outSlope: 0
        tangentMode: 0
      m_PreInfinity: 2
      m_PostInfinity: 2
      m_RotationOrder: 4
    attribute: m_LocalScale.z
    path: Settings Back Icon Mover
    classID: 224
    script: {fileID: 0}
  m_EulerEditorCurves: []
  m_HasGenericRootTransform: 0
  m_HasMotionFloatCurves: 0
  m_GenerateMotionCurves: 0
  m_Events: []
