%YAML 1.1
%TAG !u! tag:unity3d.com,2011:
--- !u!74 &7400000
AnimationClip:
  m_ObjectHideFlags: 0
  m_PrefabParentObject: {fileID: 0}
  m_PrefabInternal: {fileID: 0}
  m_Name: Menu - Button Big ALL Idle Anim 1 (Legacy)
  serializedVersion: 6
  m_Legacy: 1
  m_Compressed: 0
  m_UseHighQualityCurve: 1
  m_RotationCurves: []
  m_CompressedRotationCurves: []
  m_EulerCurves: []
  m_PositionCurves: []
  m_ScaleCurves: []
  m_FloatCurves:
  - curve:
      serializedVersion: 2
      m_Curve:
      - serializedVersion: 2
        time: 0
        value: -210
        inSlope: 0
        outSlope: -0
        tangentMode: 69
      - serializedVersion: 2
        time: 2.25
        value: -210
        inSlope: 0
        outSlope: 770
        tangentMode: 69
      - serializedVersion: 2
        time: 2.75
        value: 175
        inSlope: 0
        outSlope: 0
        tangentMode: 0
      - serializedVersion: 2
        time: 6
        value: 175
        inSlope: Infinity
        outSlope: 0
        tangentMode: 7
      m_PreInfinity: 2
      m_PostInfinity: 2
      m_RotationOrder: 4
    attribute: m_AnchoredPosition.x
    path: Play Button Parent/Button Shade Parent/Button Shine (Play)
    classID: 224
    script: {fileID: 0}
  - curve:
      serializedVersion: 2
      m_Curve:
      - serializedVersion: 2
        time: 0
        value: -160
        inSlope: 0
        outSlope: -0
        tangentMode: 69
      - serializedVersion: 2
        time: 2.4
        value: -160
        inSlope: 0
        outSlope: 684.00024
        tangentMode: 69
      - serializedVersion: 2
        time: 2.8166666
        value: 125
        inSlope: 0
        outSlope: 0
        tangentMode: 0
      - serializedVersion: 2
        time: 6
        value: 125
        inSlope: Infinity
        outSlope: 0
        tangentMode: 7
      m_PreInfinity: 2
      m_PostInfinity: 2
      m_RotationOrder: 4
    attribute: m_AnchoredPosition.x
    path: Shop Button Parent/Button Shade Parent/Button Shine (Shop)
    classID: 224
    script: {fileID: 0}
  - curve:
      serializedVersion: 2
      m_Curve:
      - serializedVersion: 2
        time: 0
        value: -160
        inSlope: 0
        outSlope: -0
        tangentMode: 69
      - serializedVersion: 2
        time: 2
        value: -160
        inSlope: 0
        outSlope: 814.28595
        tangentMode: 69
      - serializedVersion: 2
        time: 2.35
        value: 125
        inSlope: 0
        outSlope: 0
        tangentMode: 0
      - serializedVersion: 2
        time: 6
        value: 125
        inSlope: Infinity
        outSlope: 0
        tangentMode: 7
      m_PreInfinity: 2
      m_PostInfinity: 2
      m_RotationOrder: 4
    attribute: m_AnchoredPosition.x
    path: Items Button Parent/Button Shade Parent/Button Shine (Items)
    classID: 224
    script: {fileID: 0}
  - curve:
      serializedVersion: 2
      m_Curve:
      - serializedVersion: 2
        time: 0
        value: -210
        inSlope: 0
        outSlope: -0
        tangentMode: 69
      - serializedVersion: 2
        time: 2.0666666
        value: -210
        inSlope: 0
        outSlope: 770
        tangentMode: 69
      - serializedVersion: 2
        time: 2.5666666
        value: 175
        inSlope: 0
        outSlope: 0
        tangentMode: 0
      - serializedVersion: 2
        time: 6
        value: 175
        inSlope: Infinity
        outSlope: 0
        tangentMode: 7
      m_PreInfinity: 2
      m_PostInfinity: 2
      m_RotationOrder: 4
    attribute: m_AnchoredPosition.x
    path: Endless Button Parent/Button Shade Parent/Button Shine (Endless)
    classID: 224
    script: {fileID: 0}
  m_PPtrCurves: []
  m_SampleRate: 60
  m_WrapMode: 2
  m_Bounds:
    m_Center: {x: 0, y: 0, z: 0}
    m_Extent: {x: 0, y: 0, z: 0}
  m_ClipBindingConstant:
    genericBindings: []
    pptrCurveMapping: []
  m_AnimationClipSettings:
    serializedVersion: 2
    m_AdditiveReferencePoseClip: {fileID: 0}
    m_AdditiveReferencePoseTime: 0
    m_StartTime: 0
    m_StopTime: 6
    m_OrientationOffsetY: 0
    m_Level: 0
    m_CycleOffset: 0
    m_HasAdditiveReferencePose: 0
    m_LoopTime: 1
    m_LoopBlend: 0
    m_LoopBlendOrientation: 0
    m_LoopBlendPositionY: 0
    m_LoopBlendPositionXZ: 0
    m_KeepOriginalOrientation: 0
    m_KeepOriginalPositionY: 1
    m_KeepOriginalPositionXZ: 0
    m_HeightFromFeet: 0
    m_Mirror: 0
  m_EditorCurves:
  - curve:
      serializedVersion: 2
      m_Curve:
      - serializedVersion: 2
        time: 0
        value: -210
        inSlope: 0
        outSlope: -0
        tangentMode: 69
      - serializedVersion: 2
        time: 2.25
        value: -210
        inSlope: 0
        outSlope: 770
        tangentMode: 69
      - serializedVersion: 2
        time: 2.75
        value: 175
        inSlope: 0
        outSlope: 0
        tangentMode: 0
      - serializedVersion: 2
        time: 6
        value: 175
        inSlope: Infinity
        outSlope: 0
        tangentMode: 7
      m_PreInfinity: 2
      m_PostInfinity: 2
      m_RotationOrder: 4
    attribute: m_AnchoredPosition.x
    path: Play Button Parent/Button Shade Parent/Button Shine (Play)
    classID: 224
    script: {fileID: 0}
  - curve:
      serializedVersion: 2
      m_Curve:
      - serializedVersion: 2
        time: 0
        value: -160
        inSlope: 0
        outSlope: -0
        tangentMode: 69
      - serializedVersion: 2
        time: 2.4
        value: -160
        inSlope: 0
        outSlope: 684.00024
        tangentMode: 69
      - serializedVersion: 2
        time: 2.8166666
        value: 125
        inSlope: 0
        outSlope: 0
        tangentMode: 0
      - serializedVersion: 2
        time: 6
        value: 125
        inSlope: Infinity
        outSlope: 0
        tangentMode: 7
      m_PreInfinity: 2
      m_PostInfinity: 2
      m_RotationOrder: 4
    attribute: m_AnchoredPosition.x
    path: Shop Button Parent/Button Shade Parent/Button Shine (Shop)
    classID: 224
    script: {fileID: 0}
  - curve:
      serializedVersion: 2
      m_Curve:
      - serializedVersion: 2
        time: 0
        value: -160
        inSlope: 0
        outSlope: -0
        tangentMode: 69
      - serializedVersion: 2
        time: 2
        value: -160
        inSlope: 0
        outSlope: 814.28595
        tangentMode: 69
      - serializedVersion: 2
        time: 2.35
        value: 125
        inSlope: 0
        outSlope: 0
        tangentMode: 0
      - serializedVersion: 2
        time: 6
        value: 125
        inSlope: Infinity
        outSlope: 0
        tangentMode: 7
      m_PreInfinity: 2
      m_PostInfinity: 2
      m_RotationOrder: 4
    attribute: m_AnchoredPosition.x
    path: Items Button Parent/Button Shade Parent/Button Shine (Items)
    classID: 224
    script: {fileID: 0}
  - curve:
      serializedVersion: 2
      m_Curve:
      - serializedVersion: 2
        time: 0
        value: -210
        inSlope: 0
        outSlope: -0
        tangentMode: 69
      - serializedVersion: 2
        time: 2.0666666
        value: -210
        inSlope: 0
        outSlope: 770
        tangentMode: 69
      - serializedVersion: 2
        time: 2.5666666
        value: 175
        inSlope: 0
        outSlope: 0
        tangentMode: 0
      - serializedVersion: 2
        time: 6
        value: 175
        inSlope: Infinity
        outSlope: 0
        tangentMode: 7
      m_PreInfinity: 2
      m_PostInfinity: 2
      m_RotationOrder: 4
    attribute: m_AnchoredPosition.x
    path: Endless Button Parent/Button Shade Parent/Button Shine (Endless)
    classID: 224
    script: {fileID: 0}
  m_EulerEditorCurves: []
  m_HasGenericRootTransform: 0
  m_HasMotionFloatCurves: 0
  m_GenerateMotionCurves: 0
  m_Events: []
