%YAML 1.1
%TAG !u! tag:unity3d.com,2011:
--- !u!74 &7400000
AnimationClip:
  m_ObjectHideFlags: 0
  m_PrefabParentObject: {fileID: 0}
  m_PrefabInternal: {fileID: 0}
  m_Name: Menu - Level ALL Idle Anim 1 (Legacy)
  serializedVersion: 6
  m_Legacy: 1
  m_Compressed: 0
  m_UseHighQualityCurve: 1
  m_RotationCurves: []
  m_CompressedRotationCurves: []
  m_EulerCurves: []
  m_PositionCurves: []
  m_ScaleCurves:
  - curve:
      serializedVersion: 2
      m_Curve:
      - serializedVersion: 2
        time: 0
        value: {x: 1, y: 1, z: 1}
        inSlope: {x: 0, y: 0, z: 0}
        outSlope: {x: -0, y: -0, z: -0}
        tangentMode: 0
      - serializedVersion: 2
        time: 2.1
        value: {x: 1, y: 1, z: 1}
        inSlope: {x: 0, y: 0, z: 0}
        outSlope: {x: 0.54780686, y: 0.54780686, z: 0.54780686}
        tangentMode: 0
      - serializedVersion: 2
        time: 2.25
        value: {x: 1.0821711, y: 1.0821711, z: 1.0821711}
        inSlope: {x: 0, y: 0, z: 0}
        outSlope: {x: 0, y: 0, z: 0}
        tangentMode: 0
      - serializedVersion: 2
        time: 2.55
        value: {x: 1, y: 1, z: 1}
        inSlope: {x: -0.27390364, y: -0.27390364, z: -0.27390364}
        outSlope: {x: -0, y: -0, z: -0}
        tangentMode: 0
      - serializedVersion: 2
        time: 5.5
        value: {x: 1, y: 1, z: 1}
        inSlope: {x: 0, y: 0, z: 0}
        outSlope: {x: -0, y: -0, z: -0}
        tangentMode: 0
      m_PreInfinity: 2
      m_PostInfinity: 2
      m_RotationOrder: 4
    path: Level Parent (7)
  - curve:
      serializedVersion: 2
      m_Curve:
      - serializedVersion: 2
        time: 0
        value: {x: 1, y: 1, z: 1}
        inSlope: {x: 0, y: 0, z: 0}
        outSlope: {x: -0, y: -0, z: -0}
        tangentMode: 0
      - serializedVersion: 2
        time: 1.6
        value: {x: 1, y: 1, z: 1}
        inSlope: {x: 0, y: 0, z: 0}
        outSlope: {x: 0.5478073, y: 0.5478073, z: 0.5478073}
        tangentMode: 0
      - serializedVersion: 2
        time: 1.75
        value: {x: 1.0821711, y: 1.0821711, z: 1.0821711}
        inSlope: {x: 0, y: 0, z: 0}
        outSlope: {x: 0, y: 0, z: 0}
        tangentMode: 0
      - serializedVersion: 2
        time: 2.05
        value: {x: 1, y: 1, z: 1}
        inSlope: {x: -0.27390364, y: -0.27390364, z: -0.27390364}
        outSlope: {x: -0, y: -0, z: -0}
        tangentMode: 0
      - serializedVersion: 2
        time: 5.5
        value: {x: 1, y: 1, z: 1}
        inSlope: {x: 0, y: 0, z: 0}
        outSlope: {x: -0, y: -0, z: -0}
        tangentMode: 0
      m_PreInfinity: 2
      m_PostInfinity: 2
      m_RotationOrder: 4
    path: Level Parent (2)
  - curve:
      serializedVersion: 2
      m_Curve:
      - serializedVersion: 2
        time: 0
        value: {x: 1, y: 1, z: 1}
        inSlope: {x: 0, y: 0, z: 0}
        outSlope: {x: -0, y: -0, z: -0}
        tangentMode: 0
      - serializedVersion: 2
        time: 2.2
        value: {x: 1, y: 1, z: 1}
        inSlope: {x: 0, y: 0, z: 0}
        outSlope: {x: 0.54780775, y: 0.54780775, z: 0.54780775}
        tangentMode: 0
      - serializedVersion: 2
        time: 2.35
        value: {x: 1.0821711, y: 1.0821711, z: 1.0821711}
        inSlope: {x: 0, y: 0, z: 0}
        outSlope: {x: 0, y: 0, z: 0}
        tangentMode: 0
      - serializedVersion: 2
        time: 2.65
        value: {x: 1, y: 1, z: 1}
        inSlope: {x: -0.27390343, y: -0.27390343, z: -0.27390343}
        outSlope: {x: -0, y: -0, z: -0}
        tangentMode: 0
      - serializedVersion: 2
        time: 5.5
        value: {x: 1, y: 1, z: 1}
        inSlope: {x: 0, y: 0, z: 0}
        outSlope: {x: -0, y: -0, z: -0}
        tangentMode: 0
      m_PreInfinity: 2
      m_PostInfinity: 2
      m_RotationOrder: 4
    path: Level Parent (8)
  - curve:
      serializedVersion: 2
      m_Curve:
      - serializedVersion: 2
        time: 0
        value: {x: 1, y: 1, z: 1}
        inSlope: {x: 0, y: 0, z: 0}
        outSlope: {x: -0, y: -0, z: -0}
        tangentMode: 0
      - serializedVersion: 2
        time: 1.5
        value: {x: 1, y: 1, z: 1}
        inSlope: {x: 0, y: 0, z: 0}
        outSlope: {x: 0.5478073, y: 0.5478073, z: 0.5478073}
        tangentMode: 0
      - serializedVersion: 2
        time: 1.65
        value: {x: 1.0821711, y: 1.0821711, z: 1.0821711}
        inSlope: {x: 0, y: 0, z: 0}
        outSlope: {x: 0, y: 0, z: 0}
        tangentMode: 0
      - serializedVersion: 2
        time: 1.95
        value: {x: 1, y: 1, z: 1}
        inSlope: {x: -0.27390355, y: -0.27390355, z: -0.27390355}
        outSlope: {x: -0, y: -0, z: -0}
        tangentMode: 0
      - serializedVersion: 2
        time: 5.5
        value: {x: 1, y: 1, z: 1}
        inSlope: {x: 0, y: 0, z: 0}
        outSlope: {x: -0, y: -0, z: -0}
        tangentMode: 0
      m_PreInfinity: 2
      m_PostInfinity: 2
      m_RotationOrder: 4
    path: Level Parent (1)
  - curve:
      serializedVersion: 2
      m_Curve:
      - serializedVersion: 2
        time: 0
        value: {x: 1, y: 1, z: 1}
        inSlope: {x: 0, y: 0, z: 0}
        outSlope: {x: -0, y: -0, z: -0}
        tangentMode: 0
      - serializedVersion: 2
        time: 2.4
        value: {x: 1, y: 1, z: 1}
        inSlope: {x: 0, y: 0, z: 0}
        outSlope: {x: 0.54780775, y: 0.54780775, z: 0.54780775}
        tangentMode: 0
      - serializedVersion: 2
        time: 2.55
        value: {x: 1.0821711, y: 1.0821711, z: 1.0821711}
        inSlope: {x: 0, y: 0, z: 0}
        outSlope: {x: 0, y: 0, z: 0}
        tangentMode: 0
      - serializedVersion: 2
        time: 2.85
        value: {x: 1, y: 1, z: 1}
        inSlope: {x: -0.27390364, y: -0.27390364, z: -0.27390364}
        outSlope: {x: -0, y: -0, z: -0}
        tangentMode: 0
      - serializedVersion: 2
        time: 5.5
        value: {x: 1, y: 1, z: 1}
        inSlope: {x: 0, y: 0, z: 0}
        outSlope: {x: -0, y: -0, z: -0}
        tangentMode: 0
      m_PreInfinity: 2
      m_PostInfinity: 2
      m_RotationOrder: 4
    path: Level Parent (10)
  - curve:
      serializedVersion: 2
      m_Curve:
      - serializedVersion: 2
        time: 0
        value: {x: 1, y: 1, z: 1}
        inSlope: {x: 0, y: 0, z: 0}
        outSlope: {x: -0, y: -0, z: -0}
        tangentMode: 0
      - serializedVersion: 2
        time: 2
        value: {x: 1, y: 1, z: 1}
        inSlope: {x: 0, y: 0, z: 0}
        outSlope: {x: 0.54780686, y: 0.54780686, z: 0.54780686}
        tangentMode: 0
      - serializedVersion: 2
        time: 2.15
        value: {x: 1.0821711, y: 1.0821711, z: 1.0821711}
        inSlope: {x: 0, y: 0, z: 0}
        outSlope: {x: 0, y: 0, z: 0}
        tangentMode: 0
      - serializedVersion: 2
        time: 2.45
        value: {x: 1, y: 1, z: 1}
        inSlope: {x: -0.27390364, y: -0.27390364, z: -0.27390364}
        outSlope: {x: -0, y: -0, z: -0}
        tangentMode: 0
      - serializedVersion: 2
        time: 5.5
        value: {x: 1, y: 1, z: 1}
        inSlope: {x: 0, y: 0, z: 0}
        outSlope: {x: -0, y: -0, z: -0}
        tangentMode: 0
      m_PreInfinity: 2
      m_PostInfinity: 2
      m_RotationOrder: 4
    path: Level Parent (6)
  - curve:
      serializedVersion: 2
      m_Curve:
      - serializedVersion: 2
        time: 0
        value: {x: 1, y: 1, z: 1}
        inSlope: {x: 0, y: 0, z: 0}
        outSlope: {x: -0, y: -0, z: -0}
        tangentMode: 0
      - serializedVersion: 2
        time: 1.9
        value: {x: 1, y: 1, z: 1}
        inSlope: {x: 0, y: 0, z: 0}
        outSlope: {x: 0.5478073, y: 0.5478073, z: 0.5478073}
        tangentMode: 0
      - serializedVersion: 2
        time: 2.05
        value: {x: 1.0821711, y: 1.0821711, z: 1.0821711}
        inSlope: {x: 0, y: 0, z: 0}
        outSlope: {x: 0, y: 0, z: 0}
        tangentMode: 0
      - serializedVersion: 2
        time: 2.35
        value: {x: 1, y: 1, z: 1}
        inSlope: {x: -0.27390364, y: -0.27390364, z: -0.27390364}
        outSlope: {x: -0, y: -0, z: -0}
        tangentMode: 0
      - serializedVersion: 2
        time: 5.5
        value: {x: 1, y: 1, z: 1}
        inSlope: {x: 0, y: 0, z: 0}
        outSlope: {x: -0, y: -0, z: -0}
        tangentMode: 0
      m_PreInfinity: 2
      m_PostInfinity: 2
      m_RotationOrder: 4
    path: Level Parent (5)
  - curve:
      serializedVersion: 2
      m_Curve:
      - serializedVersion: 2
        time: 0
        value: {x: 1, y: 1, z: 1}
        inSlope: {x: 0, y: 0, z: 0}
        outSlope: {x: -0, y: -0, z: -0}
        tangentMode: 0
      - serializedVersion: 2
        time: 1.8
        value: {x: 1, y: 1, z: 1}
        inSlope: {x: 0, y: 0, z: 0}
        outSlope: {x: 0.54780686, y: 0.54780686, z: 0.54780686}
        tangentMode: 0
      - serializedVersion: 2
        time: 1.95
        value: {x: 1.0821711, y: 1.0821711, z: 1.0821711}
        inSlope: {x: 0, y: 0, z: 0}
        outSlope: {x: 0, y: 0, z: 0}
        tangentMode: 0
      - serializedVersion: 2
        time: 2.25
        value: {x: 1, y: 1, z: 1}
        inSlope: {x: -0.27390364, y: -0.27390364, z: -0.27390364}
        outSlope: {x: -0, y: -0, z: -0}
        tangentMode: 0
      - serializedVersion: 2
        time: 5.5
        value: {x: 1, y: 1, z: 1}
        inSlope: {x: 0, y: 0, z: 0}
        outSlope: {x: -0, y: -0, z: -0}
        tangentMode: 0
      m_PreInfinity: 2
      m_PostInfinity: 2
      m_RotationOrder: 4
    path: Level Parent (4)
  - curve:
      serializedVersion: 2
      m_Curve:
      - serializedVersion: 2
        time: 0
        value: {x: 1, y: 1, z: 1}
        inSlope: {x: 0, y: 0, z: 0}
        outSlope: {x: -0, y: -0, z: -0}
        tangentMode: 0
      - serializedVersion: 2
        time: 2.3
        value: {x: 1, y: 1, z: 1}
        inSlope: {x: 0, y: 0, z: 0}
        outSlope: {x: 0.54780686, y: 0.54780686, z: 0.54780686}
        tangentMode: 0
      - serializedVersion: 2
        time: 2.45
        value: {x: 1.0821711, y: 1.0821711, z: 1.0821711}
        inSlope: {x: 0, y: 0, z: 0}
        outSlope: {x: 0, y: 0, z: 0}
        tangentMode: 0
      - serializedVersion: 2
        time: 2.75
        value: {x: 1, y: 1, z: 1}
        inSlope: {x: -0.27390364, y: -0.27390364, z: -0.27390364}
        outSlope: {x: -0, y: -0, z: -0}
        tangentMode: 0
      - serializedVersion: 2
        time: 5.5
        value: {x: 1, y: 1, z: 1}
        inSlope: {x: 0, y: 0, z: 0}
        outSlope: {x: -0, y: -0, z: -0}
        tangentMode: 0
      m_PreInfinity: 2
      m_PostInfinity: 2
      m_RotationOrder: 4
    path: Level Parent (9)
  - curve:
      serializedVersion: 2
      m_Curve:
      - serializedVersion: 2
        time: 0
        value: {x: 1, y: 1, z: 1}
        inSlope: {x: 0, y: 0, z: 0}
        outSlope: {x: -0, y: -0, z: -0}
        tangentMode: 0
      - serializedVersion: 2
        time: 1.7
        value: {x: 1, y: 1, z: 1}
        inSlope: {x: 0, y: 0, z: 0}
        outSlope: {x: 0.5478073, y: 0.5478073, z: 0.5478073}
        tangentMode: 0
      - serializedVersion: 2
        time: 1.85
        value: {x: 1.0821711, y: 1.0821711, z: 1.0821711}
        inSlope: {x: 0, y: 0, z: 0}
        outSlope: {x: 0, y: 0, z: 0}
        tangentMode: 0
      - serializedVersion: 2
        time: 2.15
        value: {x: 1, y: 1, z: 1}
        inSlope: {x: -0.27390355, y: -0.27390355, z: -0.27390355}
        outSlope: {x: -0, y: -0, z: -0}
        tangentMode: 0
      - serializedVersion: 2
        time: 5.5
        value: {x: 1, y: 1, z: 1}
        inSlope: {x: 0, y: 0, z: 0}
        outSlope: {x: -0, y: -0, z: -0}
        tangentMode: 0
      m_PreInfinity: 2
      m_PostInfinity: 2
      m_RotationOrder: 4
    path: Level Parent (3)
  m_FloatCurves: []
  m_PPtrCurves: []
  m_SampleRate: 60
  m_WrapMode: 2
  m_Bounds:
    m_Center: {x: 0, y: 0, z: 0}
    m_Extent: {x: 0, y: 0, z: 0}
  m_ClipBindingConstant:
    genericBindings: []
    pptrCurveMapping: []
  m_AnimationClipSettings:
    serializedVersion: 2
    m_AdditiveReferencePoseClip: {fileID: 0}
    m_AdditiveReferencePoseTime: 0
    m_StartTime: 0
    m_StopTime: 5.5
    m_OrientationOffsetY: 0
    m_Level: 0
    m_CycleOffset: 0
    m_HasAdditiveReferencePose: 0
    m_LoopTime: 1
    m_LoopBlend: 0
    m_LoopBlendOrientation: 0
    m_LoopBlendPositionY: 0
    m_LoopBlendPositionXZ: 0
    m_KeepOriginalOrientation: 0
    m_KeepOriginalPositionY: 1
    m_KeepOriginalPositionXZ: 0
    m_HeightFromFeet: 0
    m_Mirror: 0
  m_EditorCurves:
  - curve:
      serializedVersion: 2
      m_Curve:
      - serializedVersion: 2
        time: 0
        value: 1
        inSlope: 0
        outSlope: -0
        tangentMode: 69
      - serializedVersion: 2
        time: 2.1
        value: 1
        inSlope: 0
        outSlope: 0.54780686
        tangentMode: 69
      - serializedVersion: 2
        time: 2.25
        value: 1.0821711
        inSlope: 0
        outSlope: 0
        tangentMode: 0
      - serializedVersion: 2
        time: 2.55
        value: 1
        inSlope: -0.27390364
        outSlope: -0
        tangentMode: 69
      - serializedVersion: 2
        time: 5.5
        value: 1
        inSlope: 0
        outSlope: -0
        tangentMode: 69
      m_PreInfinity: 2
      m_PostInfinity: 2
      m_RotationOrder: 4
    attribute: m_LocalScale.x
    path: Level Parent (7)
    classID: 224
    script: {fileID: 0}
  - curve:
      serializedVersion: 2
      m_Curve:
      - serializedVersion: 2
        time: 0
        value: 1
        inSlope: 0
        outSlope: -0
        tangentMode: 69
      - serializedVersion: 2
        time: 2.1
        value: 1
        inSlope: 0
        outSlope: 0.54780686
        tangentMode: 69
      - serializedVersion: 2
        time: 2.25
        value: 1.0821711
        inSlope: 0
        outSlope: 0
        tangentMode: 0
      - serializedVersion: 2
        time: 2.55
        value: 1
        inSlope: -0.27390364
        outSlope: -0
        tangentMode: 69
      - serializedVersion: 2
        time: 5.5
        value: 1
        inSlope: 0
        outSlope: -0
        tangentMode: 69
      m_PreInfinity: 2
      m_PostInfinity: 2
      m_RotationOrder: 4
    attribute: m_LocalScale.y
    path: Level Parent (7)
    classID: 224
    script: {fileID: 0}
  - curve:
      serializedVersion: 2
      m_Curve:
      - serializedVersion: 2
        time: 0
        value: 1
        inSlope: 0
        outSlope: -0
        tangentMode: 69
      - serializedVersion: 2
        time: 2.1
        value: 1
        inSlope: 0
        outSlope: 0.54780686
        tangentMode: 69
      - serializedVersion: 2
        time: 2.25
        value: 1.0821711
        inSlope: 0
        outSlope: 0
        tangentMode: 0
      - serializedVersion: 2
        time: 2.55
        value: 1
        inSlope: -0.27390364
        outSlope: -0
        tangentMode: 69
      - serializedVersion: 2
        time: 5.5
        value: 1
        inSlope: 0
        outSlope: -0
        tangentMode: 69
      m_PreInfinity: 2
      m_PostInfinity: 2
      m_RotationOrder: 4
    attribute: m_LocalScale.z
    path: Level Parent (7)
    classID: 224
    script: {fileID: 0}
  - curve:
      serializedVersion: 2
      m_Curve:
      - serializedVersion: 2
        time: 0
        value: 1
        inSlope: 0
        outSlope: -0
        tangentMode: 69
      - serializedVersion: 2
        time: 1.6
        value: 1
        inSlope: 0
        outSlope: 0.5478073
        tangentMode: 69
      - serializedVersion: 2
        time: 1.75
        value: 1.0821711
        inSlope: 0
        outSlope: 0
        tangentMode: 0
      - serializedVersion: 2
        time: 2.05
        value: 1
        inSlope: -0.27390364
        outSlope: -0
        tangentMode: 69
      - serializedVersion: 2
        time: 5.5
        value: 1
        inSlope: 0
        outSlope: -0
        tangentMode: 69
      m_PreInfinity: 2
      m_PostInfinity: 2
      m_RotationOrder: 4
    attribute: m_LocalScale.x
    path: Level Parent (2)
    classID: 224
    script: {fileID: 0}
  - curve:
      serializedVersion: 2
      m_Curve:
      - serializedVersion: 2
        time: 0
        value: 1
        inSlope: 0
        outSlope: -0
        tangentMode: 69
      - serializedVersion: 2
        time: 1.6
        value: 1
        inSlope: 0
        outSlope: 0.5478073
        tangentMode: 69
      - serializedVersion: 2
        time: 1.75
        value: 1.0821711
        inSlope: 0
        outSlope: 0
        tangentMode: 0
      - serializedVersion: 2
        time: 2.05
        value: 1
        inSlope: -0.27390364
        outSlope: -0
        tangentMode: 69
      - serializedVersion: 2
        time: 5.5
        value: 1
        inSlope: 0
        outSlope: -0
        tangentMode: 69
      m_PreInfinity: 2
      m_PostInfinity: 2
      m_RotationOrder: 4
    attribute: m_LocalScale.y
    path: Level Parent (2)
    classID: 224
    script: {fileID: 0}
  - curve:
      serializedVersion: 2
      m_Curve:
      - serializedVersion: 2
        time: 0
        value: 1
        inSlope: 0
        outSlope: -0
        tangentMode: 69
      - serializedVersion: 2
        time: 1.6
        value: 1
        inSlope: 0
        outSlope: 0.5478073
        tangentMode: 69
      - serializedVersion: 2
        time: 1.75
        value: 1.0821711
        inSlope: 0
        outSlope: 0
        tangentMode: 0
      - serializedVersion: 2
        time: 2.05
        value: 1
        inSlope: -0.27390364
        outSlope: -0
        tangentMode: 69
      - serializedVersion: 2
        time: 5.5
        value: 1
        inSlope: 0
        outSlope: -0
        tangentMode: 69
      m_PreInfinity: 2
      m_PostInfinity: 2
      m_RotationOrder: 4
    attribute: m_LocalScale.z
    path: Level Parent (2)
    classID: 224
    script: {fileID: 0}
  - curve:
      serializedVersion: 2
      m_Curve:
      - serializedVersion: 2
        time: 0
        value: 1
        inSlope: 0
        outSlope: -0
        tangentMode: 69
      - serializedVersion: 2
        time: 2.2
        value: 1
        inSlope: 0
        outSlope: 0.54780775
        tangentMode: 69
      - serializedVersion: 2
        time: 2.35
        value: 1.0821711
        inSlope: 0
        outSlope: 0
        tangentMode: 0
      - serializedVersion: 2
        time: 2.65
        value: 1
        inSlope: -0.27390343
        outSlope: -0
        tangentMode: 69
      - serializedVersion: 2
        time: 5.5
        value: 1
        inSlope: 0
        outSlope: -0
        tangentMode: 69
      m_PreInfinity: 2
      m_PostInfinity: 2
      m_RotationOrder: 4
    attribute: m_LocalScale.x
    path: Level Parent (8)
    classID: 224
    script: {fileID: 0}
  - curve:
      serializedVersion: 2
      m_Curve:
      - serializedVersion: 2
        time: 0
        value: 1
        inSlope: 0
        outSlope: -0
        tangentMode: 69
      - serializedVersion: 2
        time: 2.2
        value: 1
        inSlope: 0
        outSlope: 0.54780775
        tangentMode: 69
      - serializedVersion: 2
        time: 2.35
        value: 1.0821711
        inSlope: 0
        outSlope: 0
        tangentMode: 0
      - serializedVersion: 2
        time: 2.65
        value: 1
        inSlope: -0.27390343
        outSlope: -0
        tangentMode: 69
      - serializedVersion: 2
        time: 5.5
        value: 1
        inSlope: 0
        outSlope: -0
        tangentMode: 69
      m_PreInfinity: 2
      m_PostInfinity: 2
      m_RotationOrder: 4
    attribute: m_LocalScale.y
    path: Level Parent (8)
    classID: 224
    script: {fileID: 0}
  - curve:
      serializedVersion: 2
      m_Curve:
      - serializedVersion: 2
        time: 0
        value: 1
        inSlope: 0
        outSlope: -0
        tangentMode: 69
      - serializedVersion: 2
        time: 2.2
        value: 1
        inSlope: 0
        outSlope: 0.54780775
        tangentMode: 69
      - serializedVersion: 2
        time: 2.35
        value: 1.0821711
        inSlope: 0
        outSlope: 0
        tangentMode: 0
      - serializedVersion: 2
        time: 2.65
        value: 1
        inSlope: -0.27390343
        outSlope: -0
        tangentMode: 69
      - serializedVersion: 2
        time: 5.5
        value: 1
        inSlope: 0
        outSlope: -0
        tangentMode: 69
      m_PreInfinity: 2
      m_PostInfinity: 2
      m_RotationOrder: 4
    attribute: m_LocalScale.z
    path: Level Parent (8)
    classID: 224
    script: {fileID: 0}
  - curve:
      serializedVersion: 2
      m_Curve:
      - serializedVersion: 2
        time: 0
        value: 1
        inSlope: 0
        outSlope: -0
        tangentMode: 69
      - serializedVersion: 2
        time: 1.5
        value: 1
        inSlope: 0
        outSlope: 0.5478073
        tangentMode: 69
      - serializedVersion: 2
        time: 1.65
        value: 1.0821711
        inSlope: 0
        outSlope: 0
        tangentMode: 0
      - serializedVersion: 2
        time: 1.95
        value: 1
        inSlope: -0.27390355
        outSlope: -0
        tangentMode: 69
      - serializedVersion: 2
        time: 5.5
        value: 1
        inSlope: 0
        outSlope: -0
        tangentMode: 69
      m_PreInfinity: 2
      m_PostInfinity: 2
      m_RotationOrder: 4
    attribute: m_LocalScale.x
    path: Level Parent (1)
    classID: 224
    script: {fileID: 0}
  - curve:
      serializedVersion: 2
      m_Curve:
      - serializedVersion: 2
        time: 0
        value: 1
        inSlope: 0
        outSlope: -0
        tangentMode: 69
      - serializedVersion: 2
        time: 1.5
        value: 1
        inSlope: 0
        outSlope: 0.5478073
        tangentMode: 69
      - serializedVersion: 2
        time: 1.65
        value: 1.0821711
        inSlope: 0
        outSlope: 0
        tangentMode: 0
      - serializedVersion: 2
        time: 1.95
        value: 1
        inSlope: -0.27390355
        outSlope: -0
        tangentMode: 69
      - serializedVersion: 2
        time: 5.5
        value: 1
        inSlope: 0
        outSlope: -0
        tangentMode: 69
      m_PreInfinity: 2
      m_PostInfinity: 2
      m_RotationOrder: 4
    attribute: m_LocalScale.y
    path: Level Parent (1)
    classID: 224
    script: {fileID: 0}
  - curve:
      serializedVersion: 2
      m_Curve:
      - serializedVersion: 2
        time: 0
        value: 1
        inSlope: 0
        outSlope: -0
        tangentMode: 69
      - serializedVersion: 2
        time: 1.5
        value: 1
        inSlope: 0
        outSlope: 0.5478073
        tangentMode: 69
      - serializedVersion: 2
        time: 1.65
        value: 1.0821711
        inSlope: 0
        outSlope: 0
        tangentMode: 0
      - serializedVersion: 2
        time: 1.95
        value: 1
        inSlope: -0.27390355
        outSlope: -0
        tangentMode: 69
      - serializedVersion: 2
        time: 5.5
        value: 1
        inSlope: 0
        outSlope: -0
        tangentMode: 69
      m_PreInfinity: 2
      m_PostInfinity: 2
      m_RotationOrder: 4
    attribute: m_LocalScale.z
    path: Level Parent (1)
    classID: 224
    script: {fileID: 0}
  - curve:
      serializedVersion: 2
      m_Curve:
      - serializedVersion: 2
        time: 0
        value: 1
        inSlope: 0
        outSlope: -0
        tangentMode: 69
      - serializedVersion: 2
        time: 2.4
        value: 1
        inSlope: 0
        outSlope: 0.54780775
        tangentMode: 69
      - serializedVersion: 2
        time: 2.55
        value: 1.0821711
        inSlope: 0
        outSlope: 0
        tangentMode: 0
      - serializedVersion: 2
        time: 2.85
        value: 1
        inSlope: -0.27390364
        outSlope: -0
        tangentMode: 69
      - serializedVersion: 2
        time: 5.5
        value: 1
        inSlope: 0
        outSlope: -0
        tangentMode: 69
      m_PreInfinity: 2
      m_PostInfinity: 2
      m_RotationOrder: 4
    attribute: m_LocalScale.x
    path: Level Parent (10)
    classID: 224
    script: {fileID: 0}
  - curve:
      serializedVersion: 2
      m_Curve:
      - serializedVersion: 2
        time: 0
        value: 1
        inSlope: 0
        outSlope: -0
        tangentMode: 69
      - serializedVersion: 2
        time: 2.4
        value: 1
        inSlope: 0
        outSlope: 0.54780775
        tangentMode: 69
      - serializedVersion: 2
        time: 2.55
        value: 1.0821711
        inSlope: 0
        outSlope: 0
        tangentMode: 0
      - serializedVersion: 2
        time: 2.85
        value: 1
        inSlope: -0.27390364
        outSlope: -0
        tangentMode: 69
      - serializedVersion: 2
        time: 5.5
        value: 1
        inSlope: 0
        outSlope: -0
        tangentMode: 69
      m_PreInfinity: 2
      m_PostInfinity: 2
      m_RotationOrder: 4
    attribute: m_LocalScale.y
    path: Level Parent (10)
    classID: 224
    script: {fileID: 0}
  - curve:
      serializedVersion: 2
      m_Curve:
      - serializedVersion: 2
        time: 0
        value: 1
        inSlope: 0
        outSlope: -0
        tangentMode: 69
      - serializedVersion: 2
        time: 2.4
        value: 1
        inSlope: 0
        outSlope: 0.54780775
        tangentMode: 69
      - serializedVersion: 2
        time: 2.55
        value: 1.0821711
        inSlope: 0
        outSlope: 0
        tangentMode: 0
      - serializedVersion: 2
        time: 2.85
        value: 1
        inSlope: -0.27390364
        outSlope: -0
        tangentMode: 69
      - serializedVersion: 2
        time: 5.5
        value: 1
        inSlope: 0
        outSlope: -0
        tangentMode: 69
      m_PreInfinity: 2
      m_PostInfinity: 2
      m_RotationOrder: 4
    attribute: m_LocalScale.z
    path: Level Parent (10)
    classID: 224
    script: {fileID: 0}
  - curve:
      serializedVersion: 2
      m_Curve:
      - serializedVersion: 2
        time: 0
        value: 1
        inSlope: 0
        outSlope: -0
        tangentMode: 69
      - serializedVersion: 2
        time: 2
        value: 1
        inSlope: 0
        outSlope: 0.54780686
        tangentMode: 69
      - serializedVersion: 2
        time: 2.15
        value: 1.0821711
        inSlope: 0
        outSlope: 0
        tangentMode: 0
      - serializedVersion: 2
        time: 2.45
        value: 1
        inSlope: -0.27390364
        outSlope: -0
        tangentMode: 69
      - serializedVersion: 2
        time: 5.5
        value: 1
        inSlope: 0
        outSlope: -0
        tangentMode: 69
      m_PreInfinity: 2
      m_PostInfinity: 2
      m_RotationOrder: 4
    attribute: m_LocalScale.x
    path: Level Parent (6)
    classID: 224
    script: {fileID: 0}
  - curve:
      serializedVersion: 2
      m_Curve:
      - serializedVersion: 2
        time: 0
        value: 1
        inSlope: 0
        outSlope: -0
        tangentMode: 69
      - serializedVersion: 2
        time: 2
        value: 1
        inSlope: 0
        outSlope: 0.54780686
        tangentMode: 69
      - serializedVersion: 2
        time: 2.15
        value: 1.0821711
        inSlope: 0
        outSlope: 0
        tangentMode: 0
      - serializedVersion: 2
        time: 2.45
        value: 1
        inSlope: -0.27390364
        outSlope: -0
        tangentMode: 69
      - serializedVersion: 2
        time: 5.5
        value: 1
        inSlope: 0
        outSlope: -0
        tangentMode: 69
      m_PreInfinity: 2
      m_PostInfinity: 2
      m_RotationOrder: 4
    attribute: m_LocalScale.y
    path: Level Parent (6)
    classID: 224
    script: {fileID: 0}
  - curve:
      serializedVersion: 2
      m_Curve:
      - serializedVersion: 2
        time: 0
        value: 1
        inSlope: 0
        outSlope: -0
        tangentMode: 69
      - serializedVersion: 2
        time: 2
        value: 1
        inSlope: 0
        outSlope: 0.54780686
        tangentMode: 69
      - serializedVersion: 2
        time: 2.15
        value: 1.0821711
        inSlope: 0
        outSlope: 0
        tangentMode: 0
      - serializedVersion: 2
        time: 2.45
        value: 1
        inSlope: -0.27390364
        outSlope: -0
        tangentMode: 69
      - serializedVersion: 2
        time: 5.5
        value: 1
        inSlope: 0
        outSlope: -0
        tangentMode: 69
      m_PreInfinity: 2
      m_PostInfinity: 2
      m_RotationOrder: 4
    attribute: m_LocalScale.z
    path: Level Parent (6)
    classID: 224
    script: {fileID: 0}
  - curve:
      serializedVersion: 2
      m_Curve:
      - serializedVersion: 2
        time: 0
        value: 1
        inSlope: 0
        outSlope: -0
        tangentMode: 69
      - serializedVersion: 2
        time: 1.9
        value: 1
        inSlope: 0
        outSlope: 0.5478073
        tangentMode: 69
      - serializedVersion: 2
        time: 2.05
        value: 1.0821711
        inSlope: 0
        outSlope: 0
        tangentMode: 0
      - serializedVersion: 2
        time: 2.35
        value: 1
        inSlope: -0.27390364
        outSlope: -0
        tangentMode: 69
      - serializedVersion: 2
        time: 5.5
        value: 1
        inSlope: 0
        outSlope: -0
        tangentMode: 69
      m_PreInfinity: 2
      m_PostInfinity: 2
      m_RotationOrder: 4
    attribute: m_LocalScale.x
    path: Level Parent (5)
    classID: 224
    script: {fileID: 0}
  - curve:
      serializedVersion: 2
      m_Curve:
      - serializedVersion: 2
        time: 0
        value: 1
        inSlope: 0
        outSlope: -0
        tangentMode: 69
      - serializedVersion: 2
        time: 1.9
        value: 1
        inSlope: 0
        outSlope: 0.5478073
        tangentMode: 69
      - serializedVersion: 2
        time: 2.05
        value: 1.0821711
        inSlope: 0
        outSlope: 0
        tangentMode: 0
      - serializedVersion: 2
        time: 2.35
        value: 1
        inSlope: -0.27390364
        outSlope: -0
        tangentMode: 69
      - serializedVersion: 2
        time: 5.5
        value: 1
        inSlope: 0
        outSlope: -0
        tangentMode: 69
      m_PreInfinity: 2
      m_PostInfinity: 2
      m_RotationOrder: 4
    attribute: m_LocalScale.y
    path: Level Parent (5)
    classID: 224
    script: {fileID: 0}
  - curve:
      serializedVersion: 2
      m_Curve:
      - serializedVersion: 2
        time: 0
        value: 1
        inSlope: 0
        outSlope: -0
        tangentMode: 69
      - serializedVersion: 2
        time: 1.9
        value: 1
        inSlope: 0
        outSlope: 0.5478073
        tangentMode: 69
      - serializedVersion: 2
        time: 2.05
        value: 1.0821711
        inSlope: 0
        outSlope: 0
        tangentMode: 0
      - serializedVersion: 2
        time: 2.35
        value: 1
        inSlope: -0.27390364
        outSlope: -0
        tangentMode: 69
      - serializedVersion: 2
        time: 5.5
        value: 1
        inSlope: 0
        outSlope: -0
        tangentMode: 69
      m_PreInfinity: 2
      m_PostInfinity: 2
      m_RotationOrder: 4
    attribute: m_LocalScale.z
    path: Level Parent (5)
    classID: 224
    script: {fileID: 0}
  - curve:
      serializedVersion: 2
      m_Curve:
      - serializedVersion: 2
        time: 0
        value: 1
        inSlope: 0
        outSlope: -0
        tangentMode: 69
      - serializedVersion: 2
        time: 1.8
        value: 1
        inSlope: 0
        outSlope: 0.54780686
        tangentMode: 69
      - serializedVersion: 2
        time: 1.95
        value: 1.0821711
        inSlope: 0
        outSlope: 0
        tangentMode: 0
      - serializedVersion: 2
        time: 2.25
        value: 1
        inSlope: -0.27390364
        outSlope: -0
        tangentMode: 69
      - serializedVersion: 2
        time: 5.5
        value: 1
        inSlope: 0
        outSlope: -0
        tangentMode: 69
      m_PreInfinity: 2
      m_PostInfinity: 2
      m_RotationOrder: 4
    attribute: m_LocalScale.x
    path: Level Parent (4)
    classID: 224
    script: {fileID: 0}
  - curve:
      serializedVersion: 2
      m_Curve:
      - serializedVersion: 2
        time: 0
        value: 1
        inSlope: 0
        outSlope: -0
        tangentMode: 69
      - serializedVersion: 2
        time: 1.8
        value: 1
        inSlope: 0
        outSlope: 0.54780686
        tangentMode: 69
      - serializedVersion: 2
        time: 1.95
        value: 1.0821711
        inSlope: 0
        outSlope: 0
        tangentMode: 0
      - serializedVersion: 2
        time: 2.25
        value: 1
        inSlope: -0.27390364
        outSlope: -0
        tangentMode: 69
      - serializedVersion: 2
        time: 5.5
        value: 1
        inSlope: 0
        outSlope: -0
        tangentMode: 69
      m_PreInfinity: 2
      m_PostInfinity: 2
      m_RotationOrder: 4
    attribute: m_LocalScale.y
    path: Level Parent (4)
    classID: 224
    script: {fileID: 0}
  - curve:
      serializedVersion: 2
      m_Curve:
      - serializedVersion: 2
        time: 0
        value: 1
        inSlope: 0
        outSlope: -0
        tangentMode: 69
      - serializedVersion: 2
        time: 1.8
        value: 1
        inSlope: 0
        outSlope: 0.54780686
        tangentMode: 69
      - serializedVersion: 2
        time: 1.95
        value: 1.0821711
        inSlope: 0
        outSlope: 0
        tangentMode: 0
      - serializedVersion: 2
        time: 2.25
        value: 1
        inSlope: -0.27390364
        outSlope: -0
        tangentMode: 69
      - serializedVersion: 2
        time: 5.5
        value: 1
        inSlope: 0
        outSlope: -0
        tangentMode: 69
      m_PreInfinity: 2
      m_PostInfinity: 2
      m_RotationOrder: 4
    attribute: m_LocalScale.z
    path: Level Parent (4)
    classID: 224
    script: {fileID: 0}
  - curve:
      serializedVersion: 2
      m_Curve:
      - serializedVersion: 2
        time: 0
        value: 1
        inSlope: 0
        outSlope: -0
        tangentMode: 69
      - serializedVersion: 2
        time: 2.3
        value: 1
        inSlope: 0
        outSlope: 0.54780686
        tangentMode: 69
      - serializedVersion: 2
        time: 2.45
        value: 1.0821711
        inSlope: 0
        outSlope: 0
        tangentMode: 0
      - serializedVersion: 2
        time: 2.75
        value: 1
        inSlope: -0.27390364
        outSlope: -0
        tangentMode: 69
      - serializedVersion: 2
        time: 5.5
        value: 1
        inSlope: 0
        outSlope: -0
        tangentMode: 69
      m_PreInfinity: 2
      m_PostInfinity: 2
      m_RotationOrder: 4
    attribute: m_LocalScale.x
    path: Level Parent (9)
    classID: 224
    script: {fileID: 0}
  - curve:
      serializedVersion: 2
      m_Curve:
      - serializedVersion: 2
        time: 0
        value: 1
        inSlope: 0
        outSlope: -0
        tangentMode: 69
      - serializedVersion: 2
        time: 2.3
        value: 1
        inSlope: 0
        outSlope: 0.54780686
        tangentMode: 69
      - serializedVersion: 2
        time: 2.45
        value: 1.0821711
        inSlope: 0
        outSlope: 0
        tangentMode: 0
      - serializedVersion: 2
        time: 2.75
        value: 1
        inSlope: -0.27390364
        outSlope: -0
        tangentMode: 69
      - serializedVersion: 2
        time: 5.5
        value: 1
        inSlope: 0
        outSlope: -0
        tangentMode: 69
      m_PreInfinity: 2
      m_PostInfinity: 2
      m_RotationOrder: 4
    attribute: m_LocalScale.y
    path: Level Parent (9)
    classID: 224
    script: {fileID: 0}
  - curve:
      serializedVersion: 2
      m_Curve:
      - serializedVersion: 2
        time: 0
        value: 1
        inSlope: 0
        outSlope: -0
        tangentMode: 69
      - serializedVersion: 2
        time: 2.3
        value: 1
        inSlope: 0
        outSlope: 0.54780686
        tangentMode: 69
      - serializedVersion: 2
        time: 2.45
        value: 1.0821711
        inSlope: 0
        outSlope: 0
        tangentMode: 0
      - serializedVersion: 2
        time: 2.75
        value: 1
        inSlope: -0.27390364
        outSlope: -0
        tangentMode: 69
      - serializedVersion: 2
        time: 5.5
        value: 1
        inSlope: 0
        outSlope: -0
        tangentMode: 69
      m_PreInfinity: 2
      m_PostInfinity: 2
      m_RotationOrder: 4
    attribute: m_LocalScale.z
    path: Level Parent (9)
    classID: 224
    script: {fileID: 0}
  - curve:
      serializedVersion: 2
      m_Curve:
      - serializedVersion: 2
        time: 0
        value: 1
        inSlope: 0
        outSlope: -0
        tangentMode: 69
      - serializedVersion: 2
        time: 1.7
        value: 1
        inSlope: 0
        outSlope: 0.5478073
        tangentMode: 69
      - serializedVersion: 2
        time: 1.85
        value: 1.0821711
        inSlope: 0
        outSlope: 0
        tangentMode: 0
      - serializedVersion: 2
        time: 2.15
        value: 1
        inSlope: -0.27390355
        outSlope: -0
        tangentMode: 69
      - serializedVersion: 2
        time: 5.5
        value: 1
        inSlope: 0
        outSlope: -0
        tangentMode: 69
      m_PreInfinity: 2
      m_PostInfinity: 2
      m_RotationOrder: 4
    attribute: m_LocalScale.x
    path: Level Parent (3)
    classID: 224
    script: {fileID: 0}
  - curve:
      serializedVersion: 2
      m_Curve:
      - serializedVersion: 2
        time: 0
        value: 1
        inSlope: 0
        outSlope: -0
        tangentMode: 69
      - serializedVersion: 2
        time: 1.7
        value: 1
        inSlope: 0
        outSlope: 0.5478073
        tangentMode: 69
      - serializedVersion: 2
        time: 1.85
        value: 1.0821711
        inSlope: 0
        outSlope: 0
        tangentMode: 0
      - serializedVersion: 2
        time: 2.15
        value: 1
        inSlope: -0.27390355
        outSlope: -0
        tangentMode: 69
      - serializedVersion: 2
        time: 5.5
        value: 1
        inSlope: 0
        outSlope: -0
        tangentMode: 69
      m_PreInfinity: 2
      m_PostInfinity: 2
      m_RotationOrder: 4
    attribute: m_LocalScale.y
    path: Level Parent (3)
    classID: 224
    script: {fileID: 0}
  - curve:
      serializedVersion: 2
      m_Curve:
      - serializedVersion: 2
        time: 0
        value: 1
        inSlope: 0
        outSlope: -0
        tangentMode: 69
      - serializedVersion: 2
        time: 1.7
        value: 1
        inSlope: 0
        outSlope: 0.5478073
        tangentMode: 69
      - serializedVersion: 2
        time: 1.85
        value: 1.0821711
        inSlope: 0
        outSlope: 0
        tangentMode: 0
      - serializedVersion: 2
        time: 2.15
        value: 1
        inSlope: -0.27390355
        outSlope: -0
        tangentMode: 69
      - serializedVersion: 2
        time: 5.5
        value: 1
        inSlope: 0
        outSlope: -0
        tangentMode: 69
      m_PreInfinity: 2
      m_PostInfinity: 2
      m_RotationOrder: 4
    attribute: m_LocalScale.z
    path: Level Parent (3)
    classID: 224
    script: {fileID: 0}
  m_EulerEditorCurves: []
  m_HasGenericRootTransform: 0
  m_HasMotionFloatCurves: 0
  m_GenerateMotionCurves: 0
  m_Events: []
