%YAML 1.1
%TAG !u! tag:unity3d.com,2011:
--- !u!74 &7400000
AnimationClip:
  m_ObjectHideFlags: 0
  m_PrefabParentObject: {fileID: 0}
  m_PrefabInternal: {fileID: 0}
  m_Name: World 3 - Hotel Doors Start Anim 1 (Legacy)
  serializedVersion: 6
  m_Legacy: 1
  m_Compressed: 0
  m_UseHighQualityCurve: 1
  m_RotationCurves: []
  m_CompressedRotationCurves: []
  m_EulerCurves: []
  m_PositionCurves:
  - curve:
      serializedVersion: 2
      m_Curve:
      - serializedVersion: 2
        time: 0
        value: {x: -2.11, y: 0, z: 0}
        inSlope: {x: 0.03999996, y: 0, z: 0}
        outSlope: {x: 0.2571426, y: 0, z: 0}
        tangentMode: 0
      - serializedVersion: 2
        time: 0.11666667
        value: {x: -2.08, y: 0, z: 0}
        inSlope: {x: 0.2571426, y: 0, z: 0}
        outSlope: {x: -0.30000034, y: 0, z: 0}
        tangentMode: 0
      - serializedVersion: 2
        time: 0.3
        value: {x: -2.135, y: 0, z: 0}
        inSlope: {x: -0.30000034, y: 0, z: 0}
        outSlope: {x: 0.36666718, y: 0, z: 0}
        tangentMode: 0
      - serializedVersion: 2
        time: 0.45
        value: {x: -2.08, y: 0, z: 0}
        inSlope: {x: 0.36666718, y: 0, z: 0}
        outSlope: {x: -0.41250053, y: 0, z: 0}
        tangentMode: 0
      - serializedVersion: 2
        time: 0.5833333
        value: {x: -2.135, y: 0, z: 0}
        inSlope: {x: -0.41250053, y: 0, z: 0}
        outSlope: {x: 0.4714291, y: 0, z: 0}
        tangentMode: 0
      - serializedVersion: 2
        time: 0.7
        value: {x: -2.08, y: 0, z: 0}
        inSlope: {x: 0.4714291, y: 0, z: 0}
        outSlope: {x: -0.55000055, y: 0, z: 0}
        tangentMode: 0
      - serializedVersion: 2
        time: 0.8
        value: {x: -2.135, y: 0, z: 0}
        inSlope: {x: -0.55000055, y: 0, z: 0}
        outSlope: {x: 0.660001, y: 0, z: 0}
        tangentMode: 0
      - serializedVersion: 2
        time: 0.8833333
        value: {x: -2.08, y: 0, z: 0}
        inSlope: {x: 0.660001, y: 0, z: 0}
        outSlope: {x: -0.660001, y: 0, z: 0}
        tangentMode: 0
      - serializedVersion: 2
        time: 0.96666664
        value: {x: -2.135, y: 0, z: 0}
        inSlope: {x: -0.660001, y: 0, z: 0}
        outSlope: {x: 0.660001, y: 0, z: 0}
        tangentMode: 0
      - serializedVersion: 2
        time: 1.05
        value: {x: -2.08, y: 0, z: 0}
        inSlope: {x: 0.660001, y: 0, z: 0}
        outSlope: {x: -0.66000146, y: 0, z: 0}
        tangentMode: 0
      - serializedVersion: 2
        time: 1.1333332
        value: {x: -2.135, y: 0, z: 0}
        inSlope: {x: -0.66000146, y: 0, z: 0}
        outSlope: {x: 0.8250003, y: 0, z: 0}
        tangentMode: 0
      - serializedVersion: 2
        time: 1.1999999
        value: {x: -2.08, y: 0, z: 0}
        inSlope: {x: 0.8250003, y: 0, z: 0}
        outSlope: {x: -0.8250018, y: 0, z: 0}
        tangentMode: 0
      - serializedVersion: 2
        time: 1.2666665
        value: {x: -2.135, y: 0, z: 0}
        inSlope: {x: -0.8250018, y: 0, z: 0}
        outSlope: {x: 0.8250003, y: 0, z: 0}
        tangentMode: 0
      - serializedVersion: 2
        time: 1.3333333
        value: {x: -2.08, y: 0, z: 0}
        inSlope: {x: 0.8250003, y: 0, z: 0}
        outSlope: {x: -0.8250018, y: 0, z: 0}
        tangentMode: 0
      - serializedVersion: 2
        time: 1.3999999
        value: {x: -2.135, y: 0, z: 0}
        inSlope: {x: -0.8250018, y: 0, z: 0}
        outSlope: {x: 1.0999972, y: 0, z: 0}
        tangentMode: 0
      - serializedVersion: 2
        time: 1.45
        value: {x: -2.08, y: 0, z: 0}
        inSlope: {x: 1.0999972, y: 0, z: 0}
        outSlope: {x: -1.1000024, y: 0, z: 0}
        tangentMode: 0
      - serializedVersion: 2
        time: 1.5
        value: {x: -2.135, y: 0, z: 0}
        inSlope: {x: -1.1000024, y: 0, z: 0}
        outSlope: {x: 1.1000024, y: 0, z: 0}
        tangentMode: 0
      - serializedVersion: 2
        time: 1.55
        value: {x: -2.08, y: 0, z: 0}
        inSlope: {x: 1.1000024, y: 0, z: 0}
        outSlope: {x: -1.0999998, y: 0, z: 0}
        tangentMode: 0
      - serializedVersion: 2
        time: 1.6
        value: {x: -2.135, y: 0, z: 0}
        inSlope: {x: -1.0999998, y: 0, z: 0}
        outSlope: {x: 1.1000024, y: 0, z: 0}
        tangentMode: 0
      - serializedVersion: 2
        time: 1.65
        value: {x: -2.08, y: 0, z: 0}
        inSlope: {x: 1.1000024, y: 0, z: 0}
        outSlope: {x: -1.4, y: 0, z: 0}
        tangentMode: 0
      - serializedVersion: 2
        time: 1.6666666
        value: {x: -2.1033332, y: 0, z: 0}
        inSlope: {x: -1.4, y: 0, z: 0}
        outSlope: {x: -0.80000716, y: 0, z: 0}
        tangentMode: 0
      m_PreInfinity: 2
      m_PostInfinity: 2
      m_RotationOrder: 4
    path: Hotel Doors Parent/Hotel Door (1)
  - curve:
      serializedVersion: 2
      m_Curve:
      - serializedVersion: 2
        time: 0
        value: {x: 2.062, y: 0, z: 0}
        inSlope: {x: 0.038666565, y: 0, z: 0}
        outSlope: {x: 0.16799927, y: 0, z: 0}
        tangentMode: 0
      - serializedVersion: 2
        time: 0.16666667
        value: {x: 2.09, y: 0, z: 0}
        inSlope: {x: 0.16799927, y: 0, z: 0}
        outSlope: {x: -0.27272698, y: 0, z: 0}
        tangentMode: 0
      - serializedVersion: 2
        time: 0.35000002
        value: {x: 2.04, y: 0, z: 0}
        inSlope: {x: -0.27272698, y: 0, z: 0}
        outSlope: {x: 0.2499997, y: 0, z: 0}
        tangentMode: 0
      - serializedVersion: 2
        time: 0.5500001
        value: {x: 2.09, y: 0, z: 0}
        inSlope: {x: 0.2499997, y: 0, z: 0}
        outSlope: {x: -0.37499967, y: 0, z: 0}
        tangentMode: 0
      - serializedVersion: 2
        time: 0.6833334
        value: {x: 2.04, y: 0, z: 0}
        inSlope: {x: -0.37499967, y: 0, z: 0}
        outSlope: {x: 0.428571, y: 0, z: 0}
        tangentMode: 0
      - serializedVersion: 2
        time: 0.8000001
        value: {x: 2.09, y: 0, z: 0}
        inSlope: {x: 0.428571, y: 0, z: 0}
        outSlope: {x: -0.4999994, y: 0, z: 0}
        tangentMode: 0
      - serializedVersion: 2
        time: 0.9000001
        value: {x: 2.04, y: 0, z: 0}
        inSlope: {x: -0.4999994, y: 0, z: 0}
        outSlope: {x: 0.59999955, y: 0, z: 0}
        tangentMode: 0
      - serializedVersion: 2
        time: 0.9833334
        value: {x: 2.09, y: 0, z: 0}
        inSlope: {x: 0.59999955, y: 0, z: 0}
        outSlope: {x: -0.59999955, y: 0, z: 0}
        tangentMode: 0
      - serializedVersion: 2
        time: 1.0666667
        value: {x: 2.04, y: 0, z: 0}
        inSlope: {x: -0.59999955, y: 0, z: 0}
        outSlope: {x: 0.6, y: 0, z: 0}
        tangentMode: 0
      - serializedVersion: 2
        time: 1.15
        value: {x: 2.09, y: 0, z: 0}
        inSlope: {x: 0.6, y: 0, z: 0}
        outSlope: {x: -0.6, y: 0, z: 0}
        tangentMode: 0
      - serializedVersion: 2
        time: 1.2333332
        value: {x: 2.04, y: 0, z: 0}
        inSlope: {x: -0.6, y: 0, z: 0}
        outSlope: {x: 0.7499987, y: 0, z: 0}
        tangentMode: 0
      - serializedVersion: 2
        time: 1.3
        value: {x: 2.09, y: 0, z: 0}
        inSlope: {x: 0.7499987, y: 0, z: 0}
        outSlope: {x: -0.75, y: 0, z: 0}
        tangentMode: 0
      - serializedVersion: 2
        time: 1.3666666
        value: {x: 2.04, y: 0, z: 0}
        inSlope: {x: -0.75, y: 0, z: 0}
        outSlope: {x: 0.7499987, y: 0, z: 0}
        tangentMode: 0
      - serializedVersion: 2
        time: 1.4333333
        value: {x: 2.09, y: 0, z: 0}
        inSlope: {x: 0.7499987, y: 0, z: 0}
        outSlope: {x: -0.75, y: 0, z: 0}
        tangentMode: 0
      - serializedVersion: 2
        time: 1.4999999
        value: {x: 2.04, y: 0, z: 0}
        inSlope: {x: -0.75, y: 0, z: 0}
        outSlope: {x: 0.99999523, y: 0, z: 0}
        tangentMode: 0
      - serializedVersion: 2
        time: 1.5500001
        value: {x: 2.09, y: 0, z: 0}
        inSlope: {x: 0.99999523, y: 0, z: 0}
        outSlope: {x: -1, y: 0, z: 0}
        tangentMode: 0
      - serializedVersion: 2
        time: 1.6
        value: {x: 2.04, y: 0, z: 0}
        inSlope: {x: -1, y: 0, z: 0}
        outSlope: {x: 0.75, y: 0, z: 0}
        tangentMode: 0
      - serializedVersion: 2
        time: 1.6666666
        value: {x: 2.09, y: 0, z: 0}
        inSlope: {x: 0.75, y: 0, z: 0}
        outSlope: {x: -0.8000029, y: 0, z: 0}
        tangentMode: 0
      m_PreInfinity: 2
      m_PostInfinity: 2
      m_RotationOrder: 4
    path: Hotel Doors Parent/Hotel Door (3)
  - curve:
      serializedVersion: 2
      m_Curve:
      - serializedVersion: 2
        time: 0
        value: {x: -0.021, y: 0, z: 0}
        inSlope: {x: 0.039333332, y: 0, z: 0}
        outSlope: {x: 0.26999998, y: 0, z: 0}
        tangentMode: 0
      - serializedVersion: 2
        time: 0.16666667
        value: {x: 0.024, y: 0, z: 0}
        inSlope: {x: 0.26999998, y: 0, z: 0}
        outSlope: {x: -0.24545452, y: 0, z: 0}
        tangentMode: 0
      - serializedVersion: 2
        time: 0.35000002
        value: {x: -0.021, y: 0, z: 0}
        inSlope: {x: -0.24545452, y: 0, z: 0}
        outSlope: {x: 0.30000004, y: 0, z: 0}
        tangentMode: 0
      - serializedVersion: 2
        time: 0.5
        value: {x: 0.024, y: 0, z: 0}
        inSlope: {x: 0.30000004, y: 0, z: 0}
        outSlope: {x: -0.3375, y: 0, z: 0}
        tangentMode: 0
      - serializedVersion: 2
        time: 0.6333333
        value: {x: -0.021, y: 0, z: 0}
        inSlope: {x: -0.3375, y: 0, z: 0}
        outSlope: {x: 0.38571426, y: 0, z: 0}
        tangentMode: 0
      - serializedVersion: 2
        time: 0.75
        value: {x: 0.024, y: 0, z: 0}
        inSlope: {x: 0.38571426, y: 0, z: 0}
        outSlope: {x: -0.4499999, y: 0, z: 0}
        tangentMode: 0
      - serializedVersion: 2
        time: 0.85
        value: {x: -0.021, y: 0, z: 0}
        inSlope: {x: -0.4499999, y: 0, z: 0}
        outSlope: {x: 0.54000014, y: 0, z: 0}
        tangentMode: 0
      - serializedVersion: 2
        time: 0.93333334
        value: {x: 0.024, y: 0, z: 0}
        inSlope: {x: 0.54000014, y: 0, z: 0}
        outSlope: {x: -0.54000014, y: 0, z: 0}
        tangentMode: 0
      - serializedVersion: 2
        time: 1.0166667
        value: {x: -0.021, y: 0, z: 0}
        inSlope: {x: -0.54000014, y: 0, z: 0}
        outSlope: {x: 0.5400005, y: 0, z: 0}
        tangentMode: 0
      - serializedVersion: 2
        time: 1.0999999
        value: {x: 0.024, y: 0, z: 0}
        inSlope: {x: 0.5400005, y: 0, z: 0}
        outSlope: {x: -0.5400005, y: 0, z: 0}
        tangentMode: 0
      - serializedVersion: 2
        time: 1.1833332
        value: {x: -0.021, y: 0, z: 0}
        inSlope: {x: -0.5400005, y: 0, z: 0}
        outSlope: {x: 0.6749994, y: 0, z: 0}
        tangentMode: 0
      - serializedVersion: 2
        time: 1.2499999
        value: {x: 0.024, y: 0, z: 0}
        inSlope: {x: 0.6749994, y: 0, z: 0}
        outSlope: {x: -0.67500067, y: 0, z: 0}
        tangentMode: 0
      - serializedVersion: 2
        time: 1.3166665
        value: {x: -0.021, y: 0, z: 0}
        inSlope: {x: -0.67500067, y: 0, z: 0}
        outSlope: {x: 0.6749994, y: 0, z: 0}
        tangentMode: 0
      - serializedVersion: 2
        time: 1.3833332
        value: {x: 0.024, y: 0, z: 0}
        inSlope: {x: 0.6749994, y: 0, z: 0}
        outSlope: {x: -0.67500067, y: 0, z: 0}
        tangentMode: 0
      - serializedVersion: 2
        time: 1.4499998
        value: {x: -0.021, y: 0, z: 0}
        inSlope: {x: -0.67500067, y: 0, z: 0}
        outSlope: {x: 0.8999966, y: 0, z: 0}
        tangentMode: 0
      - serializedVersion: 2
        time: 1.5
        value: {x: 0.024, y: 0, z: 0}
        inSlope: {x: 0.8999966, y: 0, z: 0}
        outSlope: {x: -0.9000009, y: 0, z: 0}
        tangentMode: 0
      - serializedVersion: 2
        time: 1.55
        value: {x: -0.021, y: 0, z: 0}
        inSlope: {x: -0.9000009, y: 0, z: 0}
        outSlope: {x: 0.9000009, y: 0, z: 0}
        tangentMode: 0
      - serializedVersion: 2
        time: 1.5999999
        value: {x: 0.024, y: 0, z: 0}
        inSlope: {x: 0.9000009, y: 0, z: 0}
        outSlope: {x: -0.8999987, y: 0, z: 0}
        tangentMode: 0
      - serializedVersion: 2
        time: 1.65
        value: {x: -0.021, y: 0, z: 0}
        inSlope: {x: -0.8999987, y: 0, z: 0}
        outSlope: {x: -0, y: 0, z: 0}
        tangentMode: 0
      - serializedVersion: 2
        time: 1.6666666
        value: {x: -0.021, y: 0, z: 0}
        inSlope: {x: 0, y: 0, z: 0}
        outSlope: {x: 0.8000029, y: 0, z: 0}
        tangentMode: 0
      m_PreInfinity: 2
      m_PostInfinity: 2
      m_RotationOrder: 4
    path: Hotel Doors Parent/Hotel Door (2)
  m_ScaleCurves: []
  m_FloatCurves:
  - curve:
      serializedVersion: 2
      m_Curve:
      - serializedVersion: 2
        time: 0
        value: 0
        inSlope: Infinity
        outSlope: Infinity
        tangentMode: 103
      - serializedVersion: 2
        time: 1.65
        value: 1
        inSlope: Infinity
        outSlope: Infinity
        tangentMode: 103
      m_PreInfinity: 2
      m_PostInfinity: 2
      m_RotationOrder: 4
    attribute: m_IsActive
    path: Hotel Doors Parent/Hotel Door Start Shards Particle
    classID: 1
    script: {fileID: 0}
  - curve:
      serializedVersion: 2
      m_Curve:
      - serializedVersion: 2
        time: 0
        value: 0
        inSlope: Infinity
        outSlope: Infinity
        tangentMode: 103
      - serializedVersion: 2
        time: 1.65
        value: 1
        inSlope: Infinity
        outSlope: Infinity
        tangentMode: 103
      m_PreInfinity: 2
      m_PostInfinity: 2
      m_RotationOrder: 4
    attribute: m_IsActive
    path: Hotel Doors Parent/Hotel Door Start Dust Particle
    classID: 1
    script: {fileID: 0}
  - curve:
      serializedVersion: 2
      m_Curve:
      - serializedVersion: 2
        time: 0
        value: 1
        inSlope: Infinity
        outSlope: Infinity
        tangentMode: 103
      - serializedVersion: 2
        time: 1.6666666
        value: 0
        inSlope: Infinity
        outSlope: Infinity
        tangentMode: 103
      - serializedVersion: 2
        time: 1.6833333
        value: 0
        inSlope: Infinity
        outSlope: Infinity
        tangentMode: 103
      m_PreInfinity: 2
      m_PostInfinity: 2
      m_RotationOrder: 4
    attribute: m_IsActive
    path: Hotel Doors Parent/Hotel Door (1)
    classID: 1
    script: {fileID: 0}
  - curve:
      serializedVersion: 2
      m_Curve:
      - serializedVersion: 2
        time: 0
        value: 1
        inSlope: Infinity
        outSlope: Infinity
        tangentMode: 103
      - serializedVersion: 2
        time: 1.6666666
        value: 0
        inSlope: Infinity
        outSlope: Infinity
        tangentMode: 103
      - serializedVersion: 2
        time: 1.6833333
        value: 0
        inSlope: Infinity
        outSlope: Infinity
        tangentMode: 103
      m_PreInfinity: 2
      m_PostInfinity: 2
      m_RotationOrder: 4
    attribute: m_IsActive
    path: Hotel Doors Parent/Hotel Door (3)
    classID: 1
    script: {fileID: 0}
  - curve:
      serializedVersion: 2
      m_Curve:
      - serializedVersion: 2
        time: 0
        value: 1
        inSlope: Infinity
        outSlope: Infinity
        tangentMode: 103
      - serializedVersion: 2
        time: 1.6666666
        value: 0
        inSlope: Infinity
        outSlope: Infinity
        tangentMode: 103
      - serializedVersion: 2
        time: 1.6833333
        value: 0
        inSlope: Infinity
        outSlope: Infinity
        tangentMode: 103
      m_PreInfinity: 2
      m_PostInfinity: 2
      m_RotationOrder: 4
    attribute: m_IsActive
    path: Hotel Doors Parent/Hotel Door (2)
    classID: 1
    script: {fileID: 0}
  - curve:
      serializedVersion: 2
      m_Curve:
      - serializedVersion: 2
        time: 0
        value: 0
        inSlope: Infinity
        outSlope: Infinity
        tangentMode: 103
      - serializedVersion: 2
        time: 1.65
        value: 1
        inSlope: Infinity
        outSlope: Infinity
        tangentMode: 103
      m_PreInfinity: 2
      m_PostInfinity: 2
      m_RotationOrder: 4
    attribute: m_IsActive
    path: Hotel Doors Parent/Hotel Door Start Circle Particle
    classID: 1
    script: {fileID: 0}
  m_PPtrCurves: []
  m_SampleRate: 60
  m_WrapMode: 0
  m_Bounds:
    m_Center: {x: 0, y: 0, z: 0}
    m_Extent: {x: 0, y: 0, z: 0}
  m_ClipBindingConstant:
    genericBindings: []
    pptrCurveMapping: []
  m_AnimationClipSettings:
    serializedVersion: 2
    m_AdditiveReferencePoseClip: {fileID: 0}
    m_AdditiveReferencePoseTime: 0
    m_StartTime: 0
    m_StopTime: 1.6833333
    m_OrientationOffsetY: 0
    m_Level: 0
    m_CycleOffset: 0
    m_HasAdditiveReferencePose: 0
    m_LoopTime: 1
    m_LoopBlend: 0
    m_LoopBlendOrientation: 0
    m_LoopBlendPositionY: 0
    m_LoopBlendPositionXZ: 0
    m_KeepOriginalOrientation: 0
    m_KeepOriginalPositionY: 1
    m_KeepOriginalPositionXZ: 0
    m_HeightFromFeet: 0
    m_Mirror: 0
  m_EditorCurves:
  - curve:
      serializedVersion: 2
      m_Curve:
      - serializedVersion: 2
        time: 0
        value: 0
        inSlope: Infinity
        outSlope: Infinity
        tangentMode: 103
      - serializedVersion: 2
        time: 1.65
        value: 1
        inSlope: Infinity
        outSlope: Infinity
        tangentMode: 103
      m_PreInfinity: 2
      m_PostInfinity: 2
      m_RotationOrder: 4
    attribute: m_IsActive
    path: Hotel Doors Parent/Hotel Door Start Shards Particle
    classID: 1
    script: {fileID: 0}
  - curve:
      serializedVersion: 2
      m_Curve:
      - serializedVersion: 2
        time: 0
        value: 0
        inSlope: Infinity
        outSlope: Infinity
        tangentMode: 103
      - serializedVersion: 2
        time: 1.65
        value: 1
        inSlope: Infinity
        outSlope: Infinity
        tangentMode: 103
      m_PreInfinity: 2
      m_PostInfinity: 2
      m_RotationOrder: 4
    attribute: m_IsActive
    path: Hotel Doors Parent/Hotel Door Start Dust Particle
    classID: 1
    script: {fileID: 0}
  - curve:
      serializedVersion: 2
      m_Curve:
      - serializedVersion: 2
        time: 0
        value: -2.11
        inSlope: 0.03999996
        outSlope: 0.2571426
        tangentMode: 69
      - serializedVersion: 2
        time: 0.11666667
        value: -2.08
        inSlope: 0.2571426
        outSlope: -0.30000034
        tangentMode: 69
      - serializedVersion: 2
        time: 0.3
        value: -2.135
        inSlope: -0.30000034
        outSlope: 0.36666718
        tangentMode: 69
      - serializedVersion: 2
        time: 0.45
        value: -2.08
        inSlope: 0.36666718
        outSlope: -0.41250053
        tangentMode: 69
      - serializedVersion: 2
        time: 0.5833333
        value: -2.135
        inSlope: -0.41250053
        outSlope: 0.4714291
        tangentMode: 69
      - serializedVersion: 2
        time: 0.7
        value: -2.08
        inSlope: 0.4714291
        outSlope: -0.55000055
        tangentMode: 69
      - serializedVersion: 2
        time: 0.8
        value: -2.135
        inSlope: -0.55000055
        outSlope: 0.660001
        tangentMode: 69
      - serializedVersion: 2
        time: 0.8833333
        value: -2.08
        inSlope: 0.660001
        outSlope: -0.660001
        tangentMode: 69
      - serializedVersion: 2
        time: 0.96666664
        value: -2.135
        inSlope: -0.660001
        outSlope: 0.660001
        tangentMode: 69
      - serializedVersion: 2
        time: 1.05
        value: -2.08
        inSlope: 0.660001
        outSlope: -0.66000146
        tangentMode: 69
      - serializedVersion: 2
        time: 1.1333332
        value: -2.135
        inSlope: -0.66000146
        outSlope: 0.8250003
        tangentMode: 69
      - serializedVersion: 2
        time: 1.1999999
        value: -2.08
        inSlope: 0.8250003
        outSlope: -0.8250018
        tangentMode: 69
      - serializedVersion: 2
        time: 1.2666665
        value: -2.135
        inSlope: -0.8250018
        outSlope: 0.8250003
        tangentMode: 69
      - serializedVersion: 2
        time: 1.3333333
        value: -2.08
        inSlope: 0.8250003
        outSlope: -0.8250018
        tangentMode: 69
      - serializedVersion: 2
        time: 1.3999999
        value: -2.135
        inSlope: -0.8250018
        outSlope: 1.0999972
        tangentMode: 69
      - serializedVersion: 2
        time: 1.45
        value: -2.08
        inSlope: 1.0999972
        outSlope: -1.1000024
        tangentMode: 69
      - serializedVersion: 2
        time: 1.5
        value: -2.135
        inSlope: -1.1000024
        outSlope: 1.1000024
        tangentMode: 69
      - serializedVersion: 2
        time: 1.55
        value: -2.08
        inSlope: 1.1000024
        outSlope: -1.0999998
        tangentMode: 69
      - serializedVersion: 2
        time: 1.6
        value: -2.135
        inSlope: -1.0999998
        outSlope: 1.1000024
        tangentMode: 69
      - serializedVersion: 2
        time: 1.65
        value: -2.08
        inSlope: 1.1000024
        outSlope: -1.4
        tangentMode: 69
      - serializedVersion: 2
        time: 1.6666666
        value: -2.1033332
        inSlope: -1.4
        outSlope: -0.80000716
        tangentMode: 69
      m_PreInfinity: 2
      m_PostInfinity: 2
      m_RotationOrder: 4
    attribute: m_LocalPosition.x
    path: Hotel Doors Parent/Hotel Door (1)
    classID: 4
    script: {fileID: 0}
  - curve:
      serializedVersion: 2
      m_Curve:
      - serializedVersion: 2
        time: 0
        value: 0
        inSlope: 0
        outSlope: 0
        tangentMode: 34
      m_PreInfinity: 2
      m_PostInfinity: 2
      m_RotationOrder: 4
    attribute: m_LocalPosition.y
    path: Hotel Doors Parent/Hotel Door (1)
    classID: 4
    script: {fileID: 0}
  - curve:
      serializedVersion: 2
      m_Curve:
      - serializedVersion: 2
        time: 0
        value: 0
        inSlope: 0
        outSlope: 0
        tangentMode: 34
      m_PreInfinity: 2
      m_PostInfinity: 2
      m_RotationOrder: 4
    attribute: m_LocalPosition.z
    path: Hotel Doors Parent/Hotel Door (1)
    classID: 4
    script: {fileID: 0}
  - curve:
      serializedVersion: 2
      m_Curve:
      - serializedVersion: 2
        time: 0
        value: 2.062
        inSlope: 0.038666565
        outSlope: 0.16799927
        tangentMode: 69
      - serializedVersion: 2
        time: 0.16666667
        value: 2.09
        inSlope: 0.16799927
        outSlope: -0.27272698
        tangentMode: 69
      - serializedVersion: 2
        time: 0.35000002
        value: 2.04
        inSlope: -0.27272698
        outSlope: 0.2499997
        tangentMode: 69
      - serializedVersion: 2
        time: 0.5500001
        value: 2.09
        inSlope: 0.2499997
        outSlope: -0.37499967
        tangentMode: 69
      - serializedVersion: 2
        time: 0.6833334
        value: 2.04
        inSlope: -0.37499967
        outSlope: 0.428571
        tangentMode: 69
      - serializedVersion: 2
        time: 0.8000001
        value: 2.09
        inSlope: 0.428571
        outSlope: -0.4999994
        tangentMode: 69
      - serializedVersion: 2
        time: 0.9000001
        value: 2.04
        inSlope: -0.4999994
        outSlope: 0.59999955
        tangentMode: 69
      - serializedVersion: 2
        time: 0.9833334
        value: 2.09
        inSlope: 0.59999955
        outSlope: -0.59999955
        tangentMode: 69
      - serializedVersion: 2
        time: 1.0666667
        value: 2.04
        inSlope: -0.59999955
        outSlope: 0.6
        tangentMode: 69
      - serializedVersion: 2
        time: 1.15
        value: 2.09
        inSlope: 0.6
        outSlope: -0.6
        tangentMode: 69
      - serializedVersion: 2
        time: 1.2333332
        value: 2.04
        inSlope: -0.6
        outSlope: 0.7499987
        tangentMode: 69
      - serializedVersion: 2
        time: 1.3
        value: 2.09
        inSlope: 0.7499987
        outSlope: -0.75
        tangentMode: 69
      - serializedVersion: 2
        time: 1.3666666
        value: 2.04
        inSlope: -0.75
        outSlope: 0.7499987
        tangentMode: 69
      - serializedVersion: 2
        time: 1.4333333
        value: 2.09
        inSlope: 0.7499987
        outSlope: -0.75
        tangentMode: 69
      - serializedVersion: 2
        time: 1.4999999
        value: 2.04
        inSlope: -0.75
        outSlope: 0.99999523
        tangentMode: 69
      - serializedVersion: 2
        time: 1.5500001
        value: 2.09
        inSlope: 0.99999523
        outSlope: -1
        tangentMode: 69
      - serializedVersion: 2
        time: 1.6
        value: 2.04
        inSlope: -1
        outSlope: 0.75
        tangentMode: 69
      - serializedVersion: 2
        time: 1.6666666
        value: 2.09
        inSlope: 0.75
        outSlope: -0.8000029
        tangentMode: 69
      m_PreInfinity: 2
      m_PostInfinity: 2
      m_RotationOrder: 4
    attribute: m_LocalPosition.x
    path: Hotel Doors Parent/Hotel Door (3)
    classID: 4
    script: {fileID: 0}
  - curve:
      serializedVersion: 2
      m_Curve:
      - serializedVersion: 2
        time: 0
        value: 0
        inSlope: 0
        outSlope: 0
        tangentMode: 34
      m_PreInfinity: 2
      m_PostInfinity: 2
      m_RotationOrder: 4
    attribute: m_LocalPosition.y
    path: Hotel Doors Parent/Hotel Door (3)
    classID: 4
    script: {fileID: 0}
  - curve:
      serializedVersion: 2
      m_Curve:
      - serializedVersion: 2
        time: 0
        value: 0
        inSlope: 0
        outSlope: 0
        tangentMode: 34
      m_PreInfinity: 2
      m_PostInfinity: 2
      m_RotationOrder: 4
    attribute: m_LocalPosition.z
    path: Hotel Doors Parent/Hotel Door (3)
    classID: 4
    script: {fileID: 0}
  - curve:
      serializedVersion: 2
      m_Curve:
      - serializedVersion: 2
        time: 0
        value: -0.021
        inSlope: 0.039333332
        outSlope: 0.26999998
        tangentMode: 69
      - serializedVersion: 2
        time: 0.16666667
        value: 0.024
        inSlope: 0.26999998
        outSlope: -0.24545452
        tangentMode: 69
      - serializedVersion: 2
        time: 0.35000002
        value: -0.021
        inSlope: -0.24545452
        outSlope: 0.30000004
        tangentMode: 69
      - serializedVersion: 2
        time: 0.5
        value: 0.024
        inSlope: 0.30000004
        outSlope: -0.3375
        tangentMode: 69
      - serializedVersion: 2
        time: 0.6333333
        value: -0.021
        inSlope: -0.3375
        outSlope: 0.38571426
        tangentMode: 69
      - serializedVersion: 2
        time: 0.75
        value: 0.024
        inSlope: 0.38571426
        outSlope: -0.4499999
        tangentMode: 69
      - serializedVersion: 2
        time: 0.85
        value: -0.021
        inSlope: -0.4499999
        outSlope: 0.54000014
        tangentMode: 69
      - serializedVersion: 2
        time: 0.93333334
        value: 0.024
        inSlope: 0.54000014
        outSlope: -0.54000014
        tangentMode: 69
      - serializedVersion: 2
        time: 1.0166667
        value: -0.021
        inSlope: -0.54000014
        outSlope: 0.5400005
        tangentMode: 69
      - serializedVersion: 2
        time: 1.0999999
        value: 0.024
        inSlope: 0.5400005
        outSlope: -0.5400005
        tangentMode: 69
      - serializedVersion: 2
        time: 1.1833332
        value: -0.021
        inSlope: -0.5400005
        outSlope: 0.6749994
        tangentMode: 69
      - serializedVersion: 2
        time: 1.2499999
        value: 0.024
        inSlope: 0.6749994
        outSlope: -0.67500067
        tangentMode: 69
      - serializedVersion: 2
        time: 1.3166665
        value: -0.021
        inSlope: -0.67500067
        outSlope: 0.6749994
        tangentMode: 69
      - serializedVersion: 2
        time: 1.3833332
        value: 0.024
        inSlope: 0.6749994
        outSlope: -0.67500067
        tangentMode: 69
      - serializedVersion: 2
        time: 1.4499998
        value: -0.021
        inSlope: -0.67500067
        outSlope: 0.8999966
        tangentMode: 69
      - serializedVersion: 2
        time: 1.5
        value: 0.024
        inSlope: 0.8999966
        outSlope: -0.9000009
        tangentMode: 69
      - serializedVersion: 2
        time: 1.55
        value: -0.021
        inSlope: -0.9000009
        outSlope: 0.9000009
        tangentMode: 69
      - serializedVersion: 2
        time: 1.5999999
        value: 0.024
        inSlope: 0.9000009
        outSlope: -0.8999987
        tangentMode: 69
      - serializedVersion: 2
        time: 1.65
        value: -0.021
        inSlope: -0.8999987
        outSlope: -0
        tangentMode: 69
      - serializedVersion: 2
        time: 1.6666666
        value: -0.021
        inSlope: 0
        outSlope: 0.8000029
        tangentMode: 69
      m_PreInfinity: 2
      m_PostInfinity: 2
      m_RotationOrder: 4
    attribute: m_LocalPosition.x
    path: Hotel Doors Parent/Hotel Door (2)
    classID: 4
    script: {fileID: 0}
  - curve:
      serializedVersion: 2
      m_Curve:
      - serializedVersion: 2
        time: 0
        value: 0
        inSlope: 0
        outSlope: 0
        tangentMode: 34
      m_PreInfinity: 2
      m_PostInfinity: 2
      m_RotationOrder: 4
    attribute: m_LocalPosition.y
    path: Hotel Doors Parent/Hotel Door (2)
    classID: 4
    script: {fileID: 0}
  - curve:
      serializedVersion: 2
      m_Curve:
      - serializedVersion: 2
        time: 0
        value: 0
        inSlope: 0
        outSlope: 0
        tangentMode: 34
      m_PreInfinity: 2
      m_PostInfinity: 2
      m_RotationOrder: 4
    attribute: m_LocalPosition.z
    path: Hotel Doors Parent/Hotel Door (2)
    classID: 4
    script: {fileID: 0}
  - curve:
      serializedVersion: 2
      m_Curve:
      - serializedVersion: 2
        time: 0
        value: 1
        inSlope: Infinity
        outSlope: Infinity
        tangentMode: 103
      - serializedVersion: 2
        time: 1.6666666
        value: 0
        inSlope: Infinity
        outSlope: Infinity
        tangentMode: 103
      - serializedVersion: 2
        time: 1.6833333
        value: 0
        inSlope: Infinity
        outSlope: Infinity
        tangentMode: 103
      m_PreInfinity: 2
      m_PostInfinity: 2
      m_RotationOrder: 4
    attribute: m_IsActive
    path: Hotel Doors Parent/Hotel Door (1)
    classID: 1
    script: {fileID: 0}
  - curve:
      serializedVersion: 2
      m_Curve:
      - serializedVersion: 2
        time: 0
        value: 1
        inSlope: Infinity
        outSlope: Infinity
        tangentMode: 103
      - serializedVersion: 2
        time: 1.6666666
        value: 0
        inSlope: Infinity
        outSlope: Infinity
        tangentMode: 103
      - serializedVersion: 2
        time: 1.6833333
        value: 0
        inSlope: Infinity
        outSlope: Infinity
        tangentMode: 103
      m_PreInfinity: 2
      m_PostInfinity: 2
      m_RotationOrder: 4
    attribute: m_IsActive
    path: Hotel Doors Parent/Hotel Door (3)
    classID: 1
    script: {fileID: 0}
  - curve:
      serializedVersion: 2
      m_Curve:
      - serializedVersion: 2
        time: 0
        value: 1
        inSlope: Infinity
        outSlope: Infinity
        tangentMode: 103
      - serializedVersion: 2
        time: 1.6666666
        value: 0
        inSlope: Infinity
        outSlope: Infinity
        tangentMode: 103
      - serializedVersion: 2
        time: 1.6833333
        value: 0
        inSlope: Infinity
        outSlope: Infinity
        tangentMode: 103
      m_PreInfinity: 2
      m_PostInfinity: 2
      m_RotationOrder: 4
    attribute: m_IsActive
    path: Hotel Doors Parent/Hotel Door (2)
    classID: 1
    script: {fileID: 0}
  - curve:
      serializedVersion: 2
      m_Curve:
      - serializedVersion: 2
        time: 0
        value: 0
        inSlope: Infinity
        outSlope: Infinity
        tangentMode: 103
      - serializedVersion: 2
        time: 1.65
        value: 1
        inSlope: Infinity
        outSlope: Infinity
        tangentMode: 103
      m_PreInfinity: 2
      m_PostInfinity: 2
      m_RotationOrder: 4
    attribute: m_IsActive
    path: Hotel Doors Parent/Hotel Door Start Circle Particle
    classID: 1
    script: {fileID: 0}
  m_EulerEditorCurves: []
  m_HasGenericRootTransform: 0
  m_HasMotionFloatCurves: 0
  m_GenerateMotionCurves: 0
  m_Events:
  - time: 1.65
    functionName: BellTo_Wolrd3_Shake
    data: 
    objectReferenceParameter: {fileID: 0}
    floatParameter: 0
    intParameter: 0
    messageOptions: 0
  - time: 1.6666666
    functionName: Bell_DingCallNow
    data: 
    objectReferenceParameter: {fileID: 0}
    floatParameter: 0
    intParameter: 0
    messageOptions: 0
